Results of MIP model: 
MIP objective    = 774.5
MIP upper bound  = 776.205
MIP solving time = 1800.03

------------------------------------------------------------
Results of Logic-based Benders decomposition method: 
(Initial solutions added) 
LBBD best objective   = 775
LBBD solving time     = 1021.61

------------------------------------------------------------
Results of Logic-based Benders decomposition method: 
 (without initial feasible solutions)
LBBD best objective   = 775
LBBD solving time     = 1046.6

------------------------------------------------------------
Results of Logic-based Benders decomposition method: 
(MP gap = 1%) 
LBBD best objective   = 771.25
LBBD solving time     = 2.417

------------------------------------------------------------
------------------------------------------------------------
Parameters :
M = 5

N = 40

T = 125

Initial SOP of job i in N: delta_i = 
   8	   1	   3	   4	   3	   3	   0	   3	   0	   1	   1	   6	   9	   1	   2	   6	   8	   7	   1	   6	   3	   8	   2	   7	   3	   0	   6	   9	   0	   3	   9	   8	   5	   1	   8	   1	   2	   8	   8	   5	

Minimum required SOP of job i : pl_i = 
  14	  15	  13	  14	  10	  12	  14	  11	  11	  10	  13	  15	  13	  13	  13	  10	  14	  14	  11	  12	  15	  15	  13	  12	  10	  15	  10	  10	  15	  12	  11	  11	  15	  15	  11	  13	  15	  13	  13	  14	

Maximum required SOP of job i : pu_i = 
  24	  21	  24	  22	  24	  23	  21	  22	  22	  21	  25	  21	  24	  20	  20	  21	  25	  21	  25	  24	  24	  24	  25	  21	  24	  25	  22	  20	  22	  25	  25	  22	  25	  22	  24	  20	  20	  24	  22	  25	

Processing rate of job i on machine k : tau_ki = 
   1	 0.5	   2	   1	 0.5	   1	   2	   2	   2	 0.5	   1	 0.5	   1	   1	   1	   1	 0.5	   1	 0.5	   1	   1	   1	   1	   1	   2	   2	 0.5	   1	   2	 0.5	   1	   1	 0.5	   1	   1	   2	   2	   2	 0.5	   2	
   2	   2	   1	   2	 0.5	   1	   2	   2	   1	   1	 0.5	   1	   1	   2	   2	 0.5	   1	   1	 0.5	   2	   2	   1	 0.5	   2	 0.5	 0.5	   2	   2	   2	 0.5	   2	 0.5	   1	   2	 0.5	   2	 0.5	   1	 0.5	 0.5	
 0.5	   1	   1	   2	 0.5	   2	   1	 0.5	   2	   2	 0.5	   2	   2	   1	   2	 0.5	   1	   1	   2	 0.5	   2	 0.5	   2	   2	 0.5	 0.5	   2	 0.5	   2	 0.5	   2	   1	 0.5	   2	   2	   2	 0.5	   2	   1	   2	
   1	 0.5	   1	   2	 0.5	   1	   1	   1	   1	 0.5	 0.5	   2	   2	 0.5	   2	   1	   1	   2	   2	   1	   1	   2	   1	   2	   2	 0.5	 0.5	   1	   1	   2	   1	   1	   1	 0.5	 0.5	   1	   1	   1	 0.5	 0.5	
 0.5	 0.5	 0.5	   2	 0.5	   1	   2	 0.5	   1	 0.5	 0.5	 0.5	 0.5	   1	   2	   2	 0.5	   2	   2	   1	   1	 0.5	   2	 0.5	 0.5	 0.5	   2	   1	   1	   1	   2	   2	   1	 0.5	   2	   2	 0.5	   2	 0.5	   1	


Minimum processing time of job i on machine k : tl_ki = 
   6	  28	   5	  10	  14	   9	   7	   4	 5.5	  18	  12	  18	   4	  12	  11	   4	  12	   7	  20	   6	  12	   7	  11	   5	 3.5	 7.5	   8	   1	 7.5	  18	   2	   3	  20	  14	   3	   6	 6.5	 2.5	  10	 4.5	
   3	   7	  10	   5	  14	   9	   7	   4	  11	   9	  24	   9	   4	   6	 5.5	   8	   6	   7	  20	   3	   6	   7	  22	 2.5	  14	  30	   2	 0.5	 7.5	  18	   1	   6	  10	   7	   6	   6	  26	   5	  10	  18	
  12	  14	  10	   5	  14	 4.5	  14	  16	 5.5	 4.5	  24	 4.5	   2	  12	 5.5	   8	   6	   7	   5	  12	   6	  14	 5.5	 2.5	  14	  30	   2	   2	 7.5	  18	   1	   3	  20	   7	 1.5	   6	  26	 2.5	   5	 4.5	
   6	  28	  10	   5	  14	   9	  14	   8	  11	  18	  24	 4.5	   2	  24	 5.5	   4	   6	 3.5	   5	   6	  12	 3.5	  11	 2.5	 3.5	  30	   8	   1	  15	 4.5	   2	   3	  10	  28	   6	  12	  13	   5	  10	  18	
  12	  28	  20	   5	  14	   9	   7	  16	  11	  18	  24	  18	   8	  12	 5.5	   2	  12	 3.5	   5	   6	  12	  14	 5.5	  10	  14	  30	   2	   1	  15	   9	   1	 1.5	  10	  28	 1.5	   6	  26	 2.5	  10	   9	


Maximum processing time of job i on machine k : tu_ki = 
  16	  40	10.5	  18	  42	  20	10.5	 9.5	  11	  40	  24	  30	  15	  19	  18	  15	  34	  14	  48	  18	  21	  16	  23	  14	10.5	12.5	  32	  11	  11	  44	  16	  14	  40	  21	  16	 9.5	   9	   8	  28	  10	
   8	  10	  21	   9	  42	  20	10.5	 9.5	  22	  20	  48	  15	  15	 9.5	   9	  30	  17	  14	  48	   9	10.5	  16	  46	   7	  42	  50	   8	 5.5	  11	  44	   8	  28	  20	10.5	  32	 9.5	  36	  16	  28	  40	
  32	  20	  21	   9	  42	  10	  21	  38	  11	  10	  48	 7.5	 7.5	  19	   9	  30	  17	  14	  12	  36	10.5	  32	11.5	   7	  42	  50	   8	  22	  11	  44	   8	  14	  40	10.5	   8	 9.5	  36	   8	  14	  10	
  16	  40	  21	   9	  42	  20	  21	  19	  22	  40	  48	 7.5	 7.5	  38	   9	  15	  17	   7	  12	  18	  21	   8	  23	   7	10.5	  50	  32	  11	  22	  11	  16	  14	  20	  42	  32	  19	  18	  16	  28	  40	
  32	  40	  42	   9	  42	  20	10.5	  38	  22	  40	  48	  30	  30	  19	   9	 7.5	  34	   7	  12	  18	  21	  32	11.5	  28	  42	  50	   8	  11	  22	  22	   8	   7	  20	  42	   8	 9.5	  36	   8	  28	  20	


Setup time: s_kij = 
 999	   6	   5	   5	   7	   6	   6	   6	   6	   6	   5	   5	   6	   6	   6	   5	   6	   6	   6	   7	   6	   5	   6	   6	   7	   6	   6	   7	   5	   7	   7	   6	   6	   7	   7	   6	   7	   6	   7	   7	   0	
   8	 999	   7	   6	   6	   7	   5	   6	   5	   6	   6	   7	   5	   6	   5	   7	   8	   6	   5	   7	   7	   6	   7	   5	   7	   5	   8	   7	   6	   5	   5	   7	   5	   5	   6	   7	   6	   6	   7	   6	   0	
   6	   7	 999	   6	   7	   5	   7	   6	   7	   6	   5	   5	   6	   6	   6	   6	   6	   5	   6	   7	   6	   5	   5	   6	   6	   6	   6	   7	   6	   7	   7	   5	   7	   7	   6	   6	   6	   6	   6	   6	   0	
   6	   7	   6	 999	   7	   6	   6	   6	   6	   5	   5	   6	   6	   7	   5	   6	   7	   7	   5	   8	   7	   5	   6	   6	   7	   6	   7	   8	   5	   6	   6	   6	   6	   6	   7	   7	   7	   5	   8	   7	   0	
   6	   6	   5	   5	 999	   8	   6	   6	   6	   7	   6	   7	   5	   6	   6	   7	   8	   6	   6	   6	   7	   7	   8	   6	   7	   5	   9	   6	   7	   5	   5	   8	   6	   5	   6	   8	   6	   7	   6	   6	   0	
   9	   5	   7	   7	   7	 999	   7	   6	   7	   6	   6	   5	   7	   6	   7	   6	   5	   6	   7	   7	   6	   5	   5	   7	   6	   7	   5	   7	   6	   8	   8	   5	   7	   8	   7	   6	   7	   6	   6	   6	   0	
   6	   6	   5	   5	   5	   7	 999	   6	   5	   6	   6	   7	   5	   6	   5	   7	   8	   6	   5	   7	   7	   6	   7	   5	   7	   6	   8	   7	   6	   5	   5	   7	   5	   5	   7	   7	   6	   6	   7	   6	   0	
   7	   6	   6	   6	   5	   6	   5	 999	   6	   7	   5	   6	   5	   5	   5	   6	   7	   5	   6	   6	   6	   5	   6	   5	   6	   5	   7	   6	   6	   6	   6	   6	   6	   6	   6	   6	   6	   7	   6	   6	   0	
   7	   6	   8	   6	   7	   6	   7	   6	 999	   6	   6	   7	   5	   6	   5	   7	   8	   6	   5	   7	   7	   7	   7	   5	   7	   6	   8	   7	   6	   6	   5	   7	   5	   6	   7	   7	   7	   7	   7	   7	   0	
   6	   7	   5	   7	   6	   7	   6	   7	   8	 999	   6	   6	   7	   8	   6	   5	   7	   7	   6	   8	   8	   6	   7	   6	   8	   7	   7	   9	   5	   7	   7	   6	   6	   7	   8	   8	   8	   5	   8	   8	   0	
   8	   6	   6	   6	   6	   6	   6	   6	   7	   6	 999	   5	   5	   6	   6	   6	   7	   6	   5	   7	   6	   5	   6	   6	   6	   6	   7	   7	   6	   7	   6	   6	   6	   6	   6	   6	   6	   6	   7	   6	   0	
   8	   5	   7	   7	   7	   5	   7	   6	   6	   7	   6	 999	   6	   6	   6	   5	   6	   6	   6	   7	   7	   5	   6	   7	   7	   6	   6	   7	   5	   7	   7	   5	   7	   7	   7	   6	   7	   5	   7	   7	   0	
   9	   5	   7	   7	   7	   5	   7	   6	   6	   7	   6	   5	 999	   6	   5	   6	   7	   5	   5	   6	   6	   6	   7	   5	   6	   5	   8	   6	   6	   6	   6	   7	   6	   6	   6	   7	   6	   6	   6	   6	   0	
   8	   5	   6	   7	   6	   5	   6	   5	   6	   7	   6	   5	   5	 999	   6	   7	   7	   5	   7	   5	   6	   6	   6	   6	   6	   5	   7	   5	   7	   6	   6	   6	   7	   6	   5	   6	   5	   7	   5	   5	   0	
   7	   5	   6	   6	   6	   6	   6	   5	   6	   7	   6	   6	   6	   5	 999	   6	   8	   6	   5	   7	   7	   6	   7	   5	   6	   5	   8	   7	   6	   5	   5	   7	   5	   5	   6	   7	   6	   6	   7	   6	   0	
   7	   6	   7	   6	   6	   6	   6	   5	   5	   8	   7	   6	   7	   6	   6	 999	   6	   7	   6	   8	   7	   6	   6	   6	   8	   7	   6	   8	   5	   7	   7	   5	   7	   7	   8	   7	   7	   5	   8	   7	   0	
   6	   7	   5	   6	   5	   7	   5	   6	   7	   6	   6	   7	   7	   6	   6	   7	 999	   7	   7	   7	   6	   6	   5	   8	   6	   8	   5	   7	   6	   9	   8	   5	   8	   8	   7	   5	   7	   7	   6	   7	   0	
   6	   7	   6	   5	   6	   7	   6	   6	   6	   7	   6	   7	   7	   6	   6	   5	   6	 999	   6	   6	   6	   6	   6	   6	   5	   5	   7	   6	   7	   6	   6	   6	   7	   6	   5	   6	   5	   7	   5	   5	   0	
   5	   8	   6	   5	   6	   8	   6	   7	   7	   6	   7	   8	   8	   7	   7	   7	   6	   6	 999	   7	   7	   6	   7	   5	   7	   6	   8	   7	   6	   6	   6	   7	   5	   6	   7	   7	   7	   6	   7	   7	   0	
   7	   6	   7	   5	   6	   7	   6	   5	   5	   7	   6	   6	   7	   6	   5	   5	   6	   5	   6	 999	   5	   7	   6	   7	   5	   6	   7	   5	   8	   7	   6	   7	   8	   6	   5	   6	   5	   8	   5	   5	   0	
   5	   8	   6	   5	   6	   8	   6	   7	   7	   6	   7	   8	   8	   7	   7	   6	   5	   5	   5	   6	 999	   6	   5	   7	   5	   7	   6	   6	   7	   7	   7	   6	   7	   7	   6	   5	   6	   8	   5	   6	   0	
   5	   8	   6	   5	   6	   8	   6	   7	   7	   6	   7	   8	   8	   7	   7	   7	   6	   6	   5	   6	   5	 999	   5	   6	   7	   6	   6	   7	   6	   7	   7	   5	   6	   7	   7	   6	   6	   6	   7	   6	   0	
   7	   6	   8	   6	   7	   7	   7	   6	   5	   8	   7	   7	   7	   6	   6	   5	   7	   6	   7	   5	   7	   7	 999	   7	   6	   7	   6	   6	   6	   8	   8	   5	   7	   8	   7	   5	   6	   7	   6	   6	   0	
   7	   6	   6	   5	   5	   7	   5	   5	   6	   7	   6	   6	   7	   6	   5	   6	   6	   5	   6	   5	   6	   6	   6	 999	   6	   5	   8	   7	   6	   5	   5	   7	   5	   5	   6	   7	   6	   6	   7	   6	   0	
   8	   5	   6	   7	   6	   5	   6	   5	   6	   7	   6	   5	   5	   5	   5	   6	   6	   6	   8	   6	   7	   8	   6	   6	 999	   6	   6	   6	   8	   7	   7	   7	   7	   7	   6	   5	   6	   8	   5	   5	   0	
   8	   5	   6	   7	   6	   5	   6	   5	   6	   7	   6	   5	   5	   5	   5	   6	   7	   7	   8	   6	   7	   8	   6	   6	   5	 999	   8	   6	   7	   5	   5	   7	   6	   5	   5	   7	   5	   7	   6	   6	   0	
   7	   6	   6	   5	   5	   6	   5	   5	   6	   7	   6	   6	   6	   6	   5	   6	   6	   5	   6	   5	   6	   6	   6	   5	   6	   6	 999	   7	   6	   9	   9	   5	   8	   9	   8	   6	   7	   6	   7	   7	   0	
   6	   7	   5	   5	   5	   7	   5	   6	   7	   6	   6	   7	   8	   7	   6	   6	   5	   6	   5	   6	   5	   5	   7	   5	   7	   7	   6	 999	   8	   6	   6	   7	   8	   6	   5	   6	   5	   8	   5	   5	   0	
   7	   6	   6	   6	   5	   6	   5	   5	   6	   6	   5	   6	   6	   5	   5	   6	   6	   6	   7	   5	   7	   7	   6	   5	   5	   5	   5	   6	 999	   7	   7	   5	   6	   7	   8	   7	   7	   5	   8	   7	   0	
   8	   5	   7	   7	   6	   5	   6	   5	   6	   7	   6	   5	   5	   5	   5	   6	   7	   7	   8	   6	   8	   8	   6	   6	   5	   5	   6	   7	   6	 999	   5	   8	   6	   5	   6	   8	   6	   7	   7	   6	   0	
   6	   7	   7	   6	   6	   7	   6	   6	   6	   8	   7	   7	   8	   7	   6	   6	   7	   5	   6	   5	   6	   6	   5	   6	   7	   7	   6	   6	   6	   7	 999	   8	   6	   5	   6	   8	   6	   7	   6	   6	   0	
   7	   7	   6	   6	   6	   7	   6	   7	   8	   6	   5	   7	   6	   7	   6	   8	   6	   7	   7	   7	   7	   7	   8	   6	   6	   7	   6	   6	   6	   7	   7	 999	   7	   8	   7	   6	   7	   6	   7	   7	   0	
   7	   6	   5	   5	   5	   6	   5	   6	   7	   6	   5	   6	   6	   6	   6	   7	   5	   6	   6	   6	   6	   6	   7	   5	   6	   6	   5	   6	   5	   6	   6	   5	 999	   6	   7	   7	   7	   6	   7	   7	   0	
   5	   7	   6	   5	   6	   8	   6	   6	   6	   7	   7	   8	   8	   7	   7	   6	   6	   5	   5	   6	   5	   5	   6	   6	   7	   7	   6	   5	   6	   7	   6	   6	   6	 999	   6	   8	   6	   7	   6	   6	   0	
   7	   6	   8	   6	   7	   6	   7	   6	   5	   9	   8	   6	   6	   6	   6	   5	   7	   6	   7	   6	   7	   7	   5	   6	   6	   6	   6	   7	   7	   6	   6	   8	   7	   6	 999	   7	   5	   8	   5	   5	   0	
   5	   8	   6	   6	   6	   9	   6	   7	   7	   6	   8	   8	   9	   8	   7	   7	   6	   6	   5	   7	   5	   5	   7	   7	   8	   8	   7	   6	   7	   8	   6	   7	   7	   5	   7	 999	   6	   7	   6	   6	   0	
   7	   6	   7	   6	   6	   6	   7	   6	   5	   8	   7	   6	   7	   6	   6	   5	   7	   5	   7	   5	   6	   7	   5	   6	   6	   6	   6	   6	   6	   6	   5	   8	   7	   6	   5	   7	 999	   8	   5	   5	   0	
   8	   5	   7	   6	   6	   6	   6	   6	   5	   8	   7	   5	   6	   6	   6	   5	   7	   6	   7	   6	   7	   7	   6	   6	   6	   5	   6	   6	   6	   5	   6	   8	   7	   7	   5	   8	   5	 999	   8	   8	   0	
   5	   8	   6	   5	   6	   8	   6	   7	   7	   7	   7	   8	   8	   7	   7	   6	   6	   6	   6	   6	   5	   6	   6	   6	   7	   8	   6	   5	   7	   8	   5	   7	   6	   5	   6	   5	   6	   7	 999	   5	   0	
   8	   5	   6	   6	   6	   5	   6	   5	   6	   6	   5	   5	   5	   5	   5	   6	   6	   6	   7	   6	   7	   7	   6	   6	   5	   5	   6	   7	   5	   5	   7	   6	   6	   7	   7	   8	   6	   6	   7	 999	   0	
   8	   5	   6	   6	   6	   5	   6	   5	   6	   7	   6	   5	   6	   5	   5	   6	   6	   6	   7	   6	   7	   7	   6	   6	   5	   5	   5	   7	   5	   5	   6	   6	   5	   7	   6	   8	   6	   6	   7	   5	 999	

 999	   7	   6	   5	   6	   6	   7	   7	   5	   6	   7	   6	   5	   7	   6	   7	   7	   6	   6	   6	   6	   6	   7	   7	   6	   5	   8	   7	   7	   7	   5	   7	   6	   6	   7	   5	   5	   5	   6	   6	   0	
   5	 999	   6	   7	   5	   6	   6	   6	   6	   8	   5	   6	   6	   5	   7	   6	   5	   8	   6	   6	   6	   6	   5	   6	   6	   7	   5	   7	   5	   5	   7	   6	   7	   7	   5	   7	   7	   7	   7	   7	   0	
   6	   7	 999	   6	   5	   5	   7	   6	   5	   7	   6	   5	   5	   6	   6	   5	   6	   7	   5	   5	   5	   5	   6	   6	   5	   6	   6	   6	   6	   6	   6	   6	   6	   6	   6	   6	   6	   6	   6	   6	   0	
   7	   8	   6	 999	   6	   5	   8	   7	   5	   6	   6	   6	   6	   7	   5	   6	   7	   6	   5	   5	   6	   6	   7	   6	   6	   6	   7	   7	   7	   6	   5	   7	   6	   5	   7	   5	   5	   5	   6	   6	   0	
   6	   6	   8	   9	 999	   5	   6	   6	   6	   8	   5	   5	   5	   5	   6	   5	   5	   7	   5	   5	   5	   5	   6	   5	   5	   7	   6	   6	   6	   5	   6	   6	   7	   6	   5	   6	   6	   6	   6	   6	   0	
   7	   8	   6	   5	   9	 999	   7	   6	   5	   7	   6	   5	   5	   6	   6	   6	   6	   6	   5	   5	   5	   5	   6	   6	   5	   6	   7	   6	   6	   6	   6	   6	   6	   6	   6	   5	   6	   5	   6	   5	   0	
   6	   5	   6	   8	   6	   8	 999	   5	   7	   7	   6	   6	   7	   5	   8	   7	   5	   9	   7	   7	   6	   6	   5	   7	   6	   7	   6	   6	   6	   6	   8	   5	   6	   8	   6	   8	   7	   8	   6	   8	   0	
   8	   8	   7	   7	   7	   7	   7	 999	   6	   7	   6	   6	   6	   5	   7	   6	   5	   8	   6	   6	   6	   6	   6	   6	   6	   7	   6	   5	   6	   6	   7	   5	   6	   7	   6	   7	   7	   7	   6	   7	   0	
   7	   7	   5	   5	   8	   5	   7	   6	 999	   6	   6	   6	   5	   6	   6	   6	   6	   7	   5	   5	   5	   5	   6	   6	   5	   6	   7	   6	   7	   6	   6	   6	   6	   6	   6	   5	   5	   5	   5	   6	   0	
   7	   6	   6	   7	   6	   7	   5	   6	   6	 999	   8	   7	   7	   7	   7	   8	   8	   7	   7	   7	   7	   7	   8	   8	   7	   5	   9	   6	   9	   8	   6	   7	   5	   7	   8	   6	   6	   7	   6	   7	   0	
   7	   8	   5	   5	   8	   5	   7	   7	   5	   7	 999	   5	   6	   6	   6	   5	   5	   7	   6	   5	   6	   6	   6	   5	   6	   7	   5	   7	   5	   5	   6	   6	   7	   6	   5	   7	   7	   6	   7	   6	   0	
   7	   6	   7	   8	   5	   8	   5	   6	   7	   6	   8	 999	   5	   6	   6	   5	   6	   7	   5	   5	   5	   5	   6	   5	   5	   7	   6	   6	   6	   5	   6	   6	   7	   6	   6	   6	   6	   6	   6	   6	   0	
   6	   5	   8	   9	   5	   9	   6	   7	   8	   6	   8	   5	 999	   6	   6	   6	   6	   7	   5	   5	   5	   5	   6	   6	   5	   6	   7	   6	   6	   6	   6	   6	   6	   6	   6	   6	   6	   6	   6	   6	   0	
   6	   6	   6	   7	   6	   7	   5	   6	   7	   5	   7	   5	   6	 999	   7	   6	   5	   8	   6	   6	   5	   5	   5	   6	   6	   6	   6	   6	   6	   5	   7	   5	   6	   7	   6	   7	   7	   7	   6	   7	   0	
   7	   7	   7	   8	   5	   8	   6	   6	   7	   5	   8	   5	   6	   5	 999	   5	   7	   5	   6	   5	   6	   6	   7	   6	   6	   6	   6	   7	   6	   6	   5	   7	   6	   5	   7	   6	   6	   5	   6	   5	   0	
   5	   5	   7	   8	   5	   8	   5	   7	   7	   6	   8	   6	   5	   6	   6	 999	   6	   6	   5	   5	   5	   5	   7	   5	   5	   7	   6	   6	   6	   5	   6	   6	   7	   5	   6	   7	   7	   6	   7	   5	   0	
   7	   6	   6	   7	   6	   7	   5	   6	   6	   5	   7	   6	   6	   5	   5	   6	 999	   8	   6	   6	   5	   5	   5	   6	   5	   7	   6	   6	   5	   5	   7	   5	   7	   7	   5	   7	   7	   7	   7	   7	   0	
   8	   7	   7	   7	   6	   7	   6	   5	   6	   5	   7	   5	   6	   6	   5	   7	   5	 999	   6	   6	   7	   7	   8	   7	   7	   6	   7	   8	   7	   7	   5	   8	   7	   5	   8	   6	   6	   6	   7	   6	   0	
   6	   6	   7	   8	   5	   8	   5	   6	   7	   6	   8	   5	   5	   5	   5	   6	   6	   6	 999	   5	   5	   5	   6	   6	   5	   6	   6	   6	   6	   6	   6	   6	   6	   6	   6	   6	   6	   5	   6	   5	   0	
   7	   8	   5	   5	   8	   5	   7	   7	   5	   6	   5	   7	   8	   7	   7	   7	   6	   7	   7	 999	   5	   5	   6	   6	   5	   6	   6	   6	   6	   5	   6	   6	   6	   6	   6	   6	   6	   5	   6	   5	   0	
   7	   8	   5	   5	   8	   5	   7	   7	   5	   7	   5	   8	   8	   7	   7	   8	   7	   7	   8	   5	 999	   5	   6	   6	   5	   6	   6	   6	   6	   5	   6	   6	   6	   6	   6	   6	   6	   6	   6	   6	   0	
   5	   5	   7	   8	   6	   8	   6	   8	   7	   7	   8	   7	   6	   6	   7	   5	   7	   8	   6	   7	   8	 999	   6	   6	   5	   6	   6	   6	   6	   5	   6	   6	   6	   6	   6	   6	   6	   6	   6	   6	   0	
   5	   6	   6	   7	   7	   7	   5	   7	   6	   6	   6	   6	   7	   5	   6	   6	   6	   7	   6	   6	   6	   6	 999	   6	   6	   7	   6	   6	   5	   6	   8	   5	   7	   7	   5	   7	   7	   7	   7	   7	   0	
   7	   6	   6	   7	   6	   7	   6	   6	   7	   5	   7	   5	   6	   5	   5	   6	   5	   5	   5	   7	   7	   7	   6	 999	   6	   7	   5	   7	   5	   5	   6	   6	   7	   6	   6	   7	   7	   6	   7	   6	   0	
   5	   6	   6	   7	   6	   7	   5	   7	   6	   6	   7	   6	   6	   6	   6	   5	   6	   7	   6	   7	   7	   5	   5	   6	 999	   6	   6	   6	   6	   6	   6	   6	   6	   6	   6	   6	   6	   6	   6	   6	   0	
   7	   7	   6	   6	   8	   6	   6	   6	   5	   6	   5	   7	   8	   6	   7	   7	   6	   6	   7	   6	   5	   7	   6	   6	   6	 999	   8	   7	   8	   7	   6	   7	   6	   6	   7	   5	   5	   6	   5	   7	   0	
   6	   7	   5	   6	   7	   6	   6	   6	   5	   6	   6	   7	   7	   6	   7	   7	   6	   6	   7	   5	   5	   7	   5	   6	   6	   5	 999	   7	   5	   5	   7	   6	   8	   6	   5	   8	   8	   7	   8	   6	   0	
   6	   6	   6	   7	   6	   7	   5	   6	   6	   5	   7	   5	   6	   5	   5	   6	   5	   6	   5	   7	   7	   6	   6	   5	   6	   6	   6	 999	   7	   6	   7	   6	   5	   7	   7	   7	   7	   7	   6	   7	   0	
   7	   6	   7	   8	   5	   8	   6	   6	   7	   5	   8	   5	   5	   5	   5	   6	   5	   5	   5	   7	   8	   7	   6	   5	   6	   7	   7	   5	 999	   5	   7	   6	   8	   7	   5	   7	   7	   6	   7	   6	   0	
   6	   6	   5	   6	   7	   6	   6	   7	   5	   6	   6	   6	   7	   6	   6	   6	   6	   7	   6	   6	   6	   6	   5	   6	   5	   6	   5	   6	   6	 999	   7	   5	   7	   6	   5	   7	   7	   6	   7	   6	   0	
   5	   6	   6	   7	   7	   7	   6	   9	   7	   7	   7	   7	   7	   7	   8	   6	   7	   8	   7	   6	   7	   5	   6	   7	   6	   7	   7	   7	   7	   6	 999	   7	   7	   5	   7	   5	   5	   5	   6	   6	   0	
   6	   6	   8	   9	   5	   9	   6	   6	   8	   6	   9	   5	   5	   6	   6	   5	   6	   6	   5	   8	   9	   6	   7	   6	   6	   8	   8	   6	   6	   7	   7	 999	   6	   7	   6	   7	   7	   7	   6	   7	   0	
   7	   7	   5	   5	   8	   5	   7	   7	   5	   6	   5	   7	   8	   7	   7	   7	   6	   6	   7	   5	   5	   7	   6	   7	   6	   5	   5	   6	   7	   5	   6	   8	 999	   7	   7	   6	   6	   6	   5	   7	   0	
   5	   5	   7	   8	   5	   8	   5	   7	   7	   6	   8	   6	   5	   6	   6	   5	   6	   7	   6	   8	   8	   5	   6	   6	   6	   7	   7	   6	   6	   7	   6	   5	   7	 999	   7	   6	   6	   5	   6	   5	   0	
   5	   5	   7	   8	   5	   8	   5	   7	   7	   6	   8	   6	   5	   6	   6	   5	   6	   7	   6	   7	   8	   5	   6	   6	   5	   7	   7	   6	   6	   6	   6	   5	   7	   5	 999	   7	   7	   7	   7	   7	   0	
   7	   7	   7	   8	   6	   8	   6	   5	   7	   5	   8	   5	   6	   5	   5	   6	   5	   5	   5	   7	   8	   7	   6	   5	   7	   7	   7	   5	   5	   6	   8	   6	   7	   6	   7	 999	   5	   5	   6	   6	   0	
   7	   6	   6	   7	   6	   7	   6	   6	   6	   5	   7	   5	   6	   5	   5	   6	   5	   5	   5	   7	   7	   7	   6	   5	   6	   6	   6	   5	   5	   6	   7	   6	   6	   6	   6	   5	 999	   6	   6	   6	   0	
   6	   6	   6	   7	   6	   7	   5	   7	   6	   5	   7	   5	   6	   5	   6	   5	   5	   6	   5	   7	   7	   6	   5	   5	   5	   6	   6	   5	   5	   5	   7	   6	   6	   6	   5	   6	   5	 999	   6	   5	   0	
   5	   5	   7	   8	   5	   8	   5	   7	   7	   6	   8	   6	   5	   6	   6	   5	   6	   7	   6	   8	   8	   5	   6	   6	   6	   7	   7	   6	   6	   7	   6	   5	   7	   5	   5	   6	   6	   6	 999	   6	   0	
   7	   8	   5	   5	   8	   5	   7	   7	   5	   7	   5	   8	   8	   7	   7	   8	   7	   7	   8	   5	   5	   7	   6	   7	   7	   5	   5	   7	   7	   6	   7	   9	   5	   8	   8	   7	   7	   7	   8	 999	   0	
   6	   5	   8	   9	   5	   9	   6	   7	   8	   6	   8	   6	   5	   6	   6	   5	   6	   6	   5	   8	   8	   6	   7	   6	   6	   8	   7	   6	   6	   7	   6	   5	   8	   5	   5	   6	   6	   6	   5	   8	 999	

 999	   6	   5	   7	   6	   6	   7	   5	   7	   6	   8	   7	   8	   8	   7	   6	   7	   6	   8	   7	   7	   7	   6	   6	   8	   5	   6	   7	   7	   7	   7	   6	   8	   6	   6	   7	   6	   7	   6	   7	   0	
   6	 999	   6	   5	   5	   7	   6	   6	   6	   6	   7	   6	   8	   7	   6	   5	   6	   5	   7	   6	   7	   6	   6	   6	   7	   6	   7	   6	   6	   6	   6	   6	   7	   6	   5	   6	   7	   7	   6	   6	   0	
   6	   6	 999	   7	   6	   5	   8	   5	   6	   7	   8	   6	   8	   7	   7	   6	   7	   6	   8	   8	   7	   6	   6	   6	   7	   5	   6	   7	   7	   6	   6	   6	   7	   6	   6	   7	   6	   7	   6	   8	   0	
   8	   6	   8	 999	   6	   8	   5	   6	   7	   7	   8	   7	   8	   8	   6	   6	   7	   6	   6	   5	   7	   7	   6	   7	   8	   7	   8	   7	   6	   7	   7	   6	   8	   6	   5	   6	   7	   7	   5	   6	   0	
   6	   6	   6	   6	 999	   6	   6	   5	   7	   7	   8	   7	   8	   8	   6	   6	   7	   6	   7	   6	   8	   7	   7	   6	   8	   6	   7	   7	   6	   7	   7	   6	   8	   7	   5	   6	   6	   7	   5	   6	   0	
   6	   6	   6	   6	   5	 999	   8	   6	   6	   7	   7	   6	   7	   7	   8	   6	   8	   7	   9	   8	   6	   6	   6	   5	   7	   5	   5	   8	   8	   6	   6	   7	   7	   6	   7	   8	   5	   6	   7	   8	   0	
   6	   6	   5	   7	   7	   7	 999	   7	   8	   6	   7	   8	   7	   7	   5	   6	   6	   6	   5	   5	   7	   7	   7	   7	   7	   7	   9	   6	   6	   8	   7	   6	   7	   7	   6	   5	   8	   7	   6	   5	   0	
   5	   6	   5	   7	   6	   6	   6	 999	   7	   6	   8	   7	   8	   8	   6	   6	   6	   5	   8	   7	   7	   7	   6	   6	   8	   5	   6	   7	   7	   7	   7	   6	   8	   6	   6	   7	   6	   7	   5	   7	   0	
   5	   6	   6	   7	   6	   6	   6	   5	 999	   7	   7	   5	   6	   6	   7	   6	   7	   6	   8	   8	   6	   5	   5	   5	   6	   6	   5	   7	   7	   5	   6	   6	   6	   5	   7	   7	   5	   5	   7	   8	   0	
   6	   5	   6	   6	   6	   7	   5	   6	   6	 999	   6	   7	   6	   6	   5	   5	   5	   6	   6	   6	   6	   6	   6	   6	   6	   6	   8	   5	   5	   7	   6	   5	   6	   6	   6	   5	   7	   6	   7	   6	   0	
   6	   7	   6	   9	   7	   7	   7	   6	   6	   8	 999	   6	   5	   5	   6	   7	   6	   7	   7	   7	   5	   6	   6	   7	   5	   7	   7	   6	   6	   7	   6	   6	   5	   6	   8	   7	   7	   6	   9	   7	   0	
   5	   6	   6	   7	   5	   5	   7	   5	   5	   6	   6	 999	   6	   6	   7	   6	   7	   6	   8	   8	   6	   5	   5	   5	   6	   6	   5	   7	   7	   5	   6	   6	   6	   5	   7	   7	   5	   5	   7	   8	   0	
   6	   5	   6	   6	   6	   6	   6	   6	   6	   5	   8	   6	 999	   5	   6	   7	   6	   7	   7	   7	   5	   6	   6	   7	   5	   8	   7	   6	   6	   6	   6	   7	   5	   6	   8	   7	   6	   5	   9	   7	   0	
   6	   5	   6	   6	   5	   5	   6	   6	   6	   6	   8	   6	   5	 999	   6	   7	   6	   7	   7	   7	   5	   6	   6	   6	   5	   7	   6	   6	   6	   6	   6	   6	   5	   6	   8	   7	   6	   5	   9	   7	   0	
   5	   6	   5	   8	   6	   6	   6	   5	   5	   6	   6	   6	   7	   7	 999	   6	   5	   6	   6	   6	   6	   6	   6	   7	   6	   7	   8	   5	   5	   7	   6	   6	   6	   6	   6	   5	   7	   6	   7	   5	   0	
   6	   5	   6	   6	   5	   5	   6	   5	   5	   6	   7	   5	   5	   5	   6	 999	   6	   5	   7	   7	   6	   6	   5	   6	   7	   5	   7	   6	   6	   6	   5	   5	   7	   5	   5	   6	   6	   6	   6	   7	   0	
   7	   7	   8	   7	   6	   6	   8	   7	   7	   8	   6	   6	   7	   7	   7	   7	 999	   6	   6	   6	   6	   6	   6	   7	   6	   7	   8	   5	   5	   7	   6	   6	   6	   6	   6	   5	   7	   6	   7	   5	   0	
   6	   7	   6	   9	   7	   7	   7	   6	   6	   7	   5	   6	   7	   7	   6	   7	   6	 999	   7	   6	   6	   6	   5	   6	   7	   6	   7	   6	   6	   6	   6	   5	   7	   5	   5	   6	   6	   6	   6	   6	   0	
   7	   8	   8	   7	   6	   6	   9	   7	   7	   8	   6	   7	   7	   7	   8	   7	   5	   6	 999	   5	   7	   7	   8	   8	   7	   8	   9	   6	   5	   9	   7	   7	   7	   8	   6	   6	   9	   8	   7	   5	   0	
   7	   5	   7	   6	   6	   6	   6	   6	   6	   5	   8	   6	   5	   5	   7	   6	   7	   8	   8	 999	   7	   7	   7	   8	   7	   7	   9	   6	   6	   8	   7	   6	   7	   7	   6	   5	   8	   7	   6	   5	   0	
   6	   5	   6	   6	   5	   6	   6	   6	   6	   5	   7	   5	   5	   5	   6	   5	   7	   7	   7	   5	 999	   5	   6	   6	   5	   7	   6	   6	   6	   6	   5	   6	   5	   6	   7	   6	   6	   5	   8	   7	   0	
   5	   6	   6	   8	   6	   6	   7	   5	   5	   6	   6	   5	   6	   6	   6	   6	   6	   5	   7	   7	   6	 999	   5	   5	   5	   6	   6	   6	   7	   6	   5	   5	   5	   5	   7	   6	   6	   5	   8	   7	   0	
   7	   5	   7	   5	   5	   5	   6	   6	   6	   6	   8	   6	   5	   5	   7	   6	   7	   8	   7	   5	   5	   7	 999	   5	   6	   6	   6	   6	   7	   5	   5	   5	   6	   5	   6	   7	   6	   5	   7	   7	   0	
   6	   7	   6	   9	   7	   7	   7	   6	   6	   7	   5	   6	   7	   7	   6	   7	   6	   5	   6	   8	   7	   5	   8	 999	   6	   5	   6	   7	   7	   5	   5	   6	   6	   5	   6	   7	   5	   6	   7	   8	   0	
   7	   5	   7	   5	   6	   6	   7	   7	   7	   6	   8	   7	   5	   5	   7	   6	   7	   8	   7	   6	   6	   7	   5	   8	 999	   7	   7	   5	   6	   6	   6	   6	   5	   6	   7	   7	   6	   5	   8	   7	   0	
   6	   7	   7	   6	   6	   5	   8	   6	   6	   7	   7	   6	   7	   6	   7	   6	   5	   7	   5	   7	   6	   6	   6	   7	   6	 999	   6	   7	   7	   6	   6	   6	   7	   6	   6	   7	   6	   7	   6	   7	   0	
   7	   6	   7	   5	   6	   6	   6	   7	   7	   6	   9	   7	   6	   5	   8	   6	   7	   8	   7	   5	   6	   7	   5	   8	   5	   6	 999	   8	   8	   5	   7	   7	   6	   6	   7	   8	   5	   6	   7	   9	   0	
   5	   5	   6	   7	   5	   5	   7	   5	   5	   6	   7	   5	   5	   5	   6	   5	   6	   6	   7	   6	   5	   5	   6	   6	   6	   6	   6	 999	   5	   7	   6	   5	   6	   6	   7	   6	   7	   6	   8	   6	   0	
   6	   5	   6	   6	   5	   5	   6	   6	   6	   6	   7	   5	   5	   5	   6	   5	   6	   7	   7	   5	   5	   6	   5	   7	   6	   6	   6	   5	 999	   8	   6	   6	   6	   7	   6	   5	   8	   7	   7	   5	   0	
   6	   5	   6	   6	   6	   6	   6	   6	   6	   5	   7	   5	   5	   5	   6	   5	   7	   7	   8	   5	   5	   6	   5	   7	   6	   7	   6	   5	   5	 999	   6	   6	   6	   5	   7	   7	   5	   5	   7	   8	   0	
   6	   6	   7	   7	   5	   5	   7	   6	   6	   7	   6	   5	   6	   6	   7	   6	   5	   6	   6	   6	   6	   5	   6	   6	   6	   5	   7	   5	   6	   6	 999	   5	   6	   5	   6	   6	   6	   5	   7	   7	   0	
   8	   6	   8	   5	   6	   6	   7	   7	   7	   6	   9	   7	   6	   6	   8	   6	   7	   9	   7	   6	   6	   8	   5	   9	   5	   6	   5	   7	   6	   6	   7	 999	   6	   5	   6	   6	   6	   6	   7	   6	   0	
   7	   7	   8	   6	   6	   6	   8	   7	   6	   8	   7	   6	   7	   6	   7	   6	   6	   7	   5	   7	   7	   6	   6	   7	   6	   5	   7	   6	   6	   7	   5	   6	 999	   6	   7	   7	   6	   5	   8	   7	   0	
   6	   7	   7	   8	   6	   6	   8	   6	   6	   7	   5	   6	   7	   7	   7	   6	   5	   6	   5	   7	   6	   6	   7	   6	   7	   6	   8	   6	   6	   7	   6	   8	   6	 999	   6	   7	   6	   5	   7	   7	   0	
   7	   6	   7	   5	   6	   6	   7	   7	   7	   7	   8	   6	   6	   6	   7	   6	   7	   8	   6	   6	   6	   7	   6	   8	   5	   6	   6	   6	   5	   6	   6	   5	   6	   7	 999	   5	   7	   7	   6	   6	   0	
   6	   6	   7	   7	   5	   5	   7	   6	   5	   7	   6	   5	   6	   6	   6	   5	   6	   6	   6	   6	   6	   5	   6	   6	   7	   5	   7	   5	   6	   6	   5	   7	   5	   5	   6	 999	   8	   7	   6	   5	   0	
   7	   6	   7	   5	   6	   6	   7	   7	   7	   6	   8	   6	   6	   5	   7	   6	   7	   8	   6	   6	   6	   7	   5	   8	   5	   6	   5	   6	   6	   6	   6	   5	   6	   7	   5	   7	 999	   6	   7	   8	   0	
   7	   8	   8	   7	   6	   6	   9	   7	   7	   8	   6	   7	   7	   7	   8	   7	   5	   6	   5	   8	   7	   7	   7	   6	   7	   5	   7	   7	   7	   8	   6	   7	   5	   5	   6	   6	   6	 999	   8	   7	   0	
   5	   6	   5	   8	   6	   6	   6	   5	   6	   6	   6	   6	   6	   7	   5	   6	   8	   6	   8	   7	   6	   6	   7	   6	   7	   7	   7	   6	   6	   6	   7	   8	   8	   7	   7	   7	   7	   8	 999	   6	   0	
   5	   7	   5	   8	   6	   6	   6	   5	   5	   7	   6	   6	   7	   7	   5	   6	   7	   5	   7	   7	   6	   5	   7	   5	   8	   7	   8	   6	   6	   6	   6	   8	   7	   7	   7	   6	   7	   7	   5	 999	   0	
   7	   7	   8	   7	   6	   6	   9	   7	   7	   8	   7	   7	   7	   7	   8	   7	   5	   6	   5	   8	   7	   7	   7	   6	   7	   5	   7	   7	   7	   8	   6	   7	   5	   6	   6	   6	   6	   5	   8	   7	 999	

 999	   5	   7	   5	   6	   6	   7	   6	   5	   8	   6	   7	   6	   7	   5	   7	   5	   7	   6	   7	   6	   5	   7	   6	   6	   5	   7	   7	   5	   6	   5	   7	   7	   6	   6	   5	   6	   6	   6	   6	   0	
   5	 999	   7	   6	   6	   6	   7	   6	   5	   7	   6	   7	   6	   7	   5	   7	   6	   7	   5	   7	   7	   6	   7	   6	   6	   5	   7	   7	   5	   6	   5	   6	   7	   6	   6	   5	   6	   6	   6	   6	   0	
   5	   5	 999	   7	   5	   7	   6	   5	   7	   6	   7	   5	   5	   6	   7	   6	   7	   6	   6	   6	   8	   7	   6	   6	   7	   7	   6	   5	   7	   8	   6	   6	   6	   6	   5	   7	   6	   7	   5	   6	   0	
   7	   7	   6	 999	   7	   5	   6	   7	   6	   8	   7	   7	   7	   8	   5	   7	   5	   8	   7	   6	   5	   5	   6	   6	   7	   6	   7	   7	   6	   5	   6	   8	   6	   6	   6	   6	   6	   5	   6	   7	   0	
   6	   6	   6	   5	 999	   8	   6	   5	   6	   6	   6	   6	   5	   5	   7	   6	   7	   5	   5	   6	   8	   7	   6	   6	   6	   6	   6	   6	   6	   8	   6	   5	   6	   6	   5	   6	   6	   7	   6	   6	   0	
   6	   6	   6	   5	   5	 999	   6	   7	   6	   9	   8	   7	   7	   8	   5	   7	   5	   8	   7	   6	   5	   5	   7	   6	   7	   6	   7	   7	   6	   5	   6	   8	   6	   6	   7	   6	   6	   5	   6	   7	   0	
   7	   7	   6	   5	   5	   6	 999	   5	   7	   7	   7	   5	   5	   7	   6	   5	   6	   7	   7	   5	   7	   6	   5	   5	   7	   7	   5	   5	   7	   7	   6	   6	   5	   5	   6	   7	   5	   6	   5	   7	   0	
   5	   6	   5	   7	   6	   6	   7	 999	   7	   6	   7	   5	   5	   6	   6	   6	   6	   6	   6	   5	   7	   6	   5	   5	   6	   6	   5	   6	   7	   7	   6	   6	   5	   5	   5	   6	   5	   6	   5	   6	   0	
   6	   6	   6	   6	   6	   5	   6	   6	 999	   7	   6	   8	   7	   7	   6	   8	   6	   7	   5	   7	   7	   6	   8	   7	   5	   5	   8	   8	   5	   7	   6	   6	   7	   7	   6	   5	   7	   6	   7	   5	   0	
   6	   6	   5	   6	   6	   5	   6	   6	   5	 999	   6	   6	   6	   5	   8	   7	   8	   5	   6	   7	   9	   8	   7	   7	   6	   7	   7	   7	   7	   9	   7	   5	   7	   7	   6	   7	   7	   8	   7	   6	   0	
   6	   6	   6	   6	   5	   6	   5	   6	   7	   6	 999	   7	   6	   5	   7	   8	   7	   5	   5	   7	   8	   7	   7	   7	   5	   6	   7	   8	   6	   8	   6	   6	   7	   7	   6	   6	   6	   7	   7	   5	   0	
   7	   6	   6	   5	   5	   5	   5	   6	   6	   6	   5	 999	   5	   7	   6	   5	   6	   7	   7	   5	   7	   6	   5	   5	   7	   7	   5	   5	   8	   7	   6	   6	   5	   5	   6	   7	   5	   6	   5	   7	   0	
   6	   7	   6	   6	   6	   7	   6	   6	   8	   7	   5	   6	 999	   6	   7	   6	   7	   6	   6	   6	   8	   7	   6	   6	   6	   6	   6	   6	   7	   8	   6	   5	   5	   6	   5	   6	   5	   7	   5	   6	   0	
   7	   7	   6	   5	   5	   5	   5	   7	   6	   6	   6	   5	   6	 999	   8	   7	   8	   5	   6	   7	   9	   8	   7	   7	   6	   7	   7	   7	   7	   9	   7	   5	   7	   7	   6	   6	   7	   8	   6	   6	   0	
   7	   7	   7	   5	   5	   6	   5	   7	   6	   6	   6	   5	   7	   5	 999	   6	   5	   8	   6	   6	   6	   5	   6	   6	   7	   6	   6	   6	   6	   5	   5	   7	   6	   6	   6	   6	   6	   5	   6	   7	   0	
   6	   7	   7	   7	   6	   7	   7	   6	   8	   7	   6	   6	   5	   7	   7	 999	   7	   7	   7	   5	   7	   7	   5	   6	   8	   8	   5	   5	   8	   6	   7	   6	   5	   6	   6	   8	   6	   6	   6	   7	   0	
   7	   7	   7	   5	   5	   6	   5	   7	   6	   6	   6	   5	   7	   5	   5	   7	 999	   8	   6	   6	   6	   5	   6	   6	   7	   6	   7	   7	   6	   5	   5	   7	   6	   6	   6	   6	   6	   5	   6	   7	   0	
   7	   6	   6	   5	   5	   6	   5	   6	   6	   6	   5	   5	   6	   5	   5	   6	   5	 999	   6	   7	   9	   8	   7	   7	   6	   7	   7	   7	   7	   9	   7	   5	   7	   7	   6	   6	   7	   8	   6	   6	   0	
   7	   7	   7	   5	   6	   6	   5	   7	   6	   6	   6	   5	   7	   5	   5	   7	   5	   5	 999	   6	   7	   6	   7	   6	   5	   5	   7	   7	   6	   7	   6	   6	   6	   6	   5	   5	   6	   6	   6	   5	   0	
   6	   5	   6	   6	   7	   6	   7	   6	   5	   5	   7	   6	   8	   6	   7	   8	   7	   7	   7	 999	   7	   6	   5	   5	   7	   7	   5	   5	   7	   6	   6	   6	   5	   5	   5	   7	   5	   6	   5	   6	   0	
   5	   6	   5	   7	   6	   6	   7	   5	   6	   6	   6	   6	   6	   7	   7	   6	   7	   6	   7	   6	 999	   6	   7	   7	   8	   7	   7	   7	   6	   5	   6	   8	   7	   7	   7	   7	   7	   6	   7	   8	   0	
   6	   6	   6	   6	   5	   6	   5	   6	   7	   6	   5	   5	   6	   5	   6	   6	   5	   5	   6	   7	   6	 999	   6	   6	   7	   6	   6	   7	   6	   5	   5	   7	   6	   6	   6	   6	   6	   5	   6	   7	   0	
   5	   6	   6	   8	   7	   7	   7	   5	   7	   6	   6	   7	   6	   7	   8	   6	   8	   7	   8	   6	   5	   7	 999	   5	   7	   7	   5	   5	   8	   7	   7	   6	   5	   5	   6	   7	   5	   6	   5	   7	   0	
   7	   6	   6	   5	   5	   5	   5	   6	   6	   5	   5	   5	   6	   5	   5	   6	   5	   5	   5	   6	   6	   5	   7	 999	   6	   6	   5	   6	   7	   6	   6	   6	   5	   5	   5	   6	   5	   6	   5	   6	   0	
   6	   6	   6	   5	   5	   5	   5	   6	   6	   6	   5	   5	   6	   5	   5	   6	   5	   5	   6	   6	   6	   5	   7	   5	 999	   6	   7	   7	   6	   8	   6	   6	   7	   7	   6	   5	   6	   7	   6	   5	   0	
   6	   7	   6	   7	   6	   6	   6	   6	   7	   7	   6	   6	   5	   7	   7	   5	   7	   6	   7	   7	   6	   6	   6	   6	   6	 999	   7	   7	   5	   6	   5	   6	   7	   7	   6	   5	   6	   6	   6	   6	   0	
   7	   7	   7	   5	   5	   6	   5	   7	   6	   6	   6	   5	   7	   5	   5	   7	   5	   5	   5	   7	   7	   6	   8	   5	   6	   7	 999	   5	   8	   6	   7	   6	   5	   5	   6	   7	   6	   6	   5	   7	   0	
   6	   7	   6	   6	   6	   7	   6	   6	   8	   7	   5	   6	   6	   6	   6	   6	   6	   6	   6	   8	   6	   5	   7	   6	   6	   6	   6	 999	   8	   7	   7	   6	   5	   5	   6	   7	   6	   6	   6	   7	   0	
   6	   6	   6	   8	   7	   7	   8	   6	   7	   7	   7	   7	   6	   8	   8	   6	   8	   8	   8	   7	   6	   7	   5	   8	   7	   6	   8	   7	 999	   6	   6	   7	   7	   7	   6	   5	   7	   6	   7	   6	   0	
   5	   5	   6	   8	   7	   7	   7	   5	   7	   6	   6	   7	   6	   7	   8	   7	   8	   7	   8	   6	   5	   7	   5	   7	   7	   6	   8	   7	   6	 999	   6	   8	   7	   7	   7	   7	   7	   5	   7	   8	   0	
   7	   7	   7	   5	   5	   5	   5	   7	   6	   6	   6	   5	   6	   5	   5	   7	   5	   5	   5	   7	   7	   5	   8	   5	   5	   7	   5	   6	   8	   8	 999	   7	   6	   6	   5	   5	   6	   5	   6	   6	   0	
   6	   6	   6	   5	   6	   5	   6	   6	   5	   5	   6	   6	   7	   6	   5	   7	   6	   6	   6	   6	   6	   6	   7	   5	   6	   7	   6	   7	   7	   7	   5	 999	   6	   6	   6	   6	   6	   7	   6	   5	   0	
   7	   7	   7	   5	   5	   6	   5	   7	   6	   6	   6	   5	   7	   5	   5	   7	   5	   5	   5	   7	   7	   6	   8	   5	   6	   7	   5	   6	   8	   8	   5	   6	 999	   5	   5	   7	   5	   6	   5	   6	   0	
   5	   5	   5	   6	   6	   5	   6	   5	   6	   5	   6	   6	   6	   6	   6	   6	   6	   6	   7	   6	   5	   6	   6	   6	   6	   6	   7	   6	   6	   6	   6	   6	   7	 999	   5	   7	   5	   6	   5	   6	   0	
   6	   5	   6	   8	   7	   7	   7	   6	   6	   6	   6	   7	   7	   7	   8	   7	   8	   7	   8	   6	   6	   7	   6	   7	   7	   7	   8	   7	   7	   5	   8	   7	   8	   6	 999	   6	   5	   6	   5	   6	   0	
   6	   7	   6	   7	   7	   6	   7	   5	   7	   7	   6	   7	   5	   7	   7	   5	   7	   7	   8	   7	   6	   6	   5	   7	   6	   5	   8	   7	   5	   6	   7	   7	   7	   6	   7	 999	   6	   6	   6	   5	   0	
   7	   8	   7	   7	   7	   7	   6	   7	   8	   8	   6	   7	   5	   7	   7	   5	   7	   6	   7	   9	   7	   6	   7	   7	   7	   6	   7	   6	   6	   7	   7	   8	   7	   7	   8	   6	 999	   6	   5	   6	   0	
   6	   5	   6	   7	   7	   6	   7	   6	   6	   5	   7	   7	   8	   7	   7	   8	   7	   7	   7	   5	   6	   7	   6	   6	   6	   7	   7	   8	   7	   6	   7	   6	   7	   6	   5	   7	   9	 999	   6	   7	   0	
   6	   5	   5	   7	   7	   6	   7	   6	   6	   6	   7	   7	   7	   7	   7	   8	   7	   7	   8	   5	   6	   7	   6	   7	   6	   7	   8	   7	   7	   6	   7	   7	   7	   6	   5	   7	   8	   5	 999	   6	   0	
   5	   5	   5	   7	   6	   6	   7	   5	   6	   6	   6	   6	   7	   7	   7	   7	   7	   6	   7	   5	   5	   6	   6	   6	   6	   7	   7	   7	   6	   5	   7	   6	   7	   5	   5	   6	   8	   5	   5	 999	   0	
   5	   5	   6	   8	   7	   7	   7	   5	   7	   6	   6	   7	   7	   7	   8	   7	   8	   7	   8	   6	   5	   7	   5	   7	   7	   6	   8	   7	   6	   5	   8	   7	   8	   6	   5	   6	   7	   6	   5	   5	 999	

 999	   6	   7	   5	   6	   5	   5	   6	   6	   6	   5	   6	   7	   7	   6	   5	   5	   5	   5	   6	   6	   7	   5	   5	   5	   7	   5	   5	   7	   6	   6	   6	   7	   5	   7	   7	   7	   5	   5	   6	   0	
   6	 999	   7	   5	   5	   5	   6	   7	   5	   7	   6	   5	   6	   7	   6	   6	   7	   5	   5	   7	   5	   6	   6	   6	   7	   7	   6	   7	   7	   5	   6	   5	   6	   7	   6	   5	   5	   6	   6	   5	   0	
   7	   7	 999	   7	   6	   7	   8	   6	   6	   6	   8	   6	   5	   5	   5	   7	   6	   7	   7	   7	   7	   5	   7	   7	   7	   6	   7	   7	   5	   6	   6	   7	   7	   7	   6	   7	   7	   6	   7	   7	   0	
   6	   6	   5	 999	   6	   5	   5	   6	   6	   7	   5	   5	   7	   7	   6	   5	   6	   5	   5	   6	   5	   7	   5	   5	   6	   6	   5	   6	   7	   5	   5	   6	   6	   6	   6	   6	   6	   5	   5	   6	   0	
   6	   6	   6	   5	 999	   5	   6	   6	   5	   7	   7	   5	   6	   6	   5	   6	   6	   5	   6	   7	   5	   5	   6	   6	   6	   7	   6	   6	   6	   5	   6	   5	   6	   6	   5	   6	   5	   5	   6	   5	   0	
   5	   6	   6	   6	   6	 999	   6	   6	   5	   7	   6	   5	   6	   7	   6	   6	   6	   5	   5	   6	   5	   6	   5	   5	   6	   6	   5	   6	   6	   5	   5	   5	   6	   6	   6	   6	   6	   5	   5	   6	   0	
   7	   6	   6	   6	   6	   8	 999	   7	   6	   7	   5	   6	   7	   8	   7	   5	   6	   6	   5	   6	   6	   7	   5	   5	   6	   7	   5	   6	   7	   6	   6	   6	   7	   5	   7	   7	   6	   6	   6	   6	   0	
   7	   6	   5	   6	   6	   7	   5	 999	   7	   5	   7	   6	   5	   6	   6	   6	   5	   6	   6	   5	   7	   6	   6	   6	   5	   5	   6	   6	   5	   7	   5	   7	   8	   6	   7	   8	   7	   6	   5	   7	   0	
   5	   6	   7	   6	   6	   5	   7	   6	 999	   7	   6	   5	   6	   6	   5	   6	   6	   5	   6	   7	   5	   5	   6	   6	   7	   7	   6	   7	   7	   5	   6	   5	   5	   6	   5	   6	   5	   6	   6	   5	   0	
   7	   5	   6	   6	   6	   7	   5	   5	   7	 999	   7	   7	   6	   6	   7	   6	   5	   7	   7	   6	   7	   7	   6	   6	   6	   5	   6	   6	   5	   7	   6	   8	   8	   6	   8	   8	   8	   6	   6	   8	   0	
   7	   5	   7	   6	   6	   7	   6	   7	   7	   6	 999	   6	   7	   8	   7	   5	   6	   6	   5	   6	   6	   7	   5	   6	   6	   7	   6	   6	   7	   6	   6	   6	   7	   6	   7	   6	   6	   6	   6	   6	   0	
   8	   6	   6	   7	   7	   8	   5	   6	   7	   5	   5	 999	   6	   6	   5	   6	   6	   5	   6	   7	   5	   6	   6	   6	   6	   7	   6	   6	   6	   5	   6	   5	   6	   6	   5	   6	   5	   5	   6	   5	   0	
   6	   6	   8	   7	   7	   6	   7	   7	   6	   7	   6	   6	 999	   5	   5	   6	   6	   6	   7	   6	   6	   5	   7	   6	   6	   6	   6	   6	   5	   6	   6	   6	   7	   7	   6	   7	   6	   6	   6	   6	   0	
   6	   6	   8	   7	   7	   6	   7	   7	   6	   7	   5	   6	   5	 999	   6	   7	   6	   7	   7	   7	   7	   6	   7	   7	   7	   6	   7	   7	   5	   6	   6	   7	   7	   7	   7	   7	   7	   6	   7	   7	   0	
   7	   7	   5	   6	   6	   7	   6	   5	   7	   6	   8	   7	   8	   8	 999	   6	   6	   6	   6	   7	   6	   5	   6	   6	   6	   7	   6	   6	   6	   6	   6	   6	   6	   6	   5	   6	   6	   6	   6	   6	   0	
   5	   7	   6	   6	   6	   5	   8	   7	   5	   8	   7	   8	   6	   7	   7	 999	   5	   6	   6	   5	   6	   6	   5	   5	   5	   6	   5	   5	   6	   6	   5	   6	   7	   5	   7	   7	   7	   5	   5	   7	   0	
   7	   7	   6	   6	   6	   8	   6	   5	   7	   6	   7	   6	   8	   8	   6	   8	 999	   6	   6	   5	   6	   6	   5	   5	   5	   6	   5	   5	   6	   6	   5	   7	   7	   5	   7	   7	   7	   5	   5	   7	   0	
   7	   6	   7	   6	   6	   8	   6	   7	   7	   6	   5	   5	   6	   6	   7	   8	   7	 999	   5	   7	   5	   6	   5	   5	   6	   7	   5	   6	   6	   5	   6	   5	   6	   6	   6	   6	   6	   5	   5	   5	   0	
   5	   6	   7	   6	   6	   5	   7	   7	   5	   7	   7	   8	   6	   6	   7	   5	   7	   7	 999	   6	   5	   7	   5	   5	   6	   6	   5	   6	   7	   5	   6	   5	   6	   6	   6	   6	   6	   5	   5	   6	   0	
   5	   6	   6	   6	   6	   5	   7	   7	   5	   7	   7	   8	   6	   6	   6	   5	   7	   7	   5	 999	   7	   7	   6	   6	   5	   6	   6	   5	   6	   7	   6	   7	   8	   5	   8	   8	   8	   6	   6	   7	   0	
   6	   5	   7	   7	   6	   6	   6	   7	   5	   6	   6	   6	   5	   5	   8	   6	   7	   6	   6	   6	 999	   6	   6	   6	   7	   7	   6	   7	   7	   5	   6	   5	   5	   7	   6	   6	   5	   6	   6	   5	   0	
   7	   6	   7	   6	   6	   8	   6	   6	   7	   6	   5	   5	   6	   6	   7	   8	   7	   5	   7	   7	   6	 999	   7	   6	   6	   7	   6	   6	   6	   6	   6	   6	   6	   7	   5	   6	   6	   6	   6	   6	   0	
   7	   6	   7	   6	   6	   8	   6	   7	   7	   6	   5	   5	   6	   6	   8	   8	   7	   5	   7	   8	   6	   5	 999	   5	   5	   7	   5	   5	   7	   6	   6	   6	   7	   5	   6	   7	   6	   5	   5	   6	   0	
   7	   5	   6	   6	   6	   7	   5	   6	   6	   5	   5	   5	   6	   6	   7	   7	   6	   5	   7	   7	   6	   5	   5	 999	   5	   6	   5	   5	   6	   6	   5	   6	   7	   5	   6	   7	   7	   5	   5	   6	   0	
   6	   6	   5	   5	   5	   5	   7	   6	   6	   7	   7	   7	   7	   7	   6	   6	   7	   7	   6	   6	   7	   7	   7	   6	 999	   6	   5	   5	   6	   7	   5	   7	   7	   5	   7	   8	   7	   6	   5	   7	   0	
   9	   7	   7	   8	   8	   9	   6	   6	   8	   6	   6	   6	   7	   7	   7	   9	   6	   6	   9	   9	   7	   6	   6	   6	   8	 999	   6	   6	   5	   7	   6	   7	   8	   7	   8	   8	   8	   6	   6	   7	   0	
   6	   5	   7	   6	   6	   6	   6	   6	   6	   6	   6	   6	   6	   6	   7	   6	   7	   6	   6	   6	   5	   6	   6	   5	   6	   7	 999	   5	   6	   6	   5	   6	   7	   5	   6	   7	   7	   5	   5	   6	   0	
   7	   6	   6	   6	   6	   7	   5	   5	   7	   5	   7	   6	   7	   7	   5	   7	   5	   7	   7	   7	   7	   6	   7	   6	   6	   6	   6	 999	   6	   7	   5	   7	   7	   5	   7	   8	   7	   6	   5	   7	   0	
   8	   6	   6	   7	   7	   8	   5	   6	   8	   5	   6	   5	   7	   7	   6	   8	   5	   6	   8	   8	   7	   6	   6	   6	   7	   5	   7	   5	 999	   6	   6	   7	   7	   7	   7	   8	   7	   6	   6	   7	   0	
   7	   7	   5	   5	   6	   6	   6	   6	   7	   6	   7	   6	   8	   8	   5	   6	   6	   7	   7	   6	   7	   7	   7	   6	   5	   7	   7	   6	   7	 999	   6	   5	   5	   6	   6	   6	   5	   6	   6	   5	   0	
   6	   5	   7	   6	   6	   6	   6	   7	   5	   6	   6	   7	   5	   5	   8	   6	   7	   6	   6	   6	   5	   6	   6	   6	   7	   8	   5	   7	   7	   7	 999	   6	   7	   6	   7	   7	   7	   5	   5	   6	   0	
   6	   6	   5	   5	   5	   6	   6	   5	   6	   6	   6	   6	   7	   7	   6	   6	   6	   6	   6	   6	   7	   6	   6	   6	   5	   7	   6	   6	   7	   5	   6	 999	   5	   7	   6	   5	   5	   6	   6	   5	   0	
   5	   6	   6	   5	   5	   5	   7	   7	   5	   7	   7	   7	   7	   6	   6	   5	   7	   7	   5	   5	   6	   7	   7	   7	   5	   8	   6	   7	   8	   6	   6	   6	 999	   7	   5	   5	   5	   6	   7	   5	   0	
   5	   6	   6	   6	   6	   5	   7	   7	   5	   7	   7	   8	   6	   6	   7	   5	   7	   7	   5	   5	   6	   7	   7	   7	   6	   9	   6	   7	   8	   6	   5	   6	   5	 999	   7	   8	   7	   5	   5	   7	   0	
   7	   7	   5	   5	   6	   6	   6	   6	   7	   6	   7	   7	   8	   8	   5	   6	   6	   7	   7	   6	   8	   7	   7	   6	   5	   8	   7	   6	   7	   5	   7	   5	   6	   7	 999	   5	   6	   6	   6	   6	   0	
   7	   6	   7	   6	   6	   8	   6	   6	   7	   5	   5	   5	   6	   6	   7	   8	   7	   5	   7	   7	   6	   5	   5	   5	   7	   6	   6	   6	   6	   7	   6	   6	   7	   7	   7	 999	   5	   7	   7	   5	   0	
   7	   5	   7	   6	   6	   7	   6	   6	   7	   6	   5	   5	   6	   5	   7	   7	   7	   5	   7	   7	   6	   5	   5	   5	   6	   6	   6	   6	   6	   7	   6	   6	   7	   7	   7	   5	 999	   6	   7	   5	   0	
   7	   6	   6	   6	   6	   7	   5	   5	   7	   5	   6	   5	   7	   7	   6	   8	   6	   6	   7	   7	   6	   6	   6	   5	   7	   6	   6	   5	   5	   6	   6	   6	   7	   7	   6	   6	   6	 999	   5	   6	   0	
   8	   6	   6	   7	   7	   8	   5	   6	   8	   5	   6	   5	   7	   7	   6	   8	   5	   6	   8	   8	   7	   6	   6	   6	   7	   5	   7	   5	   5	   7	   7	   7	   8	   8	   7	   6	   6	   5	 999	   6	   0	
   9	   7	   7	   8	   8	   9	   6	   6	   8	   6	   6	   6	   8	   7	   7	   9	   6	   6	   9	   9	   7	   6	   6	   6	   8	   5	   7	   6	   5	   7	   8	   7	   9	   9	   8	   6	   6	   6	   5	 999	   0	
   6	   5	   6	   5	   5	   7	   6	   5	   6	   5	   6	   6	   7	   6	   6	   7	   6	   6	   6	   6	   6	   6	   6	   5	   6	   7	   5	   5	   6	   6	   6	   5	   6	   6	   6	   6	   5	   5	   6	   7	 999	



