Results of MIP model: 
MIP objective    = 694
MIP upper bound  = 694
MIP solving time = 4.06941

------------------------------------------------------------
Results of Logic-based Benders decomposition method: 
(Initial solutions added) 
LBBD best objective   = 694
LBBD solving time     = 2.702

------------------------------------------------------------
Results of Logic-based Benders decomposition method: 
(MP gap = 1%) 
LBBD best objective   = 694
LBBD solving time     = 2.526

------------------------------------------------------------
Results of Logic-based Benders decomposition method: 
(MP gap = 0.5%) 
LBBD best objective   = 694
LBBD solving time     = 3.297

------------------------------------------------------------
Results of Logic-based Benders decomposition method: 
(MP gap = 0.1%) 
LBBD best objective   = 694
LBBD solving time     = 2.022

------------------------------------------------------------
------------------------------------------------------------
Parameters :
M = 2

N = 80

T = 525

Initial SOP of job i in N: delta_i = 
   2	   2	   5	   7	   9	   3	   1	   1	   2	   3	   8	   7	   5	   7	   3	   1	   3	   9	   7	   0	   9	   1	   4	   4	   6	   0	   6	   6	   8	   0	   3	   0	   1	   7	   1	   8	   7	   4	   6	   2	   5	   0	   2	   6	   1	   9	   6	   9	   3	   8	   0	   9	   5	   5	   8	   8	   6	   4	   5	   9	   2	   3	   0	   1	   9	   0	   9	   5	   2	   8	   4	   8	   7	   7	   2	   0	   2	   0	   4	   4	

Minimum required SOP of job i : pl_i = 
  13	  11	  15	  11	  12	  14	  10	  13	  13	  11	  12	  12	  12	  12	  13	  12	  15	  11	  14	  12	  12	  14	  10	  12	  13	  10	  12	  14	  13	  13	  13	  13	  15	  12	  13	  10	  10	  14	  11	  12	  15	  10	  11	  12	  15	  11	  15	  13	  15	  10	  15	  13	  13	  11	  12	  10	  15	  13	  10	  13	  11	  10	  11	  11	  10	  10	  10	  12	  13	  14	  13	  12	  15	  13	  10	  11	  14	  12	  11	  11	

Maximum required SOP of job i : pu_i = 
  25	  23	  22	  25	  23	  24	  22	  22	  25	  23	  20	  23	  25	  25	  20	  20	  20	  21	  25	  25	  24	  20	  21	  22	  22	  25	  20	  21	  20	  23	  23	  20	  24	  22	  23	  20	  21	  20	  21	  25	  22	  21	  23	  21	  22	  24	  24	  20	  20	  22	  23	  23	  24	  24	  20	  25	  21	  24	  22	  21	  22	  21	  20	  20	  21	  25	  22	  20	  24	  25	  22	  20	  24	  21	  25	  21	  22	  25	  20	  24	

Processing rate of job i on machine k : tau_ki = 
   1	   1	 0.5	   2	   1	   1	   2	 0.5	 0.5	 0.5	   2	   1	 0.5	   1	 0.5	   2	   1	   1	 0.5	 0.5	 0.5	   1	   2	   2	   2	 0.5	   2	 0.5	   2	   2	   1	   1	   2	 0.5	   2	 0.5	   2	 0.5	 0.5	 0.5	   1	   1	 0.5	 0.5	   1	   1	   1	 0.5	   1	   2	   2	 0.5	 0.5	 0.5	   2	 0.5	   1	 0.5	   2	   2	   2	 0.5	 0.5	   1	   1	 0.5	 0.5	   2	 0.5	   1	   2	   1	   1	   2	   2	   1	   1	 0.5	   2	 0.5	
   1	   2	 0.5	   2	   1	   1	 0.5	   1	   1	 0.5	 0.5	   2	   2	   1	 0.5	   1	   1	 0.5	   1	   2	   2	   1	   2	   2	   1	 0.5	   1	   2	 0.5	 0.5	 0.5	   2	   1	   1	   2	 0.5	   1	   2	   1	   1	   2	   1	   2	   1	   1	   1	 0.5	   2	   1	   2	 0.5	 0.5	   2	   2	   1	   2	   1	   1	   2	   2	   2	   2	   1	   1	   1	 0.5	 0.5	   2	   1	 0.5	   2	 0.5	 0.5	   2	 0.5	 0.5	   2	   1	   1	   1	


Minimum processing time of job i on machine k : tl_ki = 
  11	   9	  20	   2	   3	  11	 4.5	  24	  22	  16	   2	   5	  14	   5	  20	 5.5	  12	   2	  14	  24	   6	  13	   3	   4	 3.5	  20	   3	  16	 2.5	 6.5	  10	  13	   7	  10	   6	   4	 1.5	  20	  10	  20	  10	  10	  18	  12	  14	   2	   9	   8	  12	   1	 7.5	   8	  16	  12	   2	   4	   9	  18	 2.5	   2	 4.5	  14	  22	  10	   1	  20	   2	 3.5	  22	   6	 4.5	   4	   8	   3	   4	  11	  12	  24	 3.5	  14	
  11	 4.5	  20	   2	   3	  11	  18	  12	  11	  16	   8	 2.5	 3.5	   5	  20	  11	  12	   4	   7	   6	 1.5	  13	   3	   4	   7	  20	   6	   4	  10	  26	  20	 6.5	  14	   5	   6	   4	   3	   5	   5	  10	   5	  10	 4.5	   6	  14	   2	  18	   2	  12	   1	  30	   8	   4	   3	   4	   1	   9	   9	 2.5	   2	 4.5	 3.5	  11	  10	   1	  20	   2	 3.5	  11	  12	 4.5	   8	  16	   3	  16	  22	   6	  12	   7	   7	


Maximum processing time of job i on machine k : tu_ki = 
  23	  21	  34	   9	  14	  21	10.5	  42	  46	  40	   6	  16	  40	  18	  34	 9.5	  17	  12	  36	  50	  30	  19	 8.5	   9	   8	  50	   7	  30	   6	11.5	  20	  20	11.5	  30	  11	  24	   7	  32	  30	  46	  17	  21	  42	  30	  21	  15	  18	  22	  17	   7	11.5	  28	  38	  38	   6	  34	  15	  40	 8.5	   6	  10	  36	  40	  19	  12	  50	  26	 7.5	  44	  17	   9	  12	  17	   7	11.5	  21	  20	  50	   8	  40	
  23	10.5	  34	   9	  14	  21	  42	  21	  23	  40	  24	   8	  10	  18	  34	  19	  17	  24	  18	12.5	 7.5	  19	 8.5	   9	  16	  50	  14	 7.5	  24	  46	  40	  10	  23	  15	  11	  24	  14	   8	  15	  23	 8.5	  21	10.5	  15	  21	  15	  36	 5.5	  17	   7	  46	  28	 9.5	 9.5	  12	 8.5	  15	  20	 8.5	   6	  10	   9	  20	  19	  12	  50	  26	 7.5	  22	  34	   9	  24	  34	   7	  46	  42	  10	  25	  16	  20	


Setup time: s_kij = 
 999	   7	   6	   7	   5	   6	   5	   5	   7	   5	   6	   7	   6	   7	   6	   6	   6	   6	   5	   5	   5	   6	   5	   7	   6	   6	   5	   7	   6	   7	   5	   6	   5	   7	   6	   6	   5	   7	   6	   6	   6	   6	   7	   5	   6	   6	   6	   6	   7	   5	   6	   7	   6	   7	   6	   6	   5	   5	   7	   7	   6	   5	   6	   6	   7	   6	   5	   5	   5	   5	   7	   5	   6	   6	   5	   6	   6	   6	   6	   5	   0	
   7	 999	   5	   5	   8	   6	   6	   7	   7	   6	   7	   5	   6	   6	   6	   7	   7	   6	   8	   6	   7	   6	   7	   6	   6	   8	   7	   5	   6	   5	   6	   5	   7	   5	   5	   6	   7	   5	   7	   5	   6	   6	   6	   7	   6	   6	   6	   8	   7	   7	   6	   5	   8	   5	   7	   8	   7	   7	   5	   5	   6	   7	   9	   6	   5	   6	   7	   6	   7	   7	   6	   7	   6	   6	   7	   6	   6	   7	   6	   7	   0	
   7	   5	 999	   5	   7	   5	   6	   7	   8	   6	   7	   6	   5	   6	   5	   6	   7	   6	   7	   6	   7	   6	   6	   6	   6	   7	   6	   5	   5	   6	   6	   6	   7	   5	   5	   7	   6	   5	   6	   5	   6	   7	   5	   6	   5	   7	   5	   8	   8	   6	   7	   6	   7	   5	   7	   7	   7	   7	   6	   6	   6	   7	   8	   6	   6	   5	   7	   7	   7	   6	   7	   6	   7	   6	   6	   5	   6	   6	   7	   6	   0	
   7	   6	   5	 999	   8	   6	   6	   7	   8	   6	   7	   5	   5	   6	   6	   7	   7	   6	   7	   6	   7	   6	   6	   6	   6	   8	   7	   5	   5	   6	   6	   6	   7	   5	   5	   7	   7	   5	   7	   5	   6	   7	   6	   7	   6	   7	   6	   8	   8	   7	   7	   6	   8	   5	   7	   8	   7	   7	   6	   5	   6	   7	   8	   6	   6	   6	   7	   7	   7	   6	   7	   6	   7	   6	   6	   6	   6	   6	   7	   7	   0	
   6	   6	   5	   6	 999	   6	   6	   5	   6	   6	   6	   8	   7	   8	   6	   6	   5	   7	   6	   6	   6	   6	   6	   7	   7	   6	   6	   7	   7	   8	   6	   7	   5	   8	   7	   7	   6	   8	   6	   7	   7	   7	   7	   5	   7	   7	   7	   5	   6	   6	   7	   8	   5	   8	   6	   6	   5	   5	   8	   8	   6	   5	   5	   7	   8	   6	   5	   6	   5	   6	   7	   6	   7	   6	   6	   7	   7	   6	   6	   5	   0	
   8	   7	   6	   5	   7	 999	   6	   6	   8	   5	   6	   6	   5	   6	   5	   5	   7	   6	   6	   5	   6	   6	   6	   5	   6	   6	   6	   6	   5	   6	   6	   6	   6	   6	   5	   7	   5	   6	   5	   5	   6	   6	   5	   6	   5	   7	   5	   7	   8	   6	   7	   6	   7	   6	   6	   6	   6	   6	   6	   6	   6	   6	   7	   5	   6	   5	   6	   6	   6	   6	   6	   5	   7	   5	   5	   5	   6	   5	   7	   6	   0	
   6	   6	   5	   6	   5	   6	 999	   5	   7	   5	   6	   7	   5	   7	   5	   6	   6	   5	   6	   5	   6	   5	   5	   6	   5	   6	   5	   6	   6	   7	   5	   6	   5	   6	   6	   6	   5	   6	   6	   6	   5	   6	   6	   5	   6	   6	   5	   6	   7	   5	   6	   7	   6	   7	   6	   6	   5	   5	   6	   7	   5	   5	   7	   5	   7	   5	   5	   5	   5	   5	   6	   5	   6	   6	   5	   6	   6	   6	   6	   5	   0	
   8	   7	   6	   6	   7	   5	   6	 999	   6	   6	   6	   8	   6	   8	   6	   6	   5	   6	   6	   6	   6	   6	   5	   7	   6	   6	   5	   7	   7	   8	   6	   7	   5	   7	   7	   6	   5	   7	   6	   7	   6	   7	   7	   5	   6	   6	   6	   5	   6	   5	   7	   8	   5	   8	   6	   6	   5	   5	   7	   8	   6	   5	   6	   6	   8	   6	   5	   5	   5	   5	   7	   6	   6	   6	   5	   6	   6	   7	   6	   5	   0	
   7	   5	   5	   6	   6	   7	   6	   7	 999	   7	   8	   7	   7	   7	   8	   8	   6	   6	   7	   7	   7	   6	   6	   9	   6	   8	   6	   7	   8	   7	   7	   7	   7	   7	   8	   6	   7	   7	   8	   8	   6	   6	   9	   6	   8	   5	   8	   7	   5	   6	   6	   7	   7	   7	   8	   8	   7	   7	   7	   7	   6	   6	   7	   7	   7	   8	   6	   6	   6	   6	   6	   7	   5	   8	   7	   8	   6	   8	   5	   7	   0	
   7	   8	   8	   7	   7	   6	   7	   6	   8	 999	   6	   7	   5	   7	   5	   5	   6	   6	   6	   5	   6	   6	   5	   6	   6	   6	   6	   6	   6	   7	   5	   6	   5	   6	   6	   6	   5	   6	   5	   6	   6	   6	   6	   5	   5	   7	   5	   6	   7	   6	   6	   7	   6	   7	   6	   6	   6	   6	   6	   7	   6	   6	   7	   5	   7	   5	   6	   6	   6	   6	   6	   5	   7	   5	   5	   5	   6	   5	   6	   5	   0	
   7	   6	   5	   5	   6	   5	   5	   6	   6	   7	 999	   8	   6	   8	   6	   5	   7	   6	   5	   6	   5	   6	   6	   6	   6	   5	   6	   7	   7	   8	   6	   7	   6	   7	   7	   7	   5	   7	   5	   7	   6	   7	   6	   6	   6	   7	   6	   6	   8	   6	   7	   8	   6	   8	   5	   5	   5	   6	   7	   8	   6	   6	   6	   6	   8	   6	   6	   7	   7	   6	   7	   5	   7	   6	   5	   6	   7	   5	   7	   6	   0	
   6	   6	   6	   6	   5	   7	   5	   7	   6	   6	   6	 999	   6	   6	   7	   7	   8	   6	   8	   7	   8	   6	   7	   7	   6	   8	   7	   5	   6	   5	   7	   6	   8	   5	   6	   6	   7	   5	   7	   6	   6	   6	   6	   7	   6	   6	   6	   9	   7	   7	   6	   5	   9	   5	   8	   8	   8	   8	   5	   5	   6	   8	   9	   6	   5	   7	   8	   7	   7	   7	   6	   7	   6	   7	   7	   6	   6	   7	   7	   7	   0	
   8	   6	   6	   5	   7	   5	   7	   6	   6	   7	   6	   7	 999	   6	   5	   6	   6	   6	   7	   5	   6	   6	   6	   6	   6	   7	   6	   5	   5	   6	   5	   5	   6	   5	   5	   6	   6	   5	   6	   5	   6	   6	   6	   6	   5	   7	   5	   7	   7	   6	   6	   6	   7	   6	   6	   7	   6	   6	   5	   6	   6	   6	   8	   5	   6	   5	   6	   6	   6	   6	   6	   6	   7	   5	   6	   5	   6	   6	   6	   6	   0	
   7	   5	   6	   6	   6	   7	   6	   7	   5	   9	   6	   7	   6	 999	   6	   7	   7	   6	   8	   6	   8	   6	   7	   7	   6	   8	   7	   6	   7	   5	   6	   5	   7	   6	   6	   6	   7	   5	   7	   6	   6	   5	   7	   7	   6	   6	   6	   8	   6	   7	   5	   5	   8	   6	   8	   8	   8	   8	   5	   6	   6	   7	   9	   6	   5	   6	   7	   7	   7	   7	   5	   7	   6	   7	   7	   6	   6	   7	   6	   7	   0	
   5	   6	   6	   7	   5	   8	   6	   8	   7	   7	   7	   5	   8	   7	 999	   5	   7	   6	   6	   5	   6	   6	   6	   5	   6	   6	   6	   6	   5	   7	   6	   6	   6	   6	   5	   7	   5	   6	   5	   6	   6	   6	   6	   6	   5	   7	   5	   7	   8	   6	   7	   6	   6	   6	   6	   6	   6	   6	   6	   7	   6	   6	   7	   5	   6	   5	   6	   6	   6	   6	   6	   5	   7	   5	   5	   5	   6	   5	   7	   6	   0	
   7	   6	   5	   5	   6	   5	   6	   6	   6	   7	   5	   6	   5	   6	   7	 999	   7	   7	   5	   6	   5	   6	   6	   5	   7	   5	   6	   6	   6	   7	   6	   6	   6	   6	   6	   7	   5	   7	   5	   6	   6	   7	   5	   6	   6	   7	   6	   6	   8	   6	   7	   7	   6	   7	   5	   5	   6	   6	   7	   7	   6	   6	   6	   6	   7	   5	   7	   7	   7	   6	   7	   5	   7	   5	   6	   6	   6	   5	   7	   6	   0	
   6	   7	   6	   6	   6	   6	   6	   6	   7	   6	   6	   5	   7	   7	   6	   6	 999	   6	   6	   6	   6	   6	   5	   8	   6	   7	   5	   7	   7	   8	   6	   7	   6	   7	   7	   6	   6	   7	   7	   7	   6	   7	   8	   5	   7	   6	   7	   6	   6	   5	   7	   8	   6	   7	   7	   7	   6	   6	   7	   8	   6	   5	   6	   6	   8	   7	   5	   5	   5	   5	   7	   6	   6	   7	   6	   7	   6	   7	   5	   6	   0	
   5	   7	   6	   7	   5	   7	   6	   7	   7	   6	   6	   5	   8	   7	   6	   7	   6	 999	   6	   5	   6	   5	   5	   7	   5	   6	   5	   6	   7	   6	   5	   5	   6	   6	   6	   5	   6	   6	   6	   6	   5	   5	   7	   6	   6	   5	   6	   7	   6	   5	   5	   6	   7	   6	   6	   6	   6	   6	   6	   6	   5	   6	   7	   5	   6	   6	   6	   5	   6	   5	   5	   6	   5	   7	   5	   7	   5	   7	   5	   6	   0	
   7	   5	   5	   6	   6	   6	   6	   7	   5	   8	   6	   6	   6	   5	   7	   6	   7	   7	 999	   6	   5	   6	   6	   6	   6	   5	   5	   7	   7	   8	   6	   7	   5	   7	   7	   6	   5	   8	   5	   7	   6	   7	   6	   5	   6	   6	   6	   5	   7	   5	   7	   8	   5	   8	   5	   5	   5	   5	   8	   8	   6	   6	   5	   7	   8	   6	   6	   6	   6	   6	   7	   6	   7	   6	   6	   6	   7	   6	   6	   5	   0	
   7	   5	   5	   5	   6	   6	   6	   6	   6	   7	   5	   6	   6	   6	   7	   5	   6	   7	   5	 999	   6	   5	   5	   6	   5	   6	   5	   6	   6	   7	   5	   6	   6	   6	   6	   6	   5	   6	   5	   6	   5	   6	   6	   5	   5	   6	   5	   7	   7	   5	   6	   6	   6	   6	   6	   6	   6	   6	   6	   7	   5	   6	   7	   5	   7	   5	   6	   6	   5	   5	   6	   5	   6	   6	   5	   6	   5	   6	   6	   5	   0	
   6	   7	   6	   6	   6	   6	   6	   6	   7	   6	   6	   5	   7	   7	   6	   6	   5	   6	   7	   6	 999	   6	   5	   6	   6	   5	   5	   7	   7	   8	   6	   7	   5	   7	   7	   6	   5	   7	   5	   7	   6	   7	   6	   5	   6	   6	   6	   5	   7	   5	   7	   8	   5	   8	   5	   5	   5	   5	   7	   8	   6	   6	   6	   6	   8	   6	   6	   6	   6	   6	   7	   5	   7	   6	   5	   6	   7	   5	   6	   5	   0	
   8	   5	   5	   6	   6	   7	   6	   7	   5	   8	   6	   6	   6	   5	   7	   6	   7	   7	   5	   5	   7	 999	   5	   7	   5	   6	   5	   6	   7	   6	   5	   5	   6	   6	   6	   5	   5	   6	   6	   6	   5	   5	   7	   5	   6	   5	   6	   7	   6	   5	   5	   6	   7	   6	   6	   6	   6	   6	   6	   6	   5	   6	   7	   5	   6	   6	   6	   5	   5	   5	   6	   6	   6	   6	   5	   6	   5	   6	   5	   6	   0	
   7	   6	   5	   5	   6	   6	   5	   6	   6	   7	   5	   6	   6	   6	   6	   5	   5	   6	   6	   5	   6	   6	 999	   7	   5	   6	   5	   6	   6	   7	   5	   6	   5	   6	   6	   5	   5	   6	   6	   6	   5	   6	   7	   5	   6	   6	   6	   6	   6	   5	   6	   7	   6	   7	   6	   6	   5	   5	   6	   7	   5	   5	   7	   5	   7	   6	   5	   5	   5	   5	   6	   6	   6	   6	   5	   6	   6	   6	   5	   5	   0	
   5	   6	   6	   7	   5	   8	   6	   8	   7	   7	   7	   5	   8	   7	   5	   7	   6	   5	   7	   7	   6	   7	   6	 999	   7	   6	   7	   6	   5	   7	   7	   6	   6	   6	   6	   7	   6	   6	   5	   6	   7	   7	   5	   7	   5	   8	   6	   6	   9	   7	   8	   7	   6	   6	   6	   6	   6	   6	   7	   7	   7	   7	   7	   6	   7	   6	   7	   7	   7	   7	   7	   6	   8	   5	   6	   5	   7	   5	   8	   7	   0	
   6	   5	   5	   6	   6	   7	   6	   7	   6	   8	   6	   6	   7	   5	   6	   6	   7	   7	   6	   6	   7	   6	   6	   6	 999	   6	   5	   6	   7	   6	   5	   5	   6	   6	   6	   5	   6	   6	   6	   6	   5	   5	   7	   6	   6	   5	   6	   7	   6	   5	   5	   6	   7	   6	   6	   6	   6	   6	   6	   6	   5	   6	   7	   5	   6	   6	   6	   5	   6	   5	   5	   6	   5	   7	   5	   7	   5	   7	   5	   6	   0	
   6	   5	   5	   6	   5	   6	   5	   6	   5	   8	   5	   6	   7	   5	   6	   6	   6	   6	   6	   5	   7	   6	   6	   6	   5	 999	   6	   7	   7	   8	   6	   7	   6	   7	   7	   7	   5	   8	   5	   7	   7	   7	   6	   6	   6	   7	   6	   5	   8	   6	   7	   8	   5	   8	   5	   5	   5	   6	   8	   8	   6	   6	   6	   7	   8	   6	   6	   6	   6	   6	   7	   6	   7	   6	   6	   6	   7	   6	   7	   6	   0	
   7	   5	   5	   5	   6	   6	   5	   7	   5	   8	   6	   6	   6	   5	   7	   6	   7	   7	   5	   5	   7	   5	   6	   7	   6	   5	 999	   6	   7	   7	   5	   6	   5	   6	   6	   5	   5	   7	   6	   6	   6	   6	   7	   5	   6	   6	   6	   6	   6	   5	   6	   7	   6	   7	   6	   6	   5	   5	   7	   7	   5	   5	   6	   6	   7	   6	   5	   5	   5	   5	   6	   6	   6	   6	   5	   6	   6	   6	   5	   5	   0	
   8	   6	   6	   5	   7	   6	   6	   6	   6	   7	   5	   7	   5	   6	   7	   5	   6	   7	   5	   5	   6	   5	   6	   7	   6	   6	   5	 999	   5	   5	   6	   5	   7	   5	   5	   6	   6	   5	   6	   5	   6	   6	   6	   7	   5	   7	   5	   8	   7	   6	   6	   5	   8	   5	   7	   7	   7	   7	   5	   5	   6	   7	   8	   5	   5	   6	   7	   6	   7	   6	   6	   6	   7	   6	   6	   5	   6	   6	   6	   7	   0	
   8	   5	   5	   5	   6	   6	   6	   6	   6	   7	   5	   6	   5	   6	   7	   5	   6	   7	   5	   5	   6	   5	   5	   7	   6	   6	   5	   5	 999	   6	   6	   6	   6	   6	   5	   7	   6	   6	   6	   5	   7	   7	   5	   6	   5	   8	   5	   7	   8	   7	   7	   6	   7	   6	   7	   7	   7	   7	   6	   6	   7	   7	   8	   6	   6	   5	   7	   7	   7	   7	   7	   6	   8	   6	   6	   5	   7	   6	   7	   6	   0	
   7	   5	   6	   6	   6	   7	   6	   7	   5	   9	   6	   7	   6	   5	   7	   6	   7	   7	   5	   6	   8	   5	   7	   7	   5	   5	   5	   6	   6	 999	   7	   6	   8	   5	   6	   6	   7	   5	   7	   6	   6	   6	   6	   7	   6	   6	   6	   9	   7	   7	   6	   5	   9	   5	   8	   8	   8	   8	   5	   5	   6	   8	   9	   6	   5	   7	   8	   7	   7	   7	   6	   7	   6	   7	   7	   6	   6	   7	   7	   7	   0	
   5	   7	   7	   7	   6	   8	   6	   8	   7	   7	   7	   6	   8	   7	   5	   7	   6	   5	   7	   7	   6	   8	   7	   5	   6	   6	   7	   8	   7	   7	 999	   5	   6	   6	   6	   5	   5	   6	   6	   6	   5	   5	   7	   5	   6	   6	   5	   7	   7	   5	   6	   6	   7	   6	   6	   6	   6	   6	   6	   6	   5	   6	   7	   5	   6	   5	   6	   5	   5	   5	   6	   5	   6	   6	   5	   6	   5	   6	   6	   5	   0	
   6	   5	   5	   6	   5	   6	   5	   7	   5	   8	   6	   6	   6	   5	   6	   6	   7	   6	   5	   5	   7	   6	   6	   6	   5	   5	   5	   6	   6	   5	   6	 999	   7	   5	   6	   6	   6	   5	   6	   5	   5	   5	   7	   6	   6	   6	   5	   8	   7	   6	   6	   5	   7	   5	   7	   7	   7	   7	   5	   6	   5	   7	   8	   5	   6	   5	   7	   6	   6	   6	   5	   6	   6	   6	   6	   6	   5	   6	   6	   6	   0	
   8	   6	   6	   5	   7	   6	   7	   6	   6	   8	   6	   7	   5	   6	   8	   5	   7	   8	   5	   6	   7	   5	   6	   8	   7	   7	   6	   5	   5	   6	   8	   6	 999	   7	   6	   6	   5	   7	   6	   7	   6	   7	   7	   5	   6	   6	   6	   5	   7	   5	   7	   8	   5	   7	   6	   5	   5	   5	   7	   8	   6	   5	   6	   6	   8	   6	   5	   5	   5	   5	   7	   5	   6	   6	   5	   6	   6	   6	   6	   5	   0	
   5	   6	   6	   7	   5	   7	   6	   7	   6	   6	   6	   5	   8	   7	   5	   7	   6	   5	   7	   7	   6	   7	   6	   5	   6	   6	   7	   7	   7	   7	   5	   6	   8	 999	   5	   6	   6	   5	   6	   5	   6	   6	   6	   7	   5	   6	   5	   8	   7	   6	   6	   5	   8	   5	   7	   7	   7	   7	   5	   5	   6	   7	   8	   5	   5	   6	   7	   6	   7	   6	   6	   6	   6	   6	   6	   5	   6	   6	   6	   7	   0	
   9	   7	   7	   6	   8	   6	   7	   6	   6	   7	   7	   8	   5	   7	   9	   6	   7	   9	   6	   6	   7	   6	   7	   9	   7	   7	   6	   6	   6	   6	   9	   7	   5	   8	 999	   7	   6	   5	   6	   5	   6	   7	   5	   6	   5	   7	   5	   7	   8	   6	   7	   6	   7	   5	   7	   7	   7	   7	   6	   6	   6	   6	   8	   6	   6	   5	   7	   7	   7	   6	   7	   6	   7	   6	   6	   5	   6	   6	   7	   6	   0	
   6	   5	   5	   6	   5	   7	   5	   7	   6	   8	   6	   6	   7	   6	   5	   6	   6	   6	   6	   6	   6	   6	   6	   5	   5	   5	   6	   7	   6	   6	   6	   5	   7	   6	   8	 999	   6	   6	   7	   6	   5	   5	   8	   6	   7	   5	   6	   7	   6	   6	   5	   6	   7	   6	   7	   7	   6	   6	   6	   6	   5	   6	   7	   6	   6	   6	   6	   5	   6	   5	   5	   6	   5	   7	   6	   7	   5	   7	   5	   6	   0	
   5	   7	   6	   7	   6	   7	   6	   7	   7	   6	   6	   5	   7	   7	   6	   7	   5	   5	   7	   6	   5	   7	   6	   6	   7	   6	   7	   7	   7	   7	   6	   7	   7	   5	   8	   6	 999	   7	   5	   6	   6	   6	   6	   5	   5	   6	   5	   6	   7	   5	   6	   7	   6	   7	   5	   5	   5	   5	   7	   7	   5	   5	   6	   6	   7	   5	   6	   6	   6	   6	   6	   5	   6	   5	   5	   5	   6	   6	   6	   5	   0	
   9	   7	   7	   6	   7	   5	   7	   5	   6	   7	   6	   7	   5	   7	   8	   6	   7	   8	   6	   6	   7	   6	   6	   8	   7	   7	   6	   5	   6	   7	   9	   7	   6	   8	   5	   7	   8	 999	   7	   5	   6	   6	   6	   7	   6	   6	   6	   8	   7	   7	   6	   5	   8	   5	   7	   8	   7	   7	   5	   5	   6	   7	   8	   5	   5	   6	   7	   6	   7	   6	   6	   6	   6	   6	   6	   6	   5	   6	   6	   7	   0	
   9	   7	   7	   6	   8	   5	   7	   5	   7	   7	   6	   8	   5	   7	   8	   6	   7	   8	   6	   6	   7	   6	   7	   8	   7	   7	   6	   6	   6	   7	   9	   7	   6	   8	   5	   8	   8	   5	 999	   6	   6	   6	   5	   6	   5	   7	   5	   6	   8	   6	   7	   7	   6	   7	   5	   5	   5	   6	   7	   7	   6	   6	   6	   6	   7	   5	   6	   6	   6	   6	   6	   5	   7	   5	   5	   6	   6	   5	   7	   6	   0	
   7	   6	   5	   5	   6	   6	   5	   6	   6	   7	   5	   6	   6	   6	   7	   5	   5	   6	   6	   5	   5	   6	   5	   7	   6	   6	   6	   5	   5	   7	   7	   6	   6	   6	   7	   6	   6	   6	   6	 999	   6	   6	   6	   6	   5	   7	   5	   8	   8	   6	   7	   6	   8	   5	   7	   7	   7	   7	   6	   5	   6	   7	   8	   5	   5	   6	   7	   6	   6	   6	   6	   6	   7	   6	   6	   5	   6	   6	   7	   6	   0	
   7	   5	   6	   6	   6	   7	   6	   7	   5	   9	   6	   7	   6	   5	   6	   6	   7	   7	   5	   6	   7	   6	   6	   6	   5	   5	   5	   6	   6	   5	   6	   5	   6	   7	   7	   5	   7	   7	   7	   6	 999	   5	   7	   6	   6	   5	   6	   7	   6	   6	   5	   6	   7	   6	   6	   7	   6	   6	   6	   6	   5	   6	   7	   5	   6	   6	   6	   5	   6	   5	   5	   6	   5	   6	   5	   7	   5	   7	   5	   6	   0	
   7	   5	   5	   6	   6	   7	   6	   7	   5	   8	   6	   6	   6	   5	   7	   6	   7	   7	   5	   6	   7	   5	   6	   7	   6	   6	   5	   6	   5	   5	   7	   6	   5	   7	   6	   6	   7	   6	   7	   6	   5	 999	   7	   6	   7	   5	   6	   7	   6	   6	   5	   6	   7	   6	   7	   7	   7	   7	   5	   6	   5	   6	   8	   6	   6	   6	   7	   6	   6	   6	   5	   6	   5	   7	   6	   7	   5	   7	   6	   6	   0	
   6	   5	   6	   6	   6	   7	   6	   7	   5	   9	   6	   7	   6	   5	   6	   6	   7	   7	   5	   6	   7	   6	   6	   6	   5	   5	   5	   6	   6	   5	   6	   5	   6	   7	   7	   6	   7	   7	   7	   7	   5	   6	 999	   7	   5	   8	   6	   7	   9	   7	   8	   7	   7	   6	   6	   6	   6	   7	   7	   6	   7	   7	   7	   6	   6	   6	   7	   7	   7	   7	   7	   6	   8	   5	   6	   5	   7	   5	   8	   7	   0	
   8	   6	   6	   6	   7	   7	   6	   7	   5	   8	   6	   7	   6	   5	   8	   6	   7	   7	   5	   5	   7	   5	   6	   8	   6	   6	   5	   5	   5	   5	   8	   6	   5	   7	   6	   7	   7	   6	   6	   6	   6	   5	   6	 999	   6	   6	   6	   6	   6	   5	   6	   7	   6	   7	   6	   6	   5	   5	   7	   7	   5	   5	   6	   6	   7	   6	   5	   5	   5	   5	   7	   6	   6	   6	   5	   6	   6	   6	   5	   5	   0	
   7	   5	   5	   5	   6	   6	   6	   6	   5	   7	   5	   6	   6	   6	   7	   5	   6	   7	   5	   5	   6	   5	   5	   7	   6	   5	   5	   5	   5	   6	   7	   5	   6	   7	   6	   6	   6	   6	   6	   5	   6	   5	   6	   5	 999	   7	   5	   7	   8	   6	   7	   6	   7	   6	   6	   6	   6	   6	   6	   6	   6	   6	   7	   5	   6	   5	   6	   6	   6	   6	   7	   5	   7	   5	   5	   5	   6	   5	   7	   6	   0	
   7	   5	   5	   5	   6	   6	   6	   6	   6	   7	   5	   6	   5	   6	   7	   5	   6	   7	   5	   5	   6	   5	   5	   7	   6	   6	   5	   5	   5	   6	   7	   6	   5	   7	   6	   6	   7	   6	   6	   5	   6	   6	   6	   5	   5	 999	   7	   7	   5	   6	   5	   6	   7	   6	   7	   7	   6	   6	   6	   6	   5	   6	   7	   6	   6	   7	   6	   5	   6	   5	   5	   7	   5	   7	   6	   7	   5	   7	   5	   6	   0	
   8	   6	   6	   5	   6	   5	   6	   5	   6	   6	   5	   6	   5	   7	   7	   5	   6	   7	   6	   5	   6	   6	   5	   7	   6	   6	   6	   5	   5	   7	   8	   6	   6	   7	   6	   6	   7	   6	   6	   5	   7	   6	   7	   6	   6	   5	 999	   7	   8	   6	   7	   6	   7	   6	   6	   6	   6	   6	   6	   6	   6	   6	   7	   5	   6	   5	   6	   6	   6	   6	   6	   5	   7	   5	   5	   5	   6	   5	   7	   6	   0	
   7	   6	   5	   5	   6	   5	   5	   5	   6	   7	   5	   6	   6	   6	   7	   5	   5	   7	   6	   5	   5	   6	   5	   7	   6	   6	   6	   5	   5	   7	   7	   6	   6	   6	   7	   6	   6	   6	   6	   5	   6	   6	   7	   6	   5	   5	   5	 999	   7	   6	   8	   8	   5	   8	   6	   5	   5	   5	   8	   9	   7	   6	   5	   7	   9	   7	   5	   6	   6	   6	   8	   6	   7	   6	   6	   7	   7	   6	   6	   6	   0	
   7	   6	   5	   5	   6	   5	   6	   5	   6	   7	   5	   6	   5	   6	   7	   5	   6	   7	   6	   5	   6	   6	   5	   7	   6	   6	   6	   5	   5	   7	   7	   6	   6	   7	   6	   6	   6	   6	   6	   5	   6	   6	   7	   6	   5	   5	   5	   5	 999	   6	   6	   7	   7	   7	   8	   8	   7	   7	   7	   7	   6	   6	   7	   7	   7	   8	   6	   6	   6	   6	   6	   7	   5	   8	   7	   8	   6	   8	   6	   7	   0	
   6	   7	   6	   6	   6	   6	   6	   6	   7	   6	   6	   5	   7	   7	   6	   6	   5	   6	   7	   6	   5	   7	   5	   6	   7	   6	   7	   6	   6	   7	   6	   7	   7	   6	   7	   6	   5	   7	   7	   5	   7	   7	   7	   7	   6	   6	   6	   5	   6	 999	   6	   7	   6	   7	   6	   6	   5	   5	   7	   7	   5	   5	   6	   6	   7	   6	   5	   5	   5	   5	   6	   6	   6	   6	   5	   6	   6	   6	   5	   5	   0	
   9	   7	   7	   6	   8	   6	   7	   6	   6	   7	   6	   8	   5	   6	   8	   6	   7	   8	   6	   6	   7	   6	   7	   8	   7	   7	   6	   6	   6	   6	   9	   7	   5	   8	   5	   8	   8	   5	   6	   6	   7	   6	   7	   5	   6	   6	   6	   6	   6	   7	 999	   6	   7	   6	   7	   7	   7	   7	   6	   6	   5	   7	   8	   6	   6	   7	   7	   6	   6	   6	   5	   6	   5	   7	   6	   7	   5	   7	   6	   6	   0	
   8	   6	   6	   6	   6	   7	   6	   7	   5	   8	   6	   7	   6	   5	   7	   6	   7	   7	   5	   6	   7	   5	   6	   7	   6	   6	   5	   6	   6	   5	   8	   6	   5	   7	   6	   6	   7	   6	   7	   6	   6	   5	   6	   5	   5	   6	   7	   6	   6	   7	   6	 999	   8	   5	   8	   8	   8	   8	   5	   5	   6	   7	   9	   6	   5	   6	   8	   7	   7	   7	   5	   7	   6	   7	   7	   6	   6	   7	   7	   7	   0	
   6	   7	   6	   6	   6	   6	   5	   6	   7	   6	   5	   5	   7	   7	   6	   6	   5	   6	   6	   6	   5	   7	   5	   6	   7	   6	   6	   6	   6	   7	   6	   6	   7	   6	   7	   6	   5	   7	   7	   5	   7	   7	   7	   7	   6	   6	   6	   5	   6	   5	   7	   7	 999	   8	   6	   5	   5	   5	   8	   8	   7	   5	   5	   7	   8	   6	   5	   6	   6	   6	   8	   6	   7	   6	   6	   7	   7	   6	   6	   6	   0	
   9	   7	   7	   6	   8	   6	   7	   6	   7	   7	   7	   8	   5	   7	   9	   6	   7	   8	   6	   6	   7	   6	   7	   9	   7	   7	   6	   6	   6	   7	   9	   7	   6	   8	   5	   8	   8	   5	   5	   7	   7	   7	   7	   6	   6	   6	   6	   6	   6	   7	   6	   7	   7	 999	   8	   8	   8	   8	   5	   5	   6	   7	   9	   6	   5	   6	   7	   7	   7	   7	   6	   7	   6	   7	   7	   6	   6	   7	   6	   7	   0	
   7	   7	   7	   6	   6	   5	   6	   6	   8	   5	   6	   6	   6	   8	   7	   6	   5	   6	   7	   6	   5	   7	   6	   7	   8	   7	   7	   6	   7	   8	   7	   7	   7	   6	   7	   7	   6	   6	   6	   6	   8	   7	   8	   7	   7	   6	   6	   6	   6	   5	   7	   8	   5	   7	 999	   5	   5	   6	   7	   8	   6	   6	   6	   6	   8	   6	   7	   7	   7	   6	   7	   5	   7	   5	   6	   6	   6	   5	   7	   6	   0	
   7	   5	   6	   6	   6	   7	   6	   8	   5	   9	   7	   7	   6	   5	   7	   7	   8	   7	   5	   6	   8	   5	   7	   7	   5	   6	   6	   6	   6	   5	   7	   6	   6	   7	   7	   6	   8	   7	   7	   7	   5	   5	   5	   5	   6	   6	   7	   7	   7	   8	   6	   5	   7	   7	   8	 999	   5	   5	   8	   8	   6	   6	   5	   7	   8	   6	   6	   6	   6	   6	   7	   6	   7	   6	   6	   6	   7	   6	   7	   6	   0	
   6	   7	   6	   6	   6	   7	   6	   7	   7	   6	   6	   5	   7	   7	   6	   6	   5	   5	   7	   6	   5	   7	   6	   5	   7	   6	   6	   7	   6	   7	   6	   6	   7	   5	   8	   6	   5	   8	   8	   6	   7	   7	   7	   7	   6	   6	   6	   6	   6	   5	   8	   7	   5	   8	   6	   7	 999	   5	   7	   8	   6	   5	   6	   6	   8	   6	   6	   6	   6	   5	   7	   5	   6	   6	   5	   6	   7	   6	   6	   5	   0	
   7	   7	   7	   6	   6	   5	   6	   6	   7	   5	   6	   6	   6	   8	   7	   6	   5	   6	   7	   6	   5	   7	   6	   7	   7	   7	   7	   6	   6	   8	   7	   7	   7	   6	   7	   7	   6	   6	   6	   6	   8	   7	   8	   7	   7	   6	   5	   6	   6	   5	   6	   7	   5	   7	   5	   8	   6	 999	   7	   8	   6	   5	   6	   6	   8	   6	   5	   5	   5	   5	   7	   5	   6	   6	   5	   6	   7	   6	   6	   5	   0	
   7	   5	   5	   6	   6	   7	   6	   7	   5	   8	   6	   7	   6	   5	   6	   6	   7	   7	   5	   6	   7	   6	   6	   6	   5	   5	   5	   6	   6	   5	   7	   5	   6	   7	   7	   5	   7	   7	   7	   6	   5	   5	   5	   6	   6	   6	   7	   6	   6	   7	   7	   6	   7	   7	   8	   5	   7	   8	 999	   5	   6	   7	   8	   5	   5	   6	   7	   6	   7	   6	   5	   6	   6	   6	   6	   6	   5	   6	   6	   7	   0	
   8	   8	   7	   6	   7	   5	   6	   5	   8	   6	   6	   7	   6	   8	   8	   6	   6	   7	   7	   7	   6	   7	   6	   8	   8	   7	   7	   7	   7	   8	   8	   7	   7	   7	   6	   7	   7	   6	   6	   6	   8	   8	   8	   8	   7	   7	   6	   6	   6	   6	   7	   8	   6	   6	   5	   8	   7	   5	   8	 999	   6	   8	   9	   6	   5	   7	   8	   7	   7	   7	   6	   7	   6	   7	   7	   6	   6	   7	   7	   7	   0	
   8	   6	   6	   5	   7	   6	   7	   6	   6	   7	   6	   7	   5	   6	   8	   5	   7	   8	   5	   6	   7	   5	   6	   8	   7	   7	   6	   5	   5	   6	   8	   6	   5	   8	   5	   7	   7	   5	   6	   6	   6	   5	   6	   5	   6	   5	   5	   6	   5	   7	   5	   6	   7	   6	   7	   6	   7	   6	   6	   7	 999	   6	   7	   5	   6	   6	   6	   5	   5	   5	   6	   6	   6	   6	   5	   6	   5	   6	   5	   6	   0	
   7	   6	   6	   5	   6	   5	   5	   6	   7	   6	   5	   6	   6	   7	   7	   5	   5	   6	   6	   6	   5	   6	   5	   7	   7	   6	   6	   6	   6	   7	   7	   6	   6	   6	   7	   6	   6	   6	   6	   5	   7	   7	   7	   6	   6	   6	   5	   5	   5	   5	   6	   7	   5	   7	   5	   7	   6	   5	   7	   6	   6	 999	   6	   6	   8	   6	   5	   5	   5	   5	   7	   6	   6	   6	   5	   6	   6	   6	   5	   5	   0	
   6	   7	   6	   6	   5	   7	   5	   7	   7	   6	   6	   5	   7	   7	   6	   6	   5	   5	   6	   6	   5	   6	   6	   5	   7	   6	   6	   7	   6	   7	   6	   6	   7	   5	   8	   6	   5	   8	   8	   6	   7	   7	   7	   7	   6	   6	   6	   6	   6	   5	   8	   7	   5	   8	   6	   7	   5	   6	   7	   7	   7	   6	 999	   7	   9	   7	   6	   7	   6	   6	   8	   7	   7	   7	   6	   7	   8	   7	   7	   6	   0	
   7	   5	   5	   6	   6	   7	   6	   7	   5	   8	   6	   6	   6	   5	   7	   6	   7	   6	   5	   5	   7	   5	   6	   7	   5	   5	   5	   5	   5	   5	   7	   5	   6	   6	   7	   6	   7	   6	   6	   6	   5	   5	   5	   6	   5	   5	   6	   6	   6	   7	   6	   5	   7	   7	   7	   5	   7	   7	   5	   7	   6	   6	   6	 999	   6	   5	   6	   6	   6	   6	   6	   5	   6	   6	   6	   6	   5	   6	   6	   6	   0	
   7	   5	   6	   6	   6	   7	   6	   7	   5	   9	   6	   7	   6	   5	   6	   6	   7	   7	   5	   6	   8	   6	   7	   6	   5	   5	   5	   6	   6	   5	   7	   5	   6	   7	   7	   6	   7	   7	   7	   7	   5	   5	   5	   6	   6	   6	   7	   7	   7	   7	   7	   6	   7	   7	   8	   5	   7	   8	   5	   8	   6	   7	   7	   5	 999	   6	   8	   7	   7	   7	   5	   7	   6	   7	   7	   6	   6	   7	   7	   7	   0	
   7	   6	   6	   5	   6	   5	   6	   5	   7	   6	   5	   6	   5	   7	   7	   5	   6	   7	   6	   6	   6	   6	   5	   7	   7	   6	   6	   5	   6	   7	   7	   6	   6	   7	   6	   6	   6	   6	   6	   5	   7	   7	   7	   6	   6	   5	   5	   5	   5	   6	   6	   7	   6	   6	   5	   7	   6	   5	   7	   6	   6	   5	   6	   6	   7	 999	   6	   6	   6	   6	   6	   5	   7	   5	   5	   5	   6	   5	   7	   6	   0	
   9	   7	   7	   6	   8	   6	   7	   6	   7	   7	   7	   8	   5	   7	   9	   6	   8	   9	   6	   6	   8	   6	   7	   9	   8	   7	   7	   6	   6	   7	   9	   7	   5	   9	   5	   8	   8	   5	   5	   7	   7	   6	   7	   6	   6	   6	   6	   7	   6	   7	   5	   6	   8	   5	   7	   7	   8	   7	   7	   6	   5	   7	   8	   7	   7	   6	 999	   5	   5	   5	   7	   6	   6	   7	   6	   7	   6	   7	   6	   5	   0	
   5	   6	   6	   6	   5	   7	   5	   7	   6	   6	   6	   5	   7	   7	   5	   6	   5	   5	   6	   6	   5	   7	   6	   5	   6	   6	   6	   7	   7	   7	   5	   6	   7	   5	   8	   6	   5	   8	   8	   6	   7	   7	   7	   7	   6	   6	   7	   6	   6	   5	   8	   7	   5	   8	   6	   7	   5	   6	   7	   7	   7	   6	   5	   6	   7	   6	   8	 999	   5	   5	   6	   6	   5	   7	   6	   7	   6	   7	   5	   5	   0	
   7	   5	   5	   6	   6	   7	   6	   7	   5	   8	   6	   6	   6	   5	   7	   6	   7	   7	   5	   5	   7	   5	   6	   7	   6	   6	   5	   5	   5	   5	   7	   6	   5	   7	   6	   6	   7	   6	   6	   6	   5	   5	   6	   5	   5	   5	   6	   6	   6	   7	   6	   5	   7	   6	   7	   5	   7	   7	   5	   7	   5	   6	   6	   5	   5	   6	   6	   7	 999	   5	   7	   6	   6	   7	   6	   7	   6	   7	   5	   5	   0	
   6	   7	   7	   6	   6	   6	   6	   6	   8	   5	   6	   6	   6	   8	   6	   6	   5	   6	   7	   7	   5	   7	   6	   6	   8	   7	   7	   7	   7	   8	   6	   7	   7	   6	   7	   7	   6	   7	   7	   6	   8	   8	   8	   7	   7	   7	   6	   6	   6	   5	   7	   8	   5	   7	   5	   8	   5	   5	   8	   6	   7	   6	   5	   7	   8	   6	   7	   6	   7	 999	   6	   6	   6	   6	   5	   7	   6	   7	   5	   5	   0	
   6	   6	   6	   6	   5	   7	   5	   7	   6	   8	   6	   6	   7	   6	   5	   6	   7	   6	   6	   6	   7	   7	   6	   5	   5	   5	   6	   7	   6	   6	   6	   5	   7	   6	   8	   5	   7	   8	   8	   6	   5	   6	   5	   7	   6	   6	   7	   6	   6	   6	   8	   7	   6	   8	   7	   6	   6	   7	   6	   7	   7	   6	   6	   6	   6	   6	   8	   6	   6	   7	 999	   6	   5	   7	   6	   7	   5	   7	   6	   7	   0	
   8	   6	   6	   5	   7	   5	   6	   5	   6	   6	   5	   7	   5	   7	   8	   5	   6	   7	   6	   5	   6	   6	   6	   8	   6	   6	   6	   5	   5	   7	   8	   6	   6	   7	   6	   7	   7	   5	   5	   6	   7	   6	   7	   6	   6	   5	   5	   5	   5	   6	   5	   7	   6	   6	   6	   7	   7	   5	   7	   6	   5	   5	   7	   6	   7	   5	   6	   7	   6	   6	   7	 999	   7	   5	   5	   5	   6	   5	   6	   5	   0	
   7	   5	   5	   6	   6	   7	   6	   7	   5	   8	   6	   7	   6	   5	   7	   6	   7	   7	   5	   6	   7	   5	   6	   7	   6	   6	   5	   6	   6	   5	   7	   6	   5	   7	   6	   6	   7	   6	   7	   6	   5	   5	   6	   5	   5	   6	   7	   6	   6	   7	   6	   5	   7	   7	   8	   5	   7	   7	   5	   8	   6	   7	   7	   5	   5	   7	   6	   7	   5	   8	   6	   6	 999	   7	   6	   7	   5	   7	   5	   6	   0	
   6	   6	   6	   6	   5	   7	   5	   7	   6	   7	   6	   5	   7	   6	   5	   6	   6	   5	   6	   6	   6	   6	   6	   5	   6	   5	   6	   7	   6	   6	   6	   5	   7	   5	   8	   5	   6	   8	   8	   6	   6	   6	   6	   7	   6	   6	   6	   6	   6	   6	   8	   7	   5	   8	   6	   6	   6	   6	   6	   7	   7	   6	   5	   6	   6	   6	   8	   5	   6	   6	   5	   7	   6	 999	   6	   5	   6	   5	   7	   6	   0	
   7	   6	   5	   5	   6	   5	   6	   5	   6	   7	   5	   6	   6	   6	   7	   5	   6	   7	   6	   5	   6	   6	   5	   7	   6	   6	   6	   5	   5	   6	   7	   6	   6	   7	   6	   6	   6	   6	   6	   5	   6	   6	   6	   6	   5	   5	   5	   5	   5	   6	   6	   6	   6	   6	   6	   7	   6	   6	   6	   6	   6	   5	   6	   6	   6	   5	   6	   6	   6	   6	   6	   5	   6	   6	 999	   6	   6	   6	   6	   5	   0	
   7	   6	   5	   5	   6	   6	   5	   6	   6	   7	   5	   6	   6	   6	   7	   5	   6	   7	   5	   5	   6	   5	   5	   7	   6	   5	   5	   5	   5	   6	   7	   5	   6	   6	   6	   6	   6	   6	   6	   5	   6	   6	   6	   6	   5	   5	   5	   5	   5	   6	   6	   6	   6	   6	   6	   6	   6	   6	   6	   7	   6	   5	   6	   5	   6	   5	   7	   6	   5	   6	   6	   5	   6	   6	   5	 999	   6	   5	   7	   6	   0	
   5	   6	   6	   7	   5	   7	   6	   7	   6	   8	   6	   6	   8	   6	   5	   7	   6	   6	   7	   7	   6	   7	   6	   5	   5	   6	   6	   7	   7	   6	   5	   6	   8	   6	   8	   5	   6	   8	   8	   6	   6	   7	   6	   7	   7	   7	   7	   6	   7	   6	   8	   7	   6	   8	   7	   6	   6	   7	   6	   7	   8	   6	   6	   6	   6	   7	   8	   6	   7	   7	   5	   7	   7	   5	   7	   6	 999	   7	   5	   6	   0	
   5	   6	   6	   7	   5	   7	   6	   8	   7	   6	   7	   5	   8	   7	   5	   7	   6	   5	   7	   7	   6	   7	   6	   5	   6	   6	   7	   7	   7	   7	   5	   6	   8	   5	   9	   6	   5	   8	   8	   6	   7	   7	   7	   7	   7	   7	   7	   7	   7	   6	   8	   7	   6	   9	   6	   7	   5	   7	   7	   7	   8	   7	   5	   6	   7	   7	   9	   5	   7	   6	   6	   7	   7	   5	   7	   7	   6	 999	   7	   6	   0	
   7	   5	   5	   5	   6	   6	   5	   6	   5	   8	   5	   6	   6	   6	   7	   5	   6	   7	   5	   5	   6	   5	   5	   7	   6	   5	   5	   5	   5	   6	   7	   5	   6	   6	   6	   6	   6	   6	   6	   5	   6	   5	   6	   5	   5	   5	   6	   5	   5	   6	   6	   5	   6	   6	   7	   6	   6	   7	   5	   7	   6	   6	   6	   5	   6	   6	   7	   6	   5	   7	   6	   6	   5	   6	   5	   5	   6	   7	 999	   6	   0	
   8	   6	   6	   5	   7	   5	   6	   5	   7	   6	   5	   7	   5	   7	   8	   5	   6	   7	   6	   6	   6	   6	   6	   8	   7	   6	   6	   5	   6	   7	   8	   6	   6	   7	   6	   7	   7	   5	   5	   6	   7	   7	   7	   6	   6	   5	   5	   5	   5	   6	   6	   7	   6	   6	   6	   7	   7	   5	   7	   6	   6	   5	   7	   6	   7	   5	   6	   7	   6	   6	   7	   5	   7	   7	   5	   5	   7	   7	   6	 999	   0	
   7	   7	   6	   6	   6	   6	   6	   6	   7	   6	   5	   5	   6	   7	   6	   5	   5	   6	   7	   6	   5	   7	   5	   6	   7	   6	   6	   6	   6	   7	   7	   6	   6	   6	   7	   6	   6	   7	   7	   5	   7	   7	   7	   7	   6	   6	   6	   5	   5	   5	   7	   7	   5	   7	   5	   7	   5	   5	   7	   6	   6	   5	   5	   7	   7	   5	   7	   6	   7	   5	   6	   6	   7	   6	   5	   6	   6	   6	   6	   6	 999	

 999	   5	   6	   6	   5	   7	   5	   6	   5	   6	   6	   6	   5	   5	   7	   7	   7	   6	   6	   7	   6	   5	   7	   5	   5	   7	   7	   7	   6	   7	   6	   5	   6	   7	   7	   5	   6	   7	   7	   7	   6	   7	   5	   7	   5	   7	   5	   6	   6	   6	   5	   6	   6	   7	   5	   6	   5	   6	   6	   5	   6	   6	   6	   7	   5	   5	   5	   5	   5	   6	   6	   7	   7	   6	   6	   7	   6	   6	   5	   6	   0	
   6	 999	   6	   7	   5	   8	   5	   6	   5	   6	   7	   6	   5	   5	   7	   7	   7	   7	   7	   7	   7	   6	   7	   6	   6	   7	   7	   7	   6	   7	   6	   5	   6	   7	   8	   5	   6	   7	   8	   7	   7	   7	   5	   7	   5	   7	   5	   7	   6	   6	   5	   6	   6	   7	   5	   6	   5	   6	   7	   5	   6	   6	   6	   7	   5	   5	   5	   5	   5	   6	   7	   8	   7	   7	   6	   8	   7	   6	   6	   5	   0	
   5	   7	 999	   7	   6	   8	   5	   6	   6	   5	   7	   5	   5	   6	   7	   7	   8	   7	   7	   7	   7	   6	   6	   6	   7	   7	   6	   7	   7	   6	   5	   6	   7	   6	   8	   5	   7	   8	   8	   8	   7	   6	   5	   8	   6	   8	   5	   7	   7	   7	   6	   7	   6	   7	   5	   6	   6	   7	   7	   6	   5	   5	   7	   7	   6	   6	   5	   7	   6	   6	   7	   8	   8	   7	   7	   8	   7	   5	   6	   5	   0	
   6	   5	   6	 999	   6	   6	   7	   6	   6	   8	   5	   7	   6	   6	   5	   7	   6	   5	   5	   7	   6	   5	   7	   5	   5	   5	   7	   7	   6	   7	   6	   6	   5	   7	   6	   6	   6	   5	   6	   5	   6	   7	   6	   5	   6	   6	   7	   5	   5	   6	   6	   5	   6	   7	   7	   6	   6	   5	   6	   6	   7	   6	   5	   7	   6	   7	   6	   6	   6	   6	   6	   6	   6	   6	   6	   6	   5	   7	   5	   7	   0	
   6	   5	   6	   5	 999	   7	   5	   6	   5	   6	   7	   6	   5	   5	   7	   7	   7	   6	   6	   7	   6	   6	   7	   6	   6	   7	   7	   7	   7	   7	   6	   5	   6	   7	   8	   6	   6	   7	   8	   7	   7	   8	   5	   7	   5	   7	   6	   7	   6	   6	   5	   6	   6	   7	   6	   6	   5	   6	   7	   5	   6	   6	   6	   7	   5	   5	   6	   5	   6	   6	   7	   8	   7	   6	   6	   8	   7	   6	   6	   6	   0	
   6	   5	   7	   5	   5	 999	   8	   6	   7	   9	   5	   8	   7	   7	   5	   7	   6	   5	   6	   7	   6	   6	   7	   6	   6	   5	   7	   7	   6	   7	   7	   7	   6	   7	   5	   7	   6	   5	   5	   5	   6	   7	   7	   5	   7	   6	   8	   5	   6	   6	   7	   6	   6	   7	   8	   7	   7	   6	   6	   7	   8	   7	   6	   7	   7	   8	   7	   7	   7	   6	   6	   5	   6	   6	   6	   5	   5	   8	   6	   8	   0	
   5	   5	   6	   5	   5	   5	 999	   6	   5	   5	   7	   6	   5	   5	   7	   7	   7	   7	   7	   7	   7	   6	   7	   6	   6	   7	   7	   7	   6	   7	   6	   5	   6	   7	   8	   5	   6	   7	   8	   7	   7	   7	   5	   7	   5	   7	   5	   7	   6	   6	   5	   6	   6	   6	   5	   5	   6	   6	   7	   5	   5	   6	   6	   6	   5	   5	   5	   6	   5	   6	   7	   8	   7	   7	   6	   8	   7	   5	   6	   5	   0	
   6	   8	   6	   8	   8	   8	   7	 999	   6	   7	   6	   6	   6	   6	   6	   6	   6	   6	   7	   5	   5	   7	   6	   6	   7	   6	   6	   6	   5	   6	   5	   6	   5	   6	   7	   6	   7	   6	   7	   6	   5	   6	   6	   6	   5	   6	   6	   6	   7	   5	   6	   6	   5	   5	   6	   5	   6	   5	   6	   5	   6	   6	   6	   5	   6	   6	   6	   7	   5	   5	   5	   6	   6	   5	   7	   7	   6	   6	   7	   7	   0	
   5	   6	   5	   6	   6	   6	   6	   6	 999	   6	   6	   6	   5	   5	   6	   7	   7	   6	   6	   7	   6	   5	   7	   5	   5	   6	   7	   7	   6	   7	   6	   5	   5	   7	   7	   5	   6	   7	   7	   7	   6	   7	   5	   6	   5	   7	   5	   6	   6	   6	   5	   6	   6	   7	   6	   6	   5	   5	   6	   5	   6	   6	   6	   7	   5	   5	   5	   5	   5	   6	   6	   7	   6	   6	   6	   7	   6	   6	   5	   6	   0	
   6	   7	   6	   6	   6	   7	   6	   6	   5	 999	   8	   5	   6	   6	   8	   7	   8	   8	   8	   8	   8	   7	   7	   7	   7	   8	   7	   7	   7	   7	   6	   6	   7	   6	   9	   6	   7	   8	   9	   8	   8	   7	   6	   8	   6	   8	   5	   8	   7	   7	   6	   7	   7	   7	   5	   6	   6	   7	   8	   6	   5	   6	   7	   7	   6	   5	   6	   6	   6	   7	   8	   9	   8	   8	   7	   9	   8	   5	   7	   5	   0	
   6	   7	   6	   7	   7	   7	   7	   7	   6	   7	 999	   7	   7	   6	   5	   7	   6	   5	   6	   6	   5	   6	   6	   6	   6	   5	   7	   6	   6	   7	   7	   6	   5	   6	   5	   7	   7	   5	   5	   5	   6	   7	   7	   5	   6	   6	   7	   5	   6	   5	   7	   5	   6	   6	   7	   6	   6	   5	   6	   6	   7	   7	   6	   6	   7	   7	   7	   6	   6	   6	   6	   5	   5	   5	   7	   6	   5	   8	   6	   8	   0	
   8	   9	   7	   9	   9	   9	   9	   6	   7	   7	   7	 999	   6	   6	   7	   7	   7	   7	   7	   7	   7	   7	   6	   6	   7	   7	   6	   6	   6	   6	   5	   6	   6	   6	   8	   5	   7	   8	   8	   8	   7	   6	   6	   7	   6	   8	   5	   7	   7	   7	   6	   6	   6	   7	   5	   5	   6	   6	   7	   6	   5	   5	   7	   6	   6	   6	   5	   7	   5	   6	   7	   8	   7	   7	   8	   8	   7	   5	   7	   6	   0	
   5	   6	   5	   6	   6	   6	   6	   6	   6	   6	   6	   8	 999	   5	   7	   7	   7	   6	   6	   6	   6	   6	   7	   6	   6	   7	   7	   7	   6	   7	   6	   5	   6	   7	   8	   5	   6	   7	   8	   7	   6	   7	   5	   7	   5	   7	   5	   7	   6	   6	   5	   6	   6	   6	   5	   5	   5	   6	   7	   5	   5	   6	   6	   6	   5	   5	   5	   6	   5	   6	   7	   8	   7	   6	   6	   8	   7	   5	   6	   6	   0	
   6	   6	   5	   6	   6	   6	   6	   6	   6	   7	   6	   8	   5	 999	   7	   7	   7	   6	   6	   7	   6	   5	   7	   5	   5	   7	   7	   7	   6	   7	   6	   5	   6	   7	   7	   5	   6	   7	   7	   7	   6	   7	   5	   7	   5	   7	   5	   6	   6	   6	   5	   6	   6	   7	   5	   6	   5	   6	   6	   5	   6	   6	   6	   7	   5	   5	   5	   5	   5	   6	   6	   7	   7	   6	   6	   7	   6	   6	   5	   6	   0	
   5	   7	   6	   6	   6	   7	   6	   6	   5	   5	   7	   7	   6	   6	 999	   7	   6	   5	   5	   7	   6	   6	   7	   6	   6	   5	   7	   7	   7	   7	   7	   6	   5	   7	   6	   7	   6	   5	   6	   5	   7	   8	   7	   5	   6	   6	   7	   5	   5	   6	   7	   5	   6	   7	   8	   6	   6	   5	   6	   6	   7	   7	   5	   7	   7	   7	   7	   6	   6	   6	   7	   5	   6	   6	   6	   5	   5	   8	   6	   8	   0	
   5	   5	   6	   5	   5	   5	   5	   7	   6	   6	   7	   9	   6	   6	   6	 999	   5	   7	   8	   5	   6	   8	   5	   7	   8	   6	   5	   5	   5	   6	   6	   7	   7	   6	   6	   6	   9	   7	   6	   7	   5	   5	   7	   7	   7	   6	   7	   6	   8	   6	   7	   7	   6	   5	   7	   6	   8	   7	   6	   7	   7	   6	   8	   5	   7	   7	   6	   8	   6	   5	   5	   6	   6	   6	   9	   7	   7	   7	   8	   7	   0	
   6	   7	   6	   6	   6	   7	   6	   6	   5	   5	   7	   7	   6	   7	   5	   6	 999	   6	   7	   5	   5	   7	   6	   6	   7	   6	   6	   5	   5	   6	   7	   7	   6	   6	   5	   7	   8	   6	   5	   6	   5	   6	   7	   6	   6	   5	   7	   6	   7	   5	   7	   6	   6	   5	   8	   6	   7	   6	   5	   7	   7	   7	   7	   5	   7	   7	   7	   7	   6	   6	   5	   6	   5	   5	   8	   6	   7	   8	   7	   8	   0	
   6	   7	   6	   7	   7	   7	   7	   5	   5	   5	   7	   7	   6	   7	   5	   7	   5	 999	   6	   6	   6	   5	   7	   5	   5	   5	   7	   7	   6	   7	   6	   6	   5	   7	   6	   6	   6	   5	   6	   5	   6	   7	   6	   5	   6	   6	   7	   5	   5	   5	   6	   5	   6	   7	   7	   6	   6	   5	   6	   6	   7	   6	   5	   7	   6	   7	   7	   6	   6	   6	   6	   6	   6	   5	   6	   6	   5	   7	   5	   7	   0	
   5	   5	   6	   5	   5	   5	   5	   7	   6	   6	   7	   9	   6	   6	   6	   5	   6	   7	 999	   8	   7	   5	   8	   6	   5	   6	   8	   8	   7	   8	   7	   6	   6	   8	   6	   6	   5	   6	   6	   5	   7	   8	   6	   5	   6	   7	   7	   6	   5	   6	   6	   6	   7	   8	   7	   7	   6	   6	   7	   6	   7	   7	   5	   8	   6	   7	   6	   6	   6	   7	   7	   6	   7	   6	   5	   6	   5	   7	   5	   7	   0	
   7	   7	   7	   7	   7	   7	   7	   6	   6	   5	   8	   7	   7	   8	   6	   6	   6	   6	   7	 999	   5	   7	   5	   6	   7	   6	   5	   5	   5	   6	   6	   6	   6	   6	   6	   7	   8	   6	   6	   7	   5	   5	   6	   7	   6	   5	   7	   6	   7	   6	   7	   6	   5	   5	   7	   6	   7	   6	   5	   6	   7	   7	   7	   5	   7	   7	   7	   8	   6	   5	   5	   6	   5	   6	   8	   6	   7	   7	   7	   7	   0	
   6	   8	   7	   8	   8	   8	   7	   5	   6	   6	   8	   6	   7	   7	   6	   7	   6	   5	   7	   5	 999	   7	   5	   6	   7	   5	   6	   6	   5	   6	   6	   6	   5	   6	   6	   6	   7	   5	   6	   6	   5	   6	   6	   6	   6	   5	   7	   5	   7	   5	   6	   6	   5	   5	   7	   6	   6	   6	   5	   6	   7	   6	   7	   5	   6	   7	   6	   7	   6	   5	   5	   6	   5	   5	   8	   6	   6	   7	   7	   7	   0	
   5	   6	   5	   6	   6	   6	   6	   6	   5	   5	   6	   8	   6	   6	   5	   6	   5	   5	   6	   6	   6	 999	   8	   6	   5	   6	   8	   8	   7	   8	   7	   5	   6	   8	   7	   6	   5	   6	   7	   6	   7	   8	   6	   6	   6	   7	   6	   6	   5	   6	   5	   6	   6	   7	   6	   6	   5	   6	   7	   6	   6	   7	   5	   7	   6	   6	   6	   5	   6	   7	   7	   7	   7	   6	   5	   7	   6	   6	   5	   7	   0	
   5	   6	   5	   6	   6	   7	   6	   6	   5	   6	   6	   7	   5	   5	   6	   6	   6	   6	   6	   7	   7	   5	 999	   7	   8	   6	   5	   5	   5	   5	   5	   7	   6	   5	   7	   6	   8	   6	   7	   7	   5	   5	   6	   7	   6	   6	   6	   6	   8	   6	   7	   7	   6	   5	   6	   6	   7	   7	   6	   6	   6	   6	   8	   5	   7	   7	   6	   8	   6	   5	   6	   7	   6	   6	   8	   7	   7	   6	   8	   7	   0	
   5	   6	   5	   6	   6	   6	   6	   6	   6	   6	   5	   7	   5	   5	   6	   6	   6	   6	   6	   7	   7	   6	   5	 999	   6	   6	   7	   7	   6	   7	   6	   5	   5	   7	   7	   6	   6	   6	   6	   6	   6	   7	   6	   6	   5	   6	   6	   6	   5	   5	   6	   5	   5	   6	   6	   5	   5	   5	   6	   5	   6	   6	   5	   6	   6	   6	   6	   6	   5	   6	   6	   6	   6	   5	   6	   7	   6	   6	   5	   7	   0	
   6	   7	   6	   7	   7	   7	   7	   7	   6	   7	   5	   6	   6	   6	   7	   7	   7	   7	   7	   8	   8	   6	   6	   5	 999	   6	   8	   8	   7	   8	   7	   5	   6	   8	   6	   6	   5	   6	   6	   6	   7	   8	   6	   6	   6	   7	   6	   6	   5	   6	   6	   6	   6	   7	   6	   6	   5	   6	   7	   6	   7	   7	   5	   7	   6	   6	   6	   5	   6	   7	   7	   6	   7	   6	   5	   7	   6	   7	   5	   7	   0	
   6	   7	   6	   6	   6	   7	   6	   6	   5	   5	   7	   7	   7	   7	   5	   6	   5	   5	   6	   5	   6	   6	   6	   7	   7	 999	   7	   6	   6	   7	   7	   6	   5	   6	   5	   7	   7	   5	   5	   5	   6	   7	   7	   5	   6	   5	   7	   5	   6	   5	   7	   5	   6	   6	   7	   6	   6	   5	   5	   6	   7	   7	   6	   6	   7	   7	   7	   6	   6	   6	   6	   5	   5	   5	   7	   5	   5	   8	   6	   8	   0	
   6	   7	   6	   7	   7	   7	   7	   7	   7	   8	   5	   7	   6	   5	   7	   7	   7	   7	   7	   8	   8	   7	   6	   6	   5	   8	 999	   5	   5	   5	   6	   7	   7	   5	   6	   6	   9	   7	   6	   7	   5	   5	   7	   7	   7	   6	   6	   7	   8	   6	   7	   7	   6	   5	   7	   6	   8	   7	   6	   7	   6	   6	   8	   5	   8	   7	   6	   8	   6	   5	   5	   7	   6	   6	   9	   7	   7	   7	   8	   7	   0	
   7	   8	   6	   8	   8	   8	   8	   6	   6	   6	   6	   6	   6	   6	   6	   7	   6	   6	   8	   7	   7	   6	   6	   6	   6	   6	   6	 999	   5	   5	   6	   7	   6	   5	   6	   6	   8	   6	   6	   7	   5	   5	   7	   7	   7	   6	   6	   6	   8	   6	   7	   7	   6	   5	   7	   6	   7	   7	   5	   7	   6	   6	   8	   5	   7	   7	   6	   8	   6	   5	   5	   6	   6	   6	   9	   7	   7	   7	   8	   7	   0	
   6	   7	   5	   7	   7	   7	   7	   6	   6	   6	   5	   6	   6	   6	   6	   7	   6	   6	   7	   7	   7	   6	   5	   6	   5	   7	   6	   5	 999	   5	   6	   6	   6	   5	   6	   6	   8	   6	   6	   6	   5	   5	   6	   6	   6	   6	   6	   6	   7	   5	   6	   6	   5	   5	   7	   6	   7	   6	   5	   6	   6	   6	   7	   5	   7	   6	   6	   7	   6	   5	   5	   6	   5	   5	   8	   6	   7	   7	   7	   7	   0	
   7	   8	   6	   8	   8	   8	   8	   5	   6	   6	   6	   5	   7	   7	   6	   8	   6	   6	   8	   6	   6	   7	   6	   7	   6	   6	   7	   5	   5	 999	   5	   7	   7	   5	   7	   6	   9	   7	   7	   7	   6	   5	   7	   7	   7	   7	   6	   7	   8	   6	   7	   7	   6	   5	   6	   6	   8	   7	   6	   7	   6	   5	   8	   5	   8	   7	   6	   8	   6	   5	   6	   7	   6	   6	   9	   7	   7	   6	   8	   7	   0	
   5	   6	   6	   6	   6	   6	   6	   7	   6	   7	   6	   8	   5	   5	   6	   6	   7	   6	   6	   8	   7	   6	   5	   5	   6	   7	   6	   7	   6	   7	 999	   6	   6	   5	   7	   5	   8	   7	   7	   7	   6	   6	   6	   7	   6	   7	   5	   6	   7	   6	   6	   6	   5	   6	   5	   5	   7	   6	   7	   6	   5	   5	   7	   6	   7	   6	   5	   7	   5	   6	   6	   7	   7	   6	   8	   8	   7	   6	   7	   6	   0	
   5	   7	   6	   6	   6	   7	   6	   6	   5	   5	   7	   7	   6	   6	   5	   6	   5	   5	   6	   6	   6	   5	   6	   6	   7	   5	   7	   6	   6	   6	   6	 999	   6	   7	   7	   5	   6	   7	   7	   7	   6	   7	   5	   7	   5	   7	   5	   6	   6	   6	   5	   6	   5	   7	   6	   6	   5	   6	   6	   5	   6	   6	   6	   7	   5	   5	   5	   6	   5	   6	   6	   7	   7	   6	   6	   7	   6	   6	   5	   6	   0	
   7	   8	   6	   8	   8	   8	   8	   5	   6	   6	   6	   6	   6	   6	   6	   7	   6	   5	   7	   6	   6	   6	   6	   6	   6	   6	   7	   5	   5	   5	   7	   6	 999	   6	   6	   6	   7	   6	   6	   6	   6	   7	   6	   6	   5	   6	   6	   5	   6	   5	   6	   5	   5	   6	   7	   5	   6	   5	   6	   6	   6	   6	   6	   6	   6	   6	   6	   6	   5	   6	   6	   6	   6	   5	   7	   6	   5	   7	   6	   7	   0	
   5	   6	   5	   6	   6	   6	   6	   6	   6	   6	   6	   8	   5	   5	   6	   6	   6	   6	   6	   7	   7	   6	   5	   5	   6	   7	   6	   6	   6	   7	   5	   6	   6	 999	   7	   6	   9	   7	   7	   7	   6	   5	   7	   7	   7	   7	   6	   6	   8	   6	   7	   7	   6	   5	   6	   6	   8	   7	   6	   7	   6	   5	   8	   5	   7	   7	   6	   8	   6	   5	   6	   7	   6	   6	   9	   7	   7	   6	   8	   7	   0	
   6	   6	   6	   6	   6	   6	   6	   6	   5	   5	   7	   8	   7	   7	   5	   5	   5	   6	   6	   6	   6	   6	   6	   7	   7	   5	   8	   7	   7	   7	   7	   5	   7	   7	 999	   8	   7	   5	   5	   5	   6	   6	   8	   5	   7	   5	   8	   6	   6	   6	   8	   6	   7	   6	   8	   7	   7	   6	   5	   7	   8	   8	   6	   6	   8	   8	   8	   7	   7	   6	   6	   5	   5	   6	   7	   5	   6	   8	   7	   9	   0	
   8	   9	   7	   9	   9	   9	   9	   6	   7	   7	   6	   5	   8	   8	   7	   9	   7	   7	   9	   7	   6	   7	   7	   7	   6	   7	   7	   6	   6	   5	   8	   7	   6	   8	   8	 999	   7	   7	   8	   7	   6	   7	   5	   7	   5	   7	   5	   7	   6	   6	   5	   6	   6	   6	   5	   5	   6	   6	   7	   5	   5	   5	   6	   6	   6	   5	   5	   6	   5	   6	   7	   8	   7	   6	   7	   8	   7	   5	   6	   5	   0	
   5	   6	   5	   6	   6	   7	   6	   6	   5	   5	   7	   7	   6	   6	   5	   6	   5	   5	   6	   6	   6	   5	   5	   6	   6	   5	   7	   6	   6	   6	   6	   5	   6	   6	   5	   7	 999	   7	   7	   6	   8	   9	   6	   6	   6	   8	   7	   7	   5	   7	   6	   6	   7	   8	   7	   7	   6	   6	   8	   6	   7	   8	   5	   8	   6	   6	   7	   5	   7	   8	   8	   7	   7	   7	   5	   7	   6	   7	   5	   6	   0	
   5	   5	   6	   5	   6	   5	   6	   7	   6	   6	   6	   8	   5	   5	   6	   6	   6	   6	   5	   7	   7	   6	   6	   6	   7	   7	   6	   7	   7	   8	   5	   6	   7	   5	   7	   8	   6	 999	   5	   5	   6	   7	   7	   5	   6	   6	   7	   5	   6	   5	   7	   6	   6	   6	   8	   7	   6	   6	   6	   7	   8	   7	   6	   6	   7	   8	   7	   6	   7	   6	   6	   5	   5	   5	   7	   5	   5	   8	   6	   8	   0	
   6	   7	   6	   7	   7	   7	   7	   7	   7	   7	   5	   6	   6	   6	   7	   7	   7	   7	   7	   8	   8	   7	   6	   6	   5	   8	   5	   6	   5	   6	   6	   7	   6	   6	   8	   6	   7	   7	 999	   5	   6	   7	   8	   5	   7	   5	   8	   5	   6	   6	   8	   6	   6	   6	   8	   7	   7	   6	   5	   7	   8	   8	   6	   6	   8	   8	   8	   7	   7	   6	   6	   5	   5	   6	   7	   5	   6	   8	   7	   9	   0	
   6	   7	   6	   7	   7	   7	   7	   7	   7	   7	   5	   7	   6	   6	   7	   7	   7	   7	   7	   8	   8	   7	   6	   6	   5	   8	   5	   6	   5	   6	   6	   7	   6	   6	   8	   7	   7	   6	   5	 999	   6	   7	   7	   5	   6	   6	   7	   5	   6	   6	   7	   6	   6	   7	   8	   7	   6	   6	   6	   7	   8	   7	   6	   7	   7	   8	   7	   6	   7	   6	   6	   5	   6	   6	   6	   5	   5	   8	   6	   8	   0	
   5	   7	   5	   7	   7	   7	   6	   6	   5	   5	   6	   7	   6	   6	   5	   6	   5	   5	   6	   6	   6	   5	   5	   6	   6	   6	   7	   6	   6	   6	   6	   5	   6	   6	   6	   7	   5	   6	   7	   7	 999	   6	   6	   6	   6	   5	   7	   6	   7	   5	   6	   6	   5	   5	   7	   6	   7	   6	   5	   6	   7	   6	   7	   5	   7	   7	   6	   7	   6	   5	   5	   6	   5	   5	   8	   6	   7	   7	   7	   7	   0	
   6	   7	   5	   7	   7	   7	   6	   5	   5	   5	   6	   7	   5	   6	   5	   6	   5	   5	   6	   6	   6	   5	   5	   5	   6	   6	   7	   6	   6	   6	   6	   5	   6	   6	   6	   7	   5	   6	   6	   7	   5	 999	   7	   7	   7	   6	   7	   7	   8	   6	   7	   7	   6	   5	   7	   6	   8	   7	   6	   7	   6	   6	   8	   5	   8	   7	   6	   8	   7	   6	   5	   7	   6	   6	   9	   7	   8	   7	   8	   7	   0	
   6	   7	   5	   7	   7	   8	   7	   6	   6	   6	   6	   6	   6	   6	   6	   7	   6	   6	   7	   7	   7	   6	   5	   6	   5	   6	   6	   5	   5	   5	   6	   6	   5	   6	   6	   6	   6	   7	   6	   6	   5	   5	 999	   7	   5	   7	   5	   7	   6	   6	   5	   6	   6	   6	   5	   5	   5	   6	   7	   5	   5	   6	   6	   6	   5	   5	   5	   6	   5	   6	   6	   7	   7	   6	   7	   8	   7	   5	   6	   6	   0	
   5	   6	   5	   6	   6	   6	   6	   6	   5	   5	   6	   7	   5	   6	   5	   6	   5	   5	   6	   6	   6	   5	   5	   5	   6	   6	   7	   6	   6	   7	   6	   5	   6	   5	   6	   7	   5	   6	   6	   6	   5	   5	   6	 999	   6	   6	   7	   5	   5	   6	   7	   5	   6	   7	   8	   6	   6	   5	   6	   7	   7	   7	   5	   7	   7	   7	   7	   6	   6	   6	   6	   5	   6	   6	   6	   5	   5	   8	   6	   8	   0	
   6	   7	   6	   7	   7	   7	   7	   5	   6	   5	   7	   6	   6	   7	   5	   7	   5	   5	   7	   5	   5	   6	   6	   6	   7	   5	   8	   6	   7	   6	   7	   5	   6	   6	   6	   6	   5	   7	   7	   7	   5	   5	   6	   6	 999	   7	   6	   6	   6	   6	   5	   5	   5	   6	   6	   5	   5	   5	   6	   5	   6	   6	   6	   6	   5	   6	   5	   6	   5	   6	   6	   7	   6	   6	   7	   7	   6	   6	   6	   6	   0	
   5	   6	   5	   6	   6	   6	   6	   6	   6	   6	   6	   8	   5	   5	   6	   6	   6	   6	   6	   7	   7	   6	   5	   5	   6	   7	   6	   6	   6	   7	   5	   6	   6	   5	   7	   8	   6	   5	   6	   6	   6	   6	   6	   5	   6	 999	   8	   5	   7	   6	   7	   6	   6	   6	   8	   7	   7	   6	   5	   7	   8	   7	   7	   6	   7	   8	   7	   7	   7	   6	   5	   5	   5	   5	   8	   6	   6	   8	   7	   8	   0	
   5	   6	   5	   6	   6	   6	   5	   7	   5	   5	   6	   8	   6	   6	   5	   5	   5	   6	   5	   6	   7	   5	   5	   6	   6	   6	   7	   7	   6	   7	   6	   5	   7	   6	   6	   8	   5	   6	   7	   7	   6	   6	   6	   5	   6	   6	 999	   7	   6	   7	   5	   6	   6	   6	   5	   5	   6	   6	   7	   5	   5	   5	   6	   6	   6	   5	   5	   6	   5	   6	   7	   8	   7	   7	   7	   8	   7	   5	   6	   5	   0	
   5	   7	   6	   6	   6	   7	   6	   6	   5	   5	   7	   7	   6	   6	   5	   6	   5	   5	   6	   6	   6	   5	   6	   6	   7	   5	   7	   6	   6	   6	   6	   5	   6	   6	   5	   7	   5	   6	   7	   7	   5	   5	   6	   5	   5	   6	   5	 999	   6	   5	   7	   5	   6	   6	   7	   6	   6	   5	   5	   6	   7	   7	   6	   6	   7	   7	   7	   6	   6	   6	   6	   5	   5	   5	   7	   6	   5	   7	   6	   8	   0	
   7	   8	   6	   8	   8	   8	   8	   5	   6	   6	   7	   6	   6	   6	   6	   7	   6	   5	   8	   6	   5	   6	   6	   6	   7	   6	   7	   6	   6	   5	   7	   6	   5	   6	   7	   6	   6	   7	   7	   7	   6	   6	   6	   6	   5	   6	   7	   6	 999	   6	   6	   5	   6	   7	   7	   6	   5	   6	   7	   6	   6	   7	   5	   7	   6	   6	   6	   5	   6	   7	   7	   6	   7	   6	   5	   6	   5	   7	   5	   7	   0	
   6	   7	   5	   7	   7	   7	   7	   6	   6	   6	   5	   7	   6	   6	   6	   7	   6	   6	   7	   7	   7	   5	   5	   5	   5	   7	   6	   5	   5	   6	   6	   6	   5	   6	   7	   7	   6	   6	   6	   6	   5	   5	   5	   5	   6	   6	   6	   6	   6	 999	   6	   5	   5	   6	   7	   6	   6	   5	   5	   6	   7	   6	   6	   6	   6	   7	   6	   6	   6	   5	   5	   6	   5	   5	   7	   6	   6	   7	   6	   7	   0	
   6	   7	   6	   7	   7	   7	   7	   7	   7	   7	   5	   7	   5	   5	   7	   7	   7	   7	   6	   8	   8	   6	   6	   5	   5	   7	   5	   6	   5	   6	   6	   7	   6	   5	   7	   7	   7	   6	   5	   5	   6	   6	   6	   6	   7	   5	   6	   7	   7	   5	 999	   6	   6	   7	   5	   6	   5	   6	   7	   5	   6	   6	   6	   7	   5	   5	   5	   6	   5	   6	   6	   7	   7	   6	   6	   8	   7	   5	   6	   6	   0	
   6	   7	   5	   7	   7	   7	   6	   6	   6	   7	   5	   7	   5	   5	   6	   6	   7	   7	   6	   8	   7	   6	   5	   5	   5	   7	   5	   6	   5	   6	   6	   7	   6	   5	   7	   7	   6	   6	   5	   5	   6	   6	   5	   6	   7	   5	   6	   7	   7	   5	   5	 999	   5	   6	   7	   6	   5	   5	   6	   6	   6	   6	   5	   6	   6	   6	   6	   6	   6	   6	   6	   6	   6	   5	   6	   6	   5	   7	   5	   7	   0	
   7	   8	   7	   7	   7	   8	   7	   6	   6	   6	   8	   6	   7	   8	   6	   7	   6	   6	   7	   5	   5	   6	   7	   7	   8	   5	   8	   7	   7	   6	   8	   6	   6	   7	   6	   6	   6	   7	   8	   8	   6	   6	   7	   6	   5	   7	   6	   6	   6	   7	   8	   8	 999	   6	   6	   5	   6	   5	   6	   5	   6	   6	   6	   6	   6	   6	   6	   7	   5	   5	   5	   6	   6	   5	   7	   7	   6	   6	   6	   7	   0	
   5	   6	   5	   6	   6	   6	   5	   7	   5	   5	   6	   8	   5	   6	   5	   5	   5	   6	   5	   6	   7	   5	   5	   5	   6	   6	   7	   7	   6	   7	   6	   5	   7	   5	   6	   8	   5	   5	   6	   6	   6	   6	   6	   5	   6	   5	   5	   5	   7	   6	   6	   6	   6	 999	   7	   6	   7	   6	   5	   6	   7	   6	   7	   5	   7	   7	   6	   8	   6	   5	   5	   6	   5	   6	   8	   6	   7	   7	   7	   7	   0	
   7	   8	   6	   8	   8	   9	   8	   6	   7	   6	   6	   6	   7	   7	   6	   8	   6	   6	   8	   7	   7	   7	   6	   7	   6	   7	   6	   5	   6	   5	   7	   6	   5	   7	   7	   6	   7	   8	   6	   6	   6	   6	   6	   7	   6	   7	   7	   6	   6	   6	   6	   6	   7	   7	 999	   6	   6	   7	   7	   6	   5	   5	   7	   7	   6	   5	   5	   6	   6	   7	   7	   8	   8	   7	   7	   8	   7	   5	   6	   5	   0	
   5	   6	   6	   5	   6	   6	   6	   7	   6	   6	   6	   8	   5	   5	   6	   6	   6	   6	   5	   7	   7	   5	   5	   5	   6	   7	   6	   7	   6	   7	   5	   6	   7	   5	   7	   8	   6	   5	   6	   6	   6	   6	   6	   5	   6	   5	   5	   6	   7	   6	   6	   6	   7	   5	   7	 999	   6	   5	   6	   5	   5	   5	   6	   6	   6	   6	   5	   7	   5	   5	   6	   7	   6	   6	   7	   7	   6	   6	   6	   6	   0	
   7	   8	   6	   8	   8	   8	   8	   5	   6	   6	   6	   5	   7	   7	   6	   8	   6	   6	   8	   6	   6	   7	   6	   6	   6	   6	   7	   5	   6	   5	   7	   6	   5	   7	   7	   5	   6	   8	   7	   7	   6	   6	   5	   6	   5	   7	   7	   6	   5	   6	   7	   6	   6	   7	   6	   7	 999	   5	   7	   5	   6	   7	   5	   7	   5	   6	   6	   5	   6	   7	   7	   7	   6	   6	   6	   7	   6	   6	   5	   6	   0	
   6	   7	   5	   7	   7	   7	   7	   5	   5	   5	   6	   7	   6	   6	   5	   7	   5	   5	   7	   6	   6	   5	   5	   5	   6	   6	   7	   5	   6	   6	   6	   5	   5	   6	   6	   7	   5	   6	   6	   6	   5	   5	   5	   5	   6	   6	   6	   5	   5	   5	   6	   6	   6	   6	   6	   6	   6	 999	   6	   6	   6	   6	   6	   6	   6	   6	   6	   6	   5	   6	   6	   6	   5	   5	   6	   6	   5	   7	   6	   7	   0	
   7	   9	   6	   8	   8	   9	   8	   5	   7	   6	   7	   5	   7	   7	   6	   8	   6	   6	   8	   6	   5	   7	   7	   7	   7	   6	   7	   6	   6	   5	   7	   6	   5	   7	   7	   5	   7	   8	   7	   7	   6	   6	   6	   7	   6	   7	   7	   6	   5	   6	   7	   7	   6	   7	   6	   7	   5	   6	 999	   6	   7	   7	   7	   5	   7	   7	   7	   7	   6	   5	   5	   5	   5	   5	   8	   6	   6	   8	   7	   8	   0	
   5	   5	   6	   5	   5	   5	   5	   7	   6	   6	   7	   9	   6	   6	   6	   5	   6	   7	   5	   7	   7	   6	   6	   6	   7	   6	   7	   8	   7	   8	   6	   6	   7	   6	   5	   9	   6	   6	   7	   7	   6	   6	   7	   6	   7	   6	   5	   6	   8	   7	   7	   6	   7	   5	   8	   6	   8	   7	   8	 999	   5	   6	   6	   6	   5	   5	   5	   6	   5	   6	   6	   7	   7	   6	   7	   7	   6	   6	   6	   6	   0	
   6	   7	   5	   7	   7	   7	   7	   6	   6	   7	   5	   7	   5	   5	   6	   6	   7	   7	   7	   8	   7	   6	   5	   5	   5	   7	   5	   6	   5	   6	   6	   7	   6	   5	   7	   7	   6	   6	   5	   5	   6	   6	   5	   6	   7	   5	   6	   7	   7	   5	   5	   5	   8	   6	   6	   6	   6	   6	   7	   7	 999	   5	   6	   6	   6	   6	   5	   7	   5	   6	   7	   8	   7	   7	   7	   8	   7	   5	   6	   5	   0	
   6	   6	   6	   6	   7	   6	   7	   7	   7	   7	   5	   7	   5	   5	   7	   7	   7	   7	   6	   8	   8	   6	   6	   5	   6	   8	   5	   6	   6	   7	   5	   7	   6	   5	   8	   7	   7	   6	   6	   5	   6	   6	   6	   6	   7	   5	   6	   7	   7	   6	   5	   5	   8	   6	   7	   6	   7	   6	   7	   7	   5	 999	   7	   6	   7	   6	   5	   7	   5	   6	   7	   8	   7	   6	   8	   8	   7	   5	   7	   6	   0	
   7	   7	   7	   7	   7	   8	   7	   6	   6	   5	   8	   6	   7	   8	   6	   7	   6	   6	   7	   5	   5	   6	   7	   7	   8	   5	   8	   7	   7	   6	   8	   6	   6	   7	   6	   6	   6	   7	   8	   8	   6	   6	   7	   6	   5	   7	   6	   6	   6	   7	   8	   8	   5	   6	   7	   7	   6	   6	   6	   7	   8	   8	 999	   7	   6	   6	   6	   5	   6	   7	   7	   6	   6	   6	   5	   6	   5	   7	   5	   7	   0	
   6	   8	   5	   7	   7	   8	   7	   5	   6	   6	   7	   6	   6	   6	   5	   7	   6	   5	   7	   6	   6	   6	   6	   6	   6	   5	   7	   5	   6	   5	   7	   6	   5	   6	   6	   6	   6	   7	   7	   7	   5	   5	   6	   6	   5	   6	   6	   6	   5	   6	   7	   6	   6	   6	   6	   6	   5	   5	   5	   7	   6	   7	   6	 999	   7	   7	   6	   8	   6	   5	   5	   6	   5	   6	   8	   6	   7	   7	   7	   7	   0	
   5	   6	   6	   6	   6	   6	   6	   6	   5	   5	   7	   8	   6	   6	   5	   5	   5	   6	   6	   6	   6	   5	   6	   6	   7	   5	   7	   6	   6	   7	   6	   5	   6	   6	   5	   8	   5	   6	   7	   7	   5	   5	   6	   5	   6	   6	   5	   5	   6	   6	   7	   6	   6	   5	   7	   6	   7	   6	   7	   6	   6	   7	   6	   6	 999	   5	   6	   5	   6	   7	   7	   8	   7	   6	   6	   8	   7	   6	   6	   6	   0	
   6	   7	   5	   7	   7	   7	   7	   6	   6	   6	   5	   7	   5	   6	   6	   6	   6	   6	   7	   7	   7	   6	   5	   5	   5	   7	   6	   5	   5	   6	   6	   6	   6	   5	   7	   7	   6	   6	   5	   5	   6	   6	   5	   6	   7	   5	   6	   6	   6	   5	   5	   5	   7	   6	   6	   6	   6	   6	   6	   7	   5	   5	   7	   6	   6	 999	   5	   6	   5	   6	   7	   8	   7	   7	   6	   8	   7	   5	   6	   5	   0	
   5	   6	   6	   6	   6	   6	   5	   7	   5	   5	   7	   8	   6	   6	   5	   5	   5	   6	   5	   6	   7	   5	   6	   6	   7	   5	   7	   7	   6	   7	   6	   5	   7	   6	   5	   8	   5	   6	   7	   7	   5	   6	   6	   5	   6	   6	   5	   5	   7	   6	   7	   6	   6	   5	   7	   6	   7	   6	   7	   5	   6	   7	   6	   6	   5	   6	 999	   6	   5	   6	   7	   8	   7	   6	   7	   8	   7	   5	   6	   5	   0	
   7	   7	   7	   7	   6	   7	   6	   6	   6	   6	   8	   7	   7	   8	   6	   6	   6	   6	   7	   5	   6	   6	   7	   7	   8	   5	   9	   7	   8	   7	   8	   6	   7	   8	   5	   7	   6	   8	   8	   9	   6	   7	   7	   7	   6	   8	   6	   6	   6	   7	   8	   8	   5	   7	   8	   7	   6	   7	   6	   6	   8	   8	   5	   6	   6	   8	   6	 999	   6	   7	   7	   7	   7	   6	   5	   7	   6	   6	   5	   6	   0	
   6	   7	   5	   7	   7	   7	   7	   7	   6	   7	   5	   7	   5	   5	   7	   7	   7	   7	   6	   8	   8	   6	   5	   5	   5	   7	   5	   6	   5	   6	   6	   7	   6	   5	   7	   7	   6	   6	   5	   5	   6	   6	   5	   6	   7	   5	   6	   7	   7	   5	   5	   5	   8	   6	   6	   6	   6	   6	   7	   7	   5	   5	   8	   6	   7	   5	   7	   8	 999	   5	   6	   7	   6	   6	   7	   7	   6	   6	   6	   6	   0	
   5	   6	   5	   6	   6	   7	   6	   6	   6	   6	   5	   7	   5	   5	   6	   6	   6	   6	   6	   7	   7	   5	   5	   5	   5	   6	   6	   6	   5	   6	   5	   6	   6	   5	   7	   7	   6	   6	   6	   6	   5	   5	   5	   5	   6	   5	   5	   6	   6	   5	   5	   5	   7	   5	   6	   5	   6	   5	   7	   6	   5	   6	   7	   6	   6	   5	   6	   7	   5	 999	   5	   6	   6	   5	   8	   6	   7	   7	   7	   7	   0	
   7	   8	   6	   8	   8	   8	   8	   5	   7	   6	   7	   5	   7	   7	   6	   8	   6	   6	   8	   6	   6	   7	   6	   7	   7	   6	   7	   5	   6	   5	   7	   6	   5	   7	   7	   5	   6	   8	   7	   7	   6	   6	   6	   7	   6	   7	   7	   6	   5	   6	   7	   6	   6	   7	   6	   7	   5	   6	   5	   8	   6	   7	   6	   5	   7	   6	   7	   6	   6	   6	 999	   6	   5	   5	   8	   6	   7	   7	   7	   8	   0	
   6	   7	   6	   7	   7	   7	   7	   7	   7	   7	   5	   7	   6	   6	   7	   7	   7	   7	   7	   8	   8	   7	   6	   6	   5	   8	   5	   6	   6	   6	   6	   7	   7	   6	   8	   7	   7	   6	   5	   5	   7	   7	   6	   7	   8	   6	   7	   7	   7	   6	   5	   5	   8	   7	   6	   6	   7	   7	   7	   7	   5	   5	   8	   7	   7	   6	   7	   9	   5	   6	   7	 999	   5	   6	   7	   5	   5	   8	   6	   9	   0	
   6	   7	   6	   7	   7	   8	   7	   5	   6	   5	   7	   6	   6	   7	   5	   7	   5	   5	   7	   5	   5	   6	   6	   6	   7	   5	   8	   6	   7	   6	   7	   5	   6	   6	   6	   6	   6	   7	   7	   7	   5	   5	   6	   6	   5	   6	   6	   5	   5	   6	   7	   7	   5	   6	   6	   6	   5	   6	   6	   7	   7	   7	   5	   5	   6	   7	   6	   6	   7	   6	   5	   8	 999	   5	   7	   5	   6	   8	   7	   8	   0	
   6	   6	   6	   6	   6	   6	   6	   6	   5	   5	   7	   7	   7	   7	   5	   6	   5	   5	   6	   5	   6	   6	   6	   7	   7	   5	   8	   6	   7	   7	   7	   5	   6	   7	   5	   7	   5	   7	   8	   8	   6	   6	   6	   6	   6	   7	   6	   5	   6	   6	   7	   7	   6	   6	   7	   6	   6	   6	   7	   6	   7	   7	   6	   6	   5	   7	   5	   5	   7	   6	   7	   8	   6	 999	   7	   6	   6	   7	   6	   7	   0	
   5	   6	   6	   6	   6	   6	   6	   7	   6	   7	   6	   8	   5	   5	   6	   6	   6	   6	   6	   7	   7	   6	   5	   5	   6	   7	   6	   7	   6	   7	   5	   6	   7	   5	   7	   8	   6	   5	   6	   6	   6	   6	   6	   6	   7	   5	   6	   6	   7	   6	   6	   6	   7	   6	   7	   5	   7	   6	   7	   6	   6	   5	   7	   7	   6	   6	   6	   8	   6	   5	   7	   6	   7	   7	 999	   7	   6	   7	   5	   7	   0	
   6	   6	   5	   6	   6	   7	   6	   6	   6	   7	   5	   7	   5	   5	   6	   6	   7	   7	   6	   8	   7	   6	   5	   5	   5	   7	   5	   6	   5	   6	   5	   6	   6	   5	   7	   7	   6	   6	   5	   5	   6	   6	   5	   6	   7	   5	   6	   6	   6	   5	   5	   5	   8	   6	   6	   5	   6	   6	   7	   6	   5	   5	   8	   6	   6	   5	   6	   8	   5	   5	   6	   5	   7	   7	   5	 999	   6	   9	   7	   9	   0	
   6	   5	   6	   5	   5	   5	   5	   8	   6	   6	   7	   9	   6	   6	   6	   5	   6	   7	   5	   7	   8	   6	   6	   6	   7	   6	   7	   8	   7	   8	   6	   6	   8	   6	   6	   9	   6	   5	   7	   7	   6	   7	   7	   6	   7	   6	   5	   6	   8	   7	   7	   6	   7	   5	   8	   5	   8	   7	   8	   5	   7	   6	   7	   7	   6	   7	   6	   7	   7	   6	   8	   7	   7	   6	   6	   6	 999	   8	   6	   8	   0	
   6	   7	   5	   7	   7	   7	   7	   6	   6	   6	   5	   7	   5	   6	   6	   6	   6	   6	   7	   7	   7	   6	   5	   5	   5	   7	   6	   5	   5	   6	   6	   6	   5	   5	   7	   7	   6	   6	   5	   6	   6	   6	   5	   5	   6	   5	   6	   6	   6	   5	   5	   5	   7	   6	   6	   6	   6	   5	   6	   7	   5	   5	   7	   6	   6	   5	   6	   8	   5	   5	   6	   6	   6	   7	   6	   5	   7	 999	   6	   5	   0	
   5	   7	   5	   7	   7	   7	   6	   6	   6	   6	   5	   7	   5	   5	   6	   6	   6	   6	   6	   7	   7	   6	   5	   5	   5	   7	   6	   6	   5	   6	   6	   6	   6	   5	   7	   7	   6	   6	   5	   5	   6	   6	   5	   5	   7	   5	   6	   6	   6	   5	   5	   5	   7	   6	   6	   6	   6	   6	   6	   6	   5	   5	   7	   6	   6	   5	   6	   8	   5	   5	   6	   6	   7	   7	   6	   5	   7	   5	 999	   7	   0	
   5	   7	   5	   7	   7	   7	   6	   6	   5	   6	   6	   7	   5	   6	   5	   6	   5	   5	   6	   6	   6	   5	   5	   5	   6	   6	   7	   6	   5	   6	   6	   5	   6	   5	   6	   7	   5	   6	   6	   6	   5	   5	   5	   5	   6	   5	   6	   5	   6	   5	   6	   6	   6	   6	   6	   6	   6	   5	   6	   6	   6	   6	   6	   5	   5	   5	   5	   7	   6	   5	   6	   6	   6	   6	   6	   6	   6	   5	   5	 999	   0	
   5	   6	   5	   6	   6	   6	   6	   6	   6	   6	   6	   8	   5	   5	   6	   6	   6	   6	   5	   7	   7	   6	   5	   5	   6	   7	   6	   7	   6	   7	   5	   6	   6	   5	   7	   8	   6	   5	   6	   6	   6	   6	   6	   5	   6	   5	   6	   6	   7	   6	   5	   5	   7	   5	   7	   5	   7	   6	   7	   6	   6	   5	   7	   6	   6	   6	   6	   8	   5	   5	   7	   6	   6	   7	   5	   5	   6	   6	   5	   5	 999	



