Results of MIP model: 
MIP objective    = 505
MIP upper bound  = 505
MIP solving time = 2.77778

------------------------------------------------------------
Results of Logic-based Benders decomposition method: 
(Initial solutions added) 
LBBD best objective   = 505
LBBD solving time     = 1.257

------------------------------------------------------------
Results of Logic-based Benders decomposition method: 
(MP gap = 1%) 
LBBD best objective   = 505
LBBD solving time     = 1.28

------------------------------------------------------------
Results of Logic-based Benders decomposition method: 
(MP gap = 0.5%) 
LBBD best objective   = 505
LBBD solving time     = 1.183

------------------------------------------------------------
Results of Logic-based Benders decomposition method: 
(MP gap = 0.1%) 
LBBD best objective   = 503
LBBD solving time     = 1.197

------------------------------------------------------------
------------------------------------------------------------
Parameters :
M = 2

N = 60

T = 377

Initial SOP of job i in N: delta_i = 
   3	   0	   8	   2	   9	   7	   1	   7	   9	   6	   7	   7	   9	   5	   2	   5	   6	   4	   5	   3	   6	   1	   9	   3	   0	   8	   4	   2	   8	   3	   4	   1	   3	   5	   6	   4	   7	   6	   5	   4	   8	   2	   9	   5	   1	   8	   7	   1	   2	   7	   5	   9	   6	   2	   3	   0	   7	   7	   4	   0	

Minimum required SOP of job i : pl_i = 
  10	  14	  15	  11	  15	  11	  14	  14	  11	  13	  11	  14	  15	  10	  10	  11	  15	  14	  15	  10	  10	  15	  13	  10	  14	  11	  11	  14	  11	  15	  15	  12	  11	  11	  14	  11	  10	  14	  13	  11	  11	  11	  10	  13	  13	  14	  15	  13	  12	  15	  14	  11	  11	  10	  11	  14	  10	  10	  12	  10	

Maximum required SOP of job i : pu_i = 
  20	  21	  20	  22	  25	  22	  24	  20	  23	  20	  20	  20	  21	  20	  24	  24	  21	  21	  20	  20	  20	  23	  21	  25	  22	  24	  20	  22	  23	  20	  21	  22	  23	  25	  24	  25	  21	  22	  22	  22	  21	  20	  24	  21	  22	  22	  21	  20	  22	  22	  21	  23	  22	  23	  21	  21	  21	  22	  20	  23	

Processing rate of job i on machine k : tau_ki = 
   2	 0.5	   2	   2	 0.5	   2	 0.5	   1	   1	   2	   1	   2	   1	 0.5	   1	 0.5	   1	   2	 0.5	   1	 0.5	   1	   2	   1	   1	 0.5	 0.5	   2	   1	   2	 0.5	   1	   2	   1	   1	 0.5	 0.5	   2	   1	   2	 0.5	   1	   1	 0.5	   2	 0.5	   2	   1	   1	   2	   2	   1	   1	 0.5	   1	 0.5	   2	 0.5	   1	   1	
 0.5	   1	   2	   2	 0.5	 0.5	   1	   2	   2	 0.5	   1	   2	 0.5	   1	 0.5	   2	 0.5	 0.5	 0.5	   1	 0.5	 0.5	 0.5	   2	   2	   1	   2	   2	 0.5	   2	   2	   2	 0.5	   2	   2	 0.5	   2	   2	 0.5	   2	 0.5	   1	 0.5	   1	   1	 0.5	   1	   1	   2	   2	   1	 0.5	   2	   1	 0.5	 0.5	   1	   1	   1	   1	


Minimum processing time of job i on machine k : tl_ki = 
 3.5	  28	 3.5	 4.5	  12	   2	  26	   7	   2	 3.5	   4	 3.5	   6	  10	   8	  12	   9	   5	  20	   7	   8	  14	   2	   7	  14	   6	  14	   6	   3	   6	  22	  11	   4	   6	   8	  14	   6	   4	   8	 3.5	   6	   9	   1	  16	   6	  12	   4	  12	  10	   4	 4.5	   2	   5	  16	   8	  28	 1.5	   6	   8	  10	
  14	  14	 3.5	 4.5	  12	   8	  13	 3.5	   1	  14	   4	 3.5	  12	   5	  16	   3	  18	  20	  20	   7	   8	  28	   8	 3.5	   7	   3	 3.5	   6	   6	   6	 5.5	 5.5	  16	   3	   4	  14	 1.5	   4	  16	 3.5	   6	   9	   2	   8	  12	  12	   8	  12	   5	   4	   9	   4	 2.5	   8	  16	  28	   3	   3	   8	  10	


Maximum processing time of job i on machine k : tu_ki = 
 8.5	  42	   6	  10	  32	 7.5	  46	  13	  14	   7	  13	 6.5	  12	  30	  22	  38	  15	 8.5	  30	  17	  28	  22	   6	  22	  22	  32	  32	  10	  15	 8.5	  34	  21	  10	  20	  18	  42	  28	   8	  17	   9	  26	  18	  15	  32	10.5	  28	   7	  19	  20	 7.5	   8	  14	  16	  42	  18	  42	   7	  30	  16	  23	
  34	  21	   6	  10	  32	  30	  23	 6.5	   7	  28	  13	 6.5	  24	  15	  44	 9.5	  30	  34	  30	  17	  28	  44	  24	  11	  11	  16	   8	  10	  30	 8.5	 8.5	10.5	  40	  10	   9	  42	   7	   8	  34	   9	  26	  18	  30	  16	  21	  28	  14	  19	  10	 7.5	  16	  28	   8	  21	  36	  42	  14	  15	  16	  23	


Setup time: s_kij = 
 999	   6	   6	   6	   6	   5	   8	   6	   7	   5	   5	   7	   6	   6	   6	   5	   5	   7	   6	   5	   6	   6	   5	   5	   7	   5	   7	   5	   5	   6	   7	   5	   7	   8	   5	   7	   6	   6	   7	   7	   5	   6	   5	   6	   5	   6	   7	   5	   5	   7	   6	   7	   6	   5	   5	   8	   6	   5	   6	   6	   0	
   7	 999	   8	   5	   7	   5	   8	   6	   7	   5	   5	   7	   6	   5	   6	   6	   6	   7	   7	   6	   6	   6	   6	   6	   7	   6	   7	   5	   6	   6	   7	   6	   7	   8	   5	   6	   5	   6	   7	   6	   5	   5	   6	   5	   5	   7	   6	   6	   7	   7	   6	   7	   7	   5	   6	   7	   6	   6	   6	   5	   0	
   9	   6	 999	   8	   5	   7	   6	   7	   6	   7	   7	   7	   8	   8	   6	   6	   6	   6	   6	   6	   7	   6	   6	   6	   8	   7	   6	   7	   6	   8	   6	   6	   6	   7	   7	   9	   8	   7	   8	   9	   7	   8	   6	   8	   7	   5	   8	   6	   5	   6	   6	   7	   5	   7	   6	   6	   6	   7	   7	   8	   0	
   7	   5	   6	 999	   7	   6	   7	   6	   7	   6	   6	   7	   6	   5	   7	   7	   7	   7	   8	   7	   5	   7	   7	   7	   6	   6	   7	   6	   7	   6	   7	   7	   7	   7	   6	   5	   5	   6	   7	   5	   6	   5	   7	   5	   6	   8	   6	   7	   7	   7	   7	   6	   8	   6	   7	   7	   7	   7	   5	   5	   0	
   7	   8	   7	   8	 999	   7	   6	   6	   6	   6	   7	   6	   7	   7	   5	   6	   6	   5	   6	   6	   7	   5	   6	   7	   7	   6	   5	   7	   6	   7	   5	   6	   5	   6	   6	   8	   7	   6	   7	   8	   6	   7	   6	   7	   6	   5	   7	   6	   5	   6	   5	   6	   5	   6	   6	   6	   5	   7	   6	   7	   0	
   8	   6	   5	   6	   6	 999	   9	   7	   8	   6	   5	   8	   7	   6	   7	   5	   6	   8	   6	   6	   6	   7	   6	   6	   8	   6	   8	   5	   6	   7	   8	   6	   8	   9	   5	   7	   6	   7	   8	   7	   5	   6	   5	   5	   6	   6	   7	   6	   6	   8	   7	   8	   6	   6	   6	   8	   7	   5	   7	   6	   0	
   5	   6	   8	   7	   7	   8	 999	   6	   5	   7	   8	   5	   6	   7	   6	   8	   8	   5	   7	   7	   7	   7	   8	   8	   6	   7	   5	   8	   8	   6	   5	   7	   5	   5	   8	   7	   7	   6	   6	   7	   8	   7	   8	   8	   8	   7	   6	   7	   7	   5	   6	   5	   7	   7	   7	   5	   6	   8	   6	   7	   0	
   9	   7	   5	   6	   7	   5	   8	 999	   6	   5	   6	   6	   6	   6	   5	   6	   6	   6	   6	   5	   5	   5	   6	   6	   6	   5	   6	   6	   6	   6	   6	   5	   6	   7	   6	   7	   6	   5	   6	   7	   6	   6	   6	   6	   6	   6	   6	   5	   6	   6	   5	   6	   6	   5	   5	   6	   5	   6	   5	   6	   0	
   7	   7	   6	   7	   6	   5	   7	   6	 999	   6	   8	   5	   6	   6	   6	   7	   7	   5	   7	   7	   6	   6	   7	   8	   6	   7	   5	   8	   7	   6	   5	   7	   5	   5	   7	   7	   7	   6	   6	   7	   7	   7	   7	   7	   7	   6	   6	   7	   6	   5	   5	   5	   6	   7	   7	   5	   6	   8	   6	   7	   0	
   5	   6	   8	   6	   7	   7	   5	   8	   7	 999	   6	   7	   6	   5	   5	   6	   5	   6	   6	   5	   5	   5	   6	   6	   6	   5	   6	   6	   6	   6	   6	   5	   6	   7	   6	   7	   6	   5	   6	   6	   5	   6	   5	   5	   5	   6	   6	   5	   6	   7	   6	   6	   6	   5	   5	   7	   5	   6	   5	   6	   0	
   7	   6	   7	   6	   7	   6	   6	   7	   6	   6	 999	   8	   7	   6	   7	   6	   6	   7	   7	   6	   6	   6	   6	   6	   8	   5	   7	   5	   6	   7	   7	   6	   8	   8	   5	   7	   5	   7	   8	   6	   5	   6	   6	   5	   5	   7	   7	   6	   6	   8	   7	   8	   7	   6	   6	   8	   7	   6	   7	   5	   0	
   7	   7	   7	   7	   6	   6	   6	   7	   5	   6	   6	 999	   6	   7	   6	   8	   7	   5	   7	   7	   6	   6	   8	   8	   6	   7	   5	   8	   8	   6	   5	   7	   5	   5	   8	   7	   7	   6	   6	   7	   7	   7	   8	   7	   7	   7	   6	   7	   7	   5	   6	   5	   7	   7	   7	   5	   6	   8	   6	   7	   0	
   5	   6	   8	   6	   7	   7	   5	   8	   7	   5	   6	   6	 999	   5	   6	   7	   7	   6	   7	   6	   5	   7	   7	   7	   5	   6	   6	   7	   7	   5	   6	   6	   6	   6	   7	   5	   6	   5	   5	   5	   6	   6	   6	   6	   6	   7	   5	   6	   7	   6	   7	   5	   7	   6	   6	   6	   6	   7	   5	   6	   0	
   7	   7	   6	   7	   6	   6	   7	   6	   5	   6	   5	   5	   6	 999	   6	   6	   6	   6	   7	   6	   5	   6	   6	   6	   6	   6	   6	   6	   7	   6	   6	   6	   6	   7	   6	   6	   5	   5	   6	   6	   5	   5	   6	   5	   5	   7	   6	   6	   7	   7	   6	   6	   7	   5	   6	   7	   6	   6	   5	   5	   0	
   6	   6	   7	   6	   8	   7	   6	   8	   7	   6	   6	   7	   5	   6	 999	   6	   6	   5	   6	   6	   6	   5	   6	   7	   6	   6	   5	   7	   6	   7	   5	   6	   5	   6	   6	   7	   7	   5	   6	   7	   6	   7	   6	   6	   6	   5	   6	   6	   5	   6	   5	   6	   5	   6	   6	   6	   5	   7	   6	   6	   0	
   6	   7	   8	   7	   5	   7	   6	   8	   6	   6	   6	   5	   6	   6	   7	 999	   5	   7	   6	   5	   6	   6	   5	   5	   7	   5	   7	   5	   5	   7	   7	   5	   7	   8	   6	   7	   7	   6	   7	   7	   6	   7	   5	   6	   5	   5	   7	   5	   6	   8	   7	   7	   6	   5	   5	   8	   6	   5	   6	   6	   0	
   7	   7	   6	   7	   6	   5	   7	   6	   5	   6	   5	   5	   6	   5	   6	   6	 999	   7	   5	   5	   6	   6	   5	   5	   7	   5	   7	   6	   5	   7	   7	   5	   7	   8	   6	   7	   7	   6	   7	   7	   6	   7	   5	   6	   6	   5	   7	   5	   5	   7	   6	   7	   5	   6	   5	   7	   6	   5	   6	   6	   0	
   7	   7	   7	   7	   6	   6	   6	   7	   5	   6	   5	   5	   6	   5	   6	   6	   5	 999	   7	   6	   6	   6	   7	   7	   6	   7	   5	   7	   7	   6	   5	   6	   5	   5	   7	   7	   7	   5	   6	   7	   7	   7	   7	   7	   7	   6	   6	   6	   6	   5	   5	   5	   6	   6	   6	   5	   5	   7	   6	   7	   0	
   5	   7	   9	   7	   6	   8	   5	   9	   7	   5	   7	   6	   5	   7	   6	   6	   7	   7	 999	   6	   7	   5	   5	   5	   7	   6	   7	   6	   5	   8	   7	   6	   7	   8	   7	   8	   8	   6	   7	   8	   7	   8	   6	   7	   7	   5	   7	   6	   5	   7	   6	   7	   5	   7	   6	   7	   6	   6	   7	   7	   0	
   5	   7	   9	   7	   7	   8	   5	   9	   8	   6	   7	   7	   6	   7	   6	   6	   7	   7	   5	 999	   6	   5	   5	   6	   7	   5	   6	   5	   5	   6	   6	   5	   6	   7	   6	   7	   6	   6	   7	   7	   6	   7	   5	   6	   5	   5	   6	   5	   5	   7	   6	   7	   6	   5	   5	   7	   6	   6	   6	   6	   0	
   5	   6	   8	   7	   7	   7	   5	   8	   7	   5	   6	   6	   5	   6	   5	   7	   7	   6	   5	   5	 999	   6	   6	   6	   6	   5	   6	   6	   6	   5	   6	   6	   6	   7	   6	   6	   5	   5	   6	   6	   6	   5	   6	   6	   5	   7	   5	   6	   6	   6	   6	   6	   7	   5	   6	   6	   6	   6	   5	   5	   0	
   7	   6	   7	   6	   6	   6	   6	   7	   5	   6	   5	   5	   6	   5	   6	   6	   5	   5	   6	   7	   6	 999	   6	   6	   6	   5	   6	   6	   6	   7	   6	   5	   6	   7	   6	   7	   7	   6	   6	   7	   6	   7	   6	   6	   6	   5	   7	   5	   5	   6	   5	   6	   5	   6	   5	   6	   5	   6	   6	   6	   0	
   9	   7	   5	   7	   7	   5	   8	   5	   6	   8	   6	   7	   8	   6	   7	   7	   6	   6	   8	   9	   8	   7	 999	   5	   7	   5	   7	   6	   5	   7	   7	   5	   7	   8	   6	   8	   7	   6	   7	   7	   6	   7	   5	   6	   6	   6	   7	   5	   6	   8	   7	   7	   6	   6	   5	   8	   6	   5	   6	   6	   0	
   7	   5	   6	   5	   8	   6	   6	   7	   7	   6	   6	   7	   6	   7	   5	   7	   7	   7	   7	   7	   6	   6	   7	 999	   8	   5	   7	   6	   5	   7	   7	   6	   7	   8	   6	   7	   7	   7	   8	   7	   6	   7	   5	   6	   6	   6	   7	   5	   6	   8	   7	   8	   6	   6	   5	   8	   7	   5	   6	   6	   0	
   6	   6	   7	   6	   7	   6	   6	   7	   6	   5	   5	   5	   5	   5	   6	   6	   6	   5	   6	   6	   6	   5	   7	   6	 999	   7	   6	   7	   7	   5	   6	   6	   6	   5	   7	   6	   7	   6	   5	   6	   7	   7	   7	   7	   7	   7	   5	   7	   7	   6	   6	   5	   7	   7	   7	   6	   6	   8	   6	   7	   0	
   8	   6	   5	   6	   7	   5	   8	   5	   5	   7	   6	   6	   7	   6	   7	   7	   5	   6	   8	   8	   7	   6	   5	   6	   6	 999	   7	   5	   5	   6	   6	   5	   7	   7	   5	   7	   6	   6	   7	   7	   5	   6	   5	   6	   5	   6	   6	   5	   6	   7	   6	   7	   6	   5	   5	   7	   6	   5	   6	   6	   0	
   6	   5	   7	   6	   8	   7	   6	   7	   6	   6	   5	   6	   5	   6	   5	   7	   6	   6	   6	   6	   5	   6	   7	   5	   5	   7	 999	   7	   7	   6	   5	   6	   5	   5	   7	   7	   7	   5	   6	   7	   7	   7	   7	   7	   7	   6	   6	   6	   6	   5	   5	   5	   6	   6	   6	   5	   5	   7	   6	   7	   0	
   7	   5	   7	   5	   8	   6	   6	   7	   7	   6	   6	   7	   6	   7	   5	   8	   7	   7	   7	   7	   6	   7	   7	   5	   6	   6	   5	 999	   6	   7	   7	   6	   7	   8	   5	   6	   6	   6	   8	   6	   5	   6	   5	   5	   5	   6	   7	   5	   6	   8	   7	   7	   6	   5	   5	   8	   7	   5	   6	   5	   0	
   7	   8	   7	   8	   5	   7	   7	   7	   6	   7	   7	   6	   7	   6	   8	   5	   6	   6	   7	   7	   7	   7	   6	   8	   7	   7	   8	   9	 999	   7	   7	   5	   7	   8	   6	   8	   7	   6	   7	   8	   6	   7	   5	   6	   6	   5	   7	   5	   5	   8	   7	   7	   5	   6	   5	   8	   6	   5	   6	   7	   0	
   7	   7	   6	   7	   5	   6	   7	   6	   5	   6	   6	   5	   6	   5	   7	   6	   5	   5	   7	   7	   7	   5	   6	   7	   6	   6	   7	   7	   6	 999	   7	   6	   6	   6	   7	   5	   6	   6	   5	   5	   6	   6	   7	   6	   6	   7	   5	   6	   7	   7	   7	   6	   7	   6	   6	   6	   6	   7	   5	   6	   0	
   7	   7	   6	   7	   6	   6	   6	   7	   5	   6	   5	   5	   6	   5	   6	   6	   5	   5	   7	   7	   6	   5	   6	   7	   5	   6	   6	   7	   6	   5	 999	   6	   5	   6	   7	   7	   7	   5	   6	   7	   7	   7	   7	   7	   7	   6	   6	   6	   6	   5	   5	   6	   6	   6	   6	   5	   5	   7	   6	   6	   0	
   7	   7	   6	   7	   5	   6	   7	   6	   5	   6	   6	   5	   6	   5	   7	   6	   5	   5	   7	   7	   7	   6	   6	   7	   6	   6	   7	   8	   5	   5	   5	 999	   6	   7	   6	   7	   6	   5	   7	   7	   6	   7	   5	   6	   5	   5	   6	   5	   5	   7	   6	   6	   6	   5	   5	   7	   6	   6	   6	   6	   0	
   5	   6	   8	   7	   6	   7	   5	   8	   7	   5	   6	   6	   5	   6	   6	   6	   7	   6	   5	   5	   5	   6	   8	   6	   6	   7	   6	   6	   7	   7	   6	   7	 999	   5	   7	   7	   7	   5	   6	   7	   7	   7	   7	   7	   7	   6	   6	   7	   6	   5	   5	   5	   6	   6	   7	   5	   5	   8	   6	   7	   0	
   6	   5	   7	   6	   8	   7	   6	   7	   6	   6	   5	   7	   5	   6	   5	   7	   6	   6	   6	   6	   5	   6	   7	   5	   6	   7	   5	   5	   8	   7	   6	   7	   6	 999	   8	   7	   8	   6	   5	   7	   8	   7	   8	   8	   8	   7	   6	   7	   7	   5	   6	   5	   7	   7	   7	   5	   6	   8	   6	   7	   0	
   7	   8	   6	   8	   5	   6	   7	   6	   6	   6	   7	   5	   7	   6	   8	   6	   6	   6	   7	   7	   7	   6	   6	   8	   6	   6	   7	   8	   5	   5	   6	   5	   6	   7	 999	   6	   5	   6	   7	   6	   5	   6	   6	   5	   5	   7	   7	   6	   6	   8	   7	   7	   7	   5	   6	   8	   6	   6	   6	   5	   0	
   7	   7	   6	   7	   6	   5	   7	   6	   5	   6	   6	   5	   6	   5	   7	   6	   5	   5	   7	   7	   6	   5	   6	   7	   5	   6	   6	   7	   6	   5	   5	   5	   7	   7	   5	 999	   6	   6	   6	   5	   6	   6	   7	   6	   6	   8	   5	   7	   8	   7	   8	   6	   8	   6	   7	   7	   7	   7	   6	   6	   0	
   8	   7	   6	   7	   6	   5	   7	   6	   5	   7	   6	   6	   7	   5	   7	   7	   5	   6	   8	   8	   7	   6	   5	   7	   6	   5	   6	   7	   6	   5	   5	   5	   7	   7	   5	   5	 999	   6	   7	   6	   5	   5	   6	   5	   6	   7	   6	   6	   7	   7	   7	   7	   7	   6	   7	   7	   6	   6	   6	   5	   0	
   8	   6	   5	   6	   7	   5	   8	   5	   6	   7	   6	   6	   7	   6	   7	   7	   6	   6	   8	   8	   8	   6	   6	   6	   7	   5	   7	   6	   7	   6	   6	   6	   8	   7	   7	   6	   6	 999	   6	   6	   6	   6	   6	   6	   6	   6	   5	   6	   6	   6	   6	   6	   6	   6	   6	   6	   5	   7	   5	   6	   0	
   8	   7	   6	   7	   6	   5	   7	   6	   5	   7	   6	   6	   7	   5	   7	   6	   5	   5	   7	   8	   7	   5	   6	   7	   6	   5	   6	   7	   6	   5	   5	   5	   7	   7	   5	   5	   5	   6	 999	   6	   7	   7	   7	   7	   7	   7	   5	   7	   7	   6	   6	   5	   7	   7	   7	   6	   6	   8	   6	   7	   0	
   5	   6	   8	   7	   6	   8	   5	   8	   7	   5	   6	   6	   5	   7	   6	   6	   7	   6	   5	   5	   6	   6	   8	   6	   6	   8	   6	   7	   6	   7	   6	   7	   5	   6	   7	   7	   7	   8	   7	 999	   6	   5	   7	   6	   6	   8	   5	   7	   8	   7	   7	   6	   8	   6	   7	   7	   7	   7	   6	   5	   0	
   8	   8	   6	   8	   6	   6	   7	   6	   6	   7	   7	   6	   7	   6	   8	   7	   6	   6	   8	   8	   7	   6	   6	   8	   6	   6	   7	   8	   6	   5	   6	   5	   7	   7	   5	   5	   5	   7	   5	   7	 999	   6	   6	   5	   5	   6	   7	   6	   6	   7	   6	   7	   7	   5	   6	   7	   6	   6	   6	   5	   0	
   6	   7	   7	   7	   6	   7	   6	   7	   6	   6	   6	   5	   6	   6	   7	   5	   6	   5	   6	   6	   6	   5	   7	   7	   6	   7	   7	   7	   6	   6	   5	   6	   5	   7	   6	   6	   6	   7	   6	   6	   6	 999	   7	   5	   6	   8	   6	   7	   7	   7	   7	   7	   8	   6	   7	   7	   7	   7	   6	   5	   0	
   7	   5	   6	   5	   8	   6	   7	   6	   6	   7	   5	   6	   7	   6	   6	   7	   6	   6	   7	   8	   7	   6	   6	   5	   6	   5	   6	   5	   8	   7	   6	   7	   7	   6	   7	   6	   6	   5	   6	   7	   7	   7	 999	   6	   5	   5	   7	   5	   5	   8	   7	   7	   6	   5	   5	   8	   6	   5	   6	   6	   0	
   6	   6	   8	   6	   6	   7	   5	   8	   6	   5	   5	   5	   6	   6	   6	   5	   6	   5	   6	   6	   6	   5	   7	   6	   5	   7	   6	   7	   6	   6	   6	   6	   5	   6	   6	   6	   6	   7	   6	   5	   6	   5	   6	 999	   5	   7	   7	   6	   7	   7	   6	   7	   7	   5	   6	   8	   6	   6	   6	   5	   0	
   8	   7	   5	   7	   6	   5	   8	   5	   5	   7	   6	   6	   7	   5	   7	   7	   5	   6	   8	   8	   7	   6	   5	   7	   6	   6	   7	   7	   6	   5	   6	   5	   7	   7	   5	   5	   5	   6	   5	   7	   5	   6	   7	   7	 999	   6	   6	   5	   6	   7	   6	   7	   6	   5	   5	   7	   6	   5	   6	   5	   0	
   9	   7	   5	   6	   7	   5	   8	   5	   6	   8	   7	   7	   8	   6	   8	   8	   6	   7	   9	   9	   8	   7	   5	   7	   7	   5	   7	   7	   7	   6	   7	   6	   8	   7	   6	   6	   6	   5	   6	   8	   6	   7	   6	   8	   6	 999	   7	   5	   5	   7	   6	   6	   5	   6	   5	   7	   5	   6	   7	   7	   0	
   5	   7	   8	   7	   7	   8	   5	   9	   7	   5	   6	   6	   5	   7	   6	   6	   7	   6	   5	   5	   5	   6	   8	   6	   6	   8	   6	   6	   7	   7	   7	   7	   5	   6	   7	   7	   7	   8	   7	   5	   7	   6	   7	   5	   8	   9	 999	   6	   7	   6	   7	   5	   7	   6	   6	   6	   6	   7	   5	   6	   0	
   5	   6	   8	   7	   7	   8	   5	   8	   7	   5	   6	   6	   5	   7	   5	   7	   7	   6	   5	   5	   5	   6	   8	   6	   6	   8	   6	   6	   8	   7	   6	   7	   5	   6	   7	   7	   7	   8	   7	   6	   7	   6	   7	   6	   7	   8	   5	 999	   5	   7	   6	   7	   6	   5	   5	   7	   6	   6	   6	   6	   0	
   6	   6	   7	   6	   8	   7	   5	   8	   6	   6	   5	   7	   5	   6	   5	   7	   6	   6	   6	   6	   5	   6	   7	   5	   6	   7	   5	   5	   8	   7	   6	   7	   6	   5	   7	   7	   6	   7	   6	   6	   7	   7	   6	   6	   7	   8	   6	   5	 999	   7	   6	   6	   5	   6	   5	   7	   5	   6	   6	   7	   0	
   9	   7	   5	   6	   7	   5	   9	   5	   6	   8	   7	   7	   8	   6	   8	   8	   6	   7	   9	   9	   8	   7	   5	   7	   7	   5	   7	   7	   7	   6	   7	   6	   8	   7	   6	   6	   6	   5	   6	   8	   6	   7	   6	   8	   6	   5	   9	   8	   8	 999	   6	   6	   7	   7	   7	   5	   6	   8	   6	   7	   0	
   8	   7	   6	   7	   6	   5	   7	   6	   5	   7	   6	   6	   7	   5	   7	   6	   5	   5	   7	   8	   7	   5	   6	   7	   6	   6	   6	   7	   6	   5	   5	   5	   7	   7	   5	   5	   5	   6	   5	   7	   5	   6	   7	   6	   5	   6	   7	   7	   7	   6	 999	   6	   6	   6	   6	   6	   5	   7	   6	   6	   0	
   6	   7	   8	   7	   6	   7	   6	   8	   7	   6	   6	   6	   6	   6	   7	   5	   6	   6	   6	   6	   7	   6	   8	   7	   6	   7	   7	   8	   6	   6	   6	   6	   6	   7	   6	   6	   7	   7	   7	   6	   7	   5	   7	   5	   7	   8	   6	   7	   7	   8	   7	 999	   6	   7	   7	   5	   5	   8	   6	   7	   0	
   7	   7	   6	   7	   6	   5	   7	   6	   5	   6	   6	   5	   6	   5	   7	   6	   5	   5	   7	   7	   7	   5	   6	   7	   6	   5	   6	   7	   6	   5	   5	   5	   7	   7	   5	   5	   5	   6	   5	   7	   5	   6	   6	   6	   5	   6	   7	   7	   6	   6	   5	   6	 999	   6	   5	   7	   6	   6	   7	   7	   0	
   8	   6	   6	   5	   7	   5	   8	   6	   6	   7	   6	   6	   7	   6	   7	   7	   6	   6	   8	   8	   7	   6	   6	   6	   6	   5	   7	   6	   7	   6	   6	   7	   7	   7	   7	   6	   6	   5	   6	   8	   7	   7	   5	   7	   6	   5	   8	   8	   7	   5	   6	   7	   6	 999	   5	   7	   6	   6	   5	   5	   0	
   5	   6	   8	   7	   6	   8	   5	   8	   7	   5	   6	   6	   5	   7	   6	   6	   7	   6	   5	   5	   6	   6	   8	   6	   6	   8	   6	   7	   6	   7	   6	   7	   5	   6	   7	   7	   7	   8	   7	   5	   7	   6	   7	   5	   7	   8	   5	   6	   6	   8	   7	   6	   7	   8	 999	   7	   6	   6	   6	   6	   0	
   7	   8	   7	   8	   5	   7	   7	   7	   6	   7	   7	   6	   7	   6	   8	   5	   6	   6	   7	   7	   7	   6	   6	   8	   7	   7	   8	   8	   5	   6	   6	   5	   7	   8	   5	   6	   6	   7	   6	   6	   6	   6	   8	   6	   6	   7	   7	   7	   8	   7	   6	   6	   6	   7	   6	 999	   6	   8	   6	   7	   0	
   9	   7	   5	   6	   7	   5	   9	   5	   6	   8	   7	   7	   8	   7	   8	   8	   6	   7	   9	   9	   8	   7	   5	   7	   7	   5	   8	   7	   7	   6	   7	   6	   8	   7	   6	   6	   6	   5	   6	   9	   6	   8	   6	   8	   6	   5	   9	   9	   8	   5	   6	   8	   6	   5	   9	   7	 999	   7	   6	   6	   0	
   6	   7	   8	   7	   6	   7	   5	   8	   6	   5	   6	   6	   6	   6	   7	   5	   6	   6	   5	   6	   6	   6	   8	   7	   5	   7	   6	   7	   6	   6	   6	   6	   5	   7	   6	   6	   7	   7	   7	   5	   7	   5	   6	   5	   7	   8	   5	   6	   6	   8	   7	   5	   6	   7	   5	   6	   8	 999	   7	   6	   0	
   7	   7	   7	   7	   6	   6	   6	   7	   5	   6	   6	   5	   6	   5	   7	   6	   5	   5	   7	   7	   6	   5	   6	   7	   6	   6	   6	   7	   6	   5	   5	   5	   6	   7	   5	   5	   5	   6	   5	   6	   5	   5	   7	   5	   6	   7	   6	   6	   7	   7	   5	   6	   5	   6	   6	   6	   7	   6	 999	   6	   0	
   8	   7	   5	   7	   6	   5	   8	   5	   5	   7	   6	   6	   7	   6	   7	   7	   5	   6	   8	   8	   8	   6	   5	   7	   7	   5	   7	   7	   6	   5	   6	   6	   8	   7	   6	   6	   5	   6	   5	   8	   5	   7	   6	   7	   5	   5	   8	   8	   7	   5	   5	   7	   6	   6	   8	   6	   5	   7	   6	 999	   0	
   6	   5	   7	   6	   7	   7	   6	   7	   6	   5	   5	   6	   5	   6	   5	   7	   6	   6	   6	   6	   5	   6	   7	   5	   5	   7	   5	   5	   8	   6	   6	   7	   5	   5	   7	   6	   6	   7	   6	   6	   7	   6	   6	   6	   6	   7	   6	   6	   5	   7	   6	   7	   6	   7	   6	   7	   7	   6	   6	   7	 999	

 999	   7	   7	   7	   7	   7	   6	   6	   5	   7	   6	   6	   6	   7	   7	   8	   8	   5	   7	   6	   5	   7	   7	   6	   6	   6	   6	   7	   6	   8	   5	   7	   5	   7	   5	   6	   5	   6	   7	   7	   5	   7	   6	   7	   5	   6	   6	   6	   7	   7	   7	   8	   5	   6	   6	   8	   7	   6	   7	   6	   0	
   7	 999	   6	   5	   5	   7	   6	   5	   7	   7	   6	   6	   6	   5	   7	   5	   5	   6	   5	   8	   6	   6	   5	   7	   5	   6	   7	   6	   6	   7	   8	   5	   7	   6	   6	   6	   7	   6	   5	   5	   7	   5	   7	   6	   6	   7	   5	   7	   5	   6	   5	   7	   8	   7	   7	   5	   6	   6	   6	   6	   0	
   7	   6	 999	   5	   6	   7	   6	   6	   6	   6	   5	   6	   6	   5	   7	   6	   6	   6	   5	   7	   6	   5	   5	   7	   7	   5	   7	   5	   7	   6	   7	   6	   6	   6	   7	   6	   7	   5	   6	   5	   6	   7	   6	   5	   6	   7	   6	   7	   5	   5	   6	   6	   7	   6	   7	   5	   5	   5	   6	   5	   0	
   6	   6	   6	 999	   6	   7	   6	   5	   7	   6	   6	   6	   6	   5	   7	   5	   5	   6	   5	   8	   6	   6	   5	   7	   6	   5	   7	   5	   6	   7	   7	   6	   6	   6	   6	   6	   6	   6	   5	   5	   7	   6	   6	   6	   6	   7	   5	   7	   5	   6	   5	   6	   7	   7	   7	   5	   6	   5	   6	   5	   0	
   7	   5	   6	   6	 999	   7	   5	   5	   7	   7	   6	   6	   6	   6	   7	   6	   5	   6	   6	   8	   6	   7	   6	   7	   5	   7	   7	   7	   6	   8	   7	   5	   6	   7	   6	   6	   6	   6	   5	   6	   7	   5	   6	   7	   6	   7	   5	   7	   6	   7	   5	   8	   8	   7	   7	   6	   7	   6	   7	   6	   0	
   9	   7	   6	   8	   6	 999	   7	   7	   6	   6	   6	   6	   6	   7	   5	   8	   8	   6	   7	   6	   6	   6	   7	   5	   7	   6	   5	   7	   7	   6	   6	   7	   6	   6	   7	   6	   7	   6	   7	   8	   7	   7	   6	   7	   6	   5	   6	   6	   8	   6	   7	   6	   6	   5	   5	   8	   7	   6	   6	   6	   0	
   6	   6	   6	   5	   6	   7	 999	   5	   6	   7	   6	   6	   5	   6	   7	   6	   6	   5	   6	   7	   5	   7	   5	   6	   5	   6	   6	   7	   5	   8	   6	   5	   5	   7	   5	   6	   6	   6	   6	   6	   6	   5	   6	   7	   5	   6	   5	   6	   6	   7	   5	   7	   7	   6	   6	   6	   7	   6	   7	   6	   0	
   7	   7	   6	   6	   7	   6	   6	 999	   6	   7	   5	   5	   5	   5	   7	   6	   6	   5	   5	   7	   6	   6	   5	   7	   5	   6	   6	   6	   5	   7	   7	   5	   6	   6	   6	   5	   6	   5	   5	   6	   6	   5	   6	   6	   5	   6	   5	   6	   6	   6	   5	   7	   7	   6	   6	   6	   6	   6	   6	   5	   0	
   6	   8	   7	   7	   8	   7	   7	   6	 999	   7	   5	   6	   5	   6	   6	   8	   7	   5	   6	   6	   5	   6	   6	   5	   6	   6	   5	   7	   5	   7	   5	   6	   5	   6	   5	   5	   5	   6	   7	   7	   5	   6	   5	   6	   5	   6	   6	   5	   7	   6	   7	   7	   5	   5	   5	   7	   7	   6	   6	   6	   0	
   6	   7	   6	   6	   7	   7	   6	   5	   5	 999	   6	   6	   7	   6	   6	   7	   7	   7	   6	   6	   7	   5	   6	   6	   7	   5	   6	   6	   7	   5	   6	   7	   7	   5	   8	   6	   8	   6	   7	   7	   7	   7	   6	   6	   7	   6	   6	   6	   6	   5	   7	   5	   6	   6	   6	   7	   6	   5	   5	   6	   0	
   7	   8	   6	   6	   7	   6	   7	   5	   5	   5	 999	   5	   5	   5	   6	   7	   7	   5	   5	   6	   5	   5	   5	   6	   6	   5	   6	   6	   6	   7	   6	   6	   5	   6	   6	   5	   6	   5	   6	   6	   6	   6	   5	   5	   5	   6	   5	   6	   6	   5	   6	   6	   6	   5	   6	   6	   6	   5	   6	   5	   0	
   5	   6	   7	   5	   7	   8	   5	   7	   7	   6	   7	 999	   6	   5	   6	   7	   7	   6	   6	   6	   6	   5	   6	   6	   6	   5	   6	   6	   6	   6	   6	   6	   6	   5	   7	   5	   6	   5	   6	   6	   6	   6	   5	   6	   5	   6	   5	   6	   6	   5	   6	   6	   6	   5	   6	   7	   6	   5	   5	   5	   0	
   6	   5	   5	   6	   5	   7	   5	   7	   8	   7	   7	   6	 999	   5	   6	   7	   7	   5	   6	   6	   5	   6	   6	   6	   5	   6	   6	   6	   5	   7	   6	   6	   5	   6	   6	   5	   5	   5	   6	   6	   5	   6	   5	   6	   5	   6	   5	   6	   6	   6	   6	   7	   6	   5	   6	   7	   7	   6	   6	   5	   0	
   6	   6	   6	   5	   6	   7	   5	   6	   6	   6	   6	   5	   6	 999	   7	   6	   6	   6	   5	   7	   6	   6	   5	   7	   6	   5	   7	   5	   6	   7	   7	   6	   6	   6	   6	   6	   6	   5	   5	   5	   6	   6	   6	   6	   6	   7	   5	   7	   5	   6	   5	   6	   7	   6	   7	   6	   6	   5	   6	   5	   0	
   8	   6	   5	   7	   6	   5	   7	   6	   7	   6	   6	   8	   6	   7	 999	   8	   8	   6	   7	   6	   6	   6	   7	   6	   7	   6	   6	   7	   7	   6	   6	   7	   6	   6	   7	   6	   7	   6	   7	   8	   7	   7	   6	   7	   6	   5	   6	   6	   8	   6	   7	   6	   6	   6	   5	   8	   7	   6	   6	   6	   0	
   8	   7	   5	   7	   7	   5	   7	   5	   6	   6	   5	   7	   6	   7	   6	 999	   5	   7	   6	   9	   7	   6	   6	   8	   6	   6	   8	   5	   7	   7	   8	   6	   7	   7	   7	   7	   7	   6	   5	   5	   7	   6	   7	   6	   7	   8	   6	   8	   5	   6	   5	   6	   8	   8	   8	   5	   6	   6	   7	   6	   0	
   7	   5	   6	   6	   5	   6	   5	   7	   8	   7	   7	   6	   5	   6	   6	   6	 999	   7	   6	   8	   7	   6	   6	   8	   6	   6	   8	   6	   7	   7	   8	   6	   7	   7	   7	   7	   7	   6	   5	   5	   7	   6	   7	   6	   7	   8	   6	   8	   5	   6	   5	   7	   8	   7	   8	   5	   6	   6	   7	   6	   0	
   8	   7	   6	   7	   7	   5	   7	   6	   6	   6	   6	   8	   6	   7	   6	   5	   6	 999	   6	   6	   5	   6	   6	   6	   6	   6	   5	   6	   5	   7	   6	   6	   5	   6	   5	   5	   5	   5	   6	   7	   5	   6	   5	   6	   5	   6	   5	   6	   6	   6	   6	   7	   6	   5	   5	   7	   7	   6	   6	   5	   0	
   5	   6	   6	   5	   6	   8	   5	   6	   7	   6	   6	   5	   6	   5	   7	   7	   6	   7	 999	   7	   6	   6	   5	   7	   6	   5	   7	   5	   6	   7	   7	   6	   6	   6	   6	   6	   6	   5	   6	   5	   6	   6	   6	   5	   6	   7	   5	   7	   5	   5	   6	   6	   7	   6	   7	   6	   6	   5	   6	   5	   0	
   7	   6	   5	   6	   6	   6	   6	   5	   7	   6	   6	   6	   6	   6	   6	   6	   6	   6	   6	 999	   6	   7	   7	   5	   7	   7	   5	   8	   6	   7	   5	   7	   6	   6	   6	   6	   6	   7	   8	   8	   6	   7	   6	   7	   6	   5	   7	   5	   8	   7	   8	   7	   5	   6	   5	   8	   8	   7	   6	   7	   0	
   8	   5	   6	   7	   5	   6	   6	   7	   8	   7	   7	   7	   6	   7	   6	   7	   6	   7	   7	   6	 999	   6	   6	   6	   6	   6	   5	   6	   5	   7	   6	   6	   5	   6	   6	   5	   5	   5	   6	   7	   5	   6	   5	   6	   5	   6	   5	   5	   7	   6	   6	   7	   6	   5	   5	   7	   7	   6	   6	   5	   0	
   8	   7	   6	   7	   7	   5	   7	   5	   6	   6	   5	   7	   7	   7	   6	   5	   7	   5	   7	   6	   7	 999	   6	   7	   7	   5	   6	   5	   7	   6	   7	   7	   6	   5	   7	   5	   7	   6	   7	   6	   7	   7	   6	   5	   6	   6	   6	   6	   6	   5	   7	   5	   7	   6	   6	   6	   5	   5	   5	   6	   0	
   5	   6	   7	   5	   7	   8	   5	   7	   7	   6	   7	   5	   6	   5	   8	   7	   6	   8	   5	   6	   7	   7	 999	   7	   6	   5	   7	   6	   6	   7	   7	   6	   6	   6	   6	   6	   6	   5	   5	   5	   6	   6	   6	   6	   6	   7	   5	   7	   5	   6	   5	   6	   7	   6	   7	   5	   6	   5	   6	   5	   0	
   7	   6	   5	   6	   6	   6	   6	   6	   7	   6	   6	   7	   6	   6	   5	   5	   6	   5	   7	   5	   6	   6	   7	 999	   7	   6	   5	   7	   6	   7	   5	   7	   5	   6	   6	   6	   6	   6	   7	   8	   6	   7	   5	   7	   6	   5	   6	   5	   8	   6	   7	   6	   5	   5	   5	   8	   7	   6	   6	   6	   0	
   6	   6	   5	   5	   5	   7	   5	   6	   7	   6	   7	   6	   5	   5	   6	   6	   5	   6	   6	   5	   6	   6	   6	   6	 999	   7	   6	   7	   5	   8	   7	   5	   6	   7	   6	   6	   6	   6	   5	   6	   6	   5	   6	   7	   6	   7	   6	   7	   6	   7	   5	   8	   7	   6	   6	   6	   7	   6	   7	   6	   0	
   6	   6	   6	   5	   6	   7	   5	   6	   6	   5	   6	   5	   6	   5	   7	   7	   6	   7	   5	   6	   7	   7	   5	   6	   5	 999	   6	   5	   7	   6	   6	   6	   6	   5	   7	   5	   7	   5	   6	   6	   6	   7	   6	   5	   6	   6	   6	   6	   6	   5	   6	   6	   7	   6	   6	   6	   5	   5	   5	   5	   0	
   7	   6	   5	   6	   6	   6	   5	   6	   7	   6	   6	   6	   6	   6	   6	   6	   6	   6	   6	   5	   6	   6	   6	   5	   5	   5	 999	   7	   6	   7	   5	   7	   5	   6	   6	   6	   6	   6	   7	   7	   6	   7	   5	   7	   5	   5	   6	   5	   7	   6	   7	   6	   5	   5	   5	   8	   7	   6	   6	   6	   0	
   9	   6	   6	   8	   6	   5	   8	   6	   7	   7	   6	   8	   7	   8	   5	   5	   7	   5	   8	   7	   6	   6	   8	   6	   7	   8	   7	 999	   7	   6	   7	   7	   6	   6	   7	   6	   7	   6	   6	   5	   7	   7	   6	   5	   6	   7	   6	   7	   6	   6	   6	   5	   8	   7	   7	   5	   5	   5	   6	   5	   0	
   8	   6	   5	   7	   6	   5	   7	   5	   7	   6	   6	   7	   6	   7	   5	   5	   6	   5	   7	   6	   6	   6	   7	   5	   6	   7	   6	   5	 999	   8	   6	   6	   5	   7	   5	   6	   5	   6	   6	   6	   5	   6	   6	   7	   5	   7	   5	   6	   6	   7	   6	   8	   6	   6	   6	   7	   7	   6	   7	   6	   0	
   8	   6	   6	   7	   6	   6	   7	   6	   7	   7	   7	   8	   7	   7	   5	   6	   6	   6	   8	   6	   5	   6	   8	   6	   7	   7	   6	   5	   5	 999	   7	   8	   7	   6	   8	   6	   8	   7	   8	   6	   8	   8	   7	   6	   7	   6	   7	   7	   7	   6	   8	   5	   7	   7	   6	   7	   6	   6	   6	   7	   0	
   9	   7	   6	   8	   6	   5	   8	   6	   7	   7	   6	   8	   7	   8	   5	   6	   7	   5	   8	   7	   6	   6	   8	   6	   7	   8	   7	   5	   5	   5	 999	   7	   6	   6	   6	   6	   6	   6	   8	   8	   5	   7	   5	   7	   6	   6	   7	   5	   8	   6	   7	   7	   5	   5	   5	   8	   7	   6	   6	   6	   0	
   7	   5	   6	   6	   5	   6	   5	   7	   8	   7	   7	   6	   5	   6	   6	   7	   5	   7	   6	   6	   6	   7	   6	   6	   5	   6	   6	   7	   6	   6	   7	 999	   6	   7	   6	   6	   6	   6	   5	   6	   6	   5	   6	   7	   6	   7	   5	   7	   5	   7	   5	   7	   7	   6	   7	   6	   7	   6	   7	   6	   0	
   8	   6	   5	   7	   6	   5	   7	   5	   6	   6	   6	   8	   6	   7	   5	   5	   6	   5	   7	   6	   6	   5	   8	   5	   6	   7	   6	   5	   5	   5	   5	   6	 999	   6	   5	   6	   5	   5	   7	   7	   5	   6	   5	   6	   5	   6	   6	   5	   7	   6	   6	   7	   6	   5	   6	   7	   7	   6	   6	   5	   0	
   6	   7	   6	   5	   6	   7	   6	   6	   6	   5	   6	   5	   6	   5	   7	   7	   6	   7	   5	   6	   7	   7	   5	   6	   6	   5	   6	   8	   7	   7	   8	   6	   7	 999	   7	   5	   7	   6	   7	   7	   7	   7	   6	   6	   6	   5	   6	   6	   7	   5	   7	   5	   6	   6	   5	   7	   6	   5	   5	   6	   0	
   8	   8	   6	   7	   7	   5	   7	   5	   6	   6	   5	   8	   7	   7	   6	   5	   7	   5	   7	   6	   7	   5	   7	   6	   7	   7	   6	   6	   6	   6	   6	   7	   6	   7	 999	   6	   5	   6	   6	   7	   5	   6	   6	   7	   6	   7	   6	   6	   6	   7	   6	   8	   6	   6	   6	   7	   8	   7	   7	   6	   0	
   7	   8	   6	   6	   7	   6	   7	   5	   5	   5	   5	   6	   7	   6	   6	   6	   7	   6	   6	   6	   7	   6	   6	   6	   7	   6	   6	   7	   6	   7	   7	   7	   6	   6	   6	 999	   6	   5	   6	   6	   6	   6	   5	   6	   5	   6	   5	   6	   6	   5	   6	   6	   6	   5	   6	   7	   6	   5	   5	   5	   0	
   6	   8	   6	   6	   8	   7	   7	   6	   5	   5	   6	   6	   7	   6	   7	   7	   7	   7	   6	   6	   8	   7	   6	   6	   7	   6	   6	   7	   7	   7	   8	   8	   7	   6	   7	   5	 999	   6	   7	   7	   5	   6	   6	   7	   6	   7	   6	   6	   7	   7	   7	   8	   6	   6	   6	   7	   7	   7	   7	   6	   0	
   7	   7	   6	   6	   7	   6	   6	   5	   5	   5	   5	   6	   7	   6	   6	   5	   7	   6	   6	   6	   7	   5	   6	   6	   6	   6	   6	   6	   6	   6	   6	   7	   6	   6	   6	   5	   6	 999	   6	   6	   6	   6	   5	   6	   5	   6	   5	   6	   6	   6	   6	   6	   6	   6	   6	   6	   6	   5	   6	   5	   0	
   7	   7	   6	   6	   7	   6	   6	   5	   5	   5	   5	   6	   7	   6	   6	   6	   7	   6	   6	   6	   7	   6	   6	   6	   6	   6	   6	   6	   6	   6	   7	   7	   6	   6	   6	   5	   6	   5	 999	   6	   7	   5	   7	   6	   6	   7	   5	   7	   5	   6	   5	   7	   8	   7	   7	   5	   7	   6	   7	   6	   0	
   5	   7	   7	   5	   7	   8	   5	   7	   6	   6	   7	   5	   6	   5	   8	   8	   6	   8	   5	   6	   7	   7	   5	   7	   6	   5	   6	   8	   8	   8	   9	   6	   8	   5	   8	   6	   6	   7	   6	 999	   7	   6	   7	   5	   7	   8	   6	   8	   5	   6	   6	   6	   8	   7	   7	   5	   6	   6	   6	   6	   0	
   6	   8	   6	   6	   8	   7	   7	   6	   5	   5	   6	   6	   7	   6	   7	   6	   7	   7	   6	   6	   8	   6	   6	   6	   7	   6	   6	   7	   7	   7	   7	   8	   7	   6	   7	   5	   5	   6	   5	   6	 999	   6	   6	   7	   5	   7	   6	   6	   7	   7	   7	   8	   5	   6	   6	   7	   7	   6	   7	   6	   0	
   7	   6	   5	   6	   6	   6	   5	   6	   7	   6	   6	   6	   5	   6	   6	   6	   5	   6	   6	   5	   6	   6	   6	   5	   5	   5	   5	   7	   6	   6	   7	   6	   6	   6	   6	   6	   7	   6	   6	   6	   7	 999	   6	   7	   6	   7	   6	   7	   6	   7	   5	   8	   7	   6	   7	   6	   7	   7	   7	   6	   0	
   7	   5	   6	   6	   5	   7	   6	   7	   8	   7	   8	   7	   5	   6	   6	   7	   5	   7	   6	   6	   5	   7	   7	   6	   6	   7	   6	   6	   6	   6	   6	   5	   6	   7	   8	   8	   8	   8	   7	   7	   8	   6	 999	   6	   5	   5	   6	   5	   7	   6	   7	   6	   6	   5	   5	   7	   6	   6	   6	   6	   0	
   6	   6	   6	   5	   6	   8	   5	   6	   6	   6	   6	   5	   6	   5	   7	   7	   6	   7	   5	   6	   7	   7	   5	   6	   5	   5	   6	   8	   7	   7	   8	   6	   7	   5	   7	   6	   6	   6	   6	   5	   6	   6	   6	 999	   6	   7	   6	   7	   6	   5	   6	   5	   7	   6	   7	   6	   5	   5	   5	   6	   0	
   6	   6	   6	   5	   6	   7	   5	   6	   7	   6	   7	   5	   5	   5	   7	   7	   6	   7	   5	   6	   7	   7	   5	   6	   5	   5	   6	   8	   7	   7	   8	   5	   7	   6	   7	   7	   7	   6	   6	   6	   7	   6	   6	   5	 999	   6	   5	   6	   7	   6	   6	   7	   6	   5	   5	   7	   6	   6	   6	   5	   0	
   8	   6	   5	   7	   6	   5	   7	   5	   6	   6	   6	   7	   6	   7	   5	   5	   6	   5	   7	   6	   6	   5	   7	   5	   6	   7	   6	   5	   5	   5	   5	   6	   5	   7	   6	   6	   7	   6	   6	   8	   7	   6	   7	   7	   7	 999	   6	   5	   7	   6	   7	   6	   6	   5	   5	   8	   7	   6	   6	   6	   0	
   6	   7	   6	   5	   7	   7	   6	   6	   6	   5	   6	   5	   6	   5	   7	   7	   6	   7	   5	   5	   7	   6	   6	   6	   6	   5	   5	   7	   7	   7	   8	   7	   7	   5	   7	   5	   5	   6	   5	   6	   5	   6	   7	   5	   6	   7	 999	   6	   6	   6	   5	   7	   7	   6	   6	   6	   6	   5	   6	   5	   0	
   7	   8	   7	   6	   8	   6	   7	   6	   5	   5	   5	   6	   8	   6	   7	   6	   8	   6	   6	   6	   8	   6	   7	   7	   7	   6	   7	   7	   6	   7	   7	   8	   6	   6	   6	   5	   5	   5	   5	   6	   5	   7	   8	   6	   7	   6	   6	 999	   8	   6	   7	   6	   5	   5	   5	   8	   7	   6	   6	   6	   0	
   6	   5	   6	   6	   5	   7	   5	   7	   8	   7	   7	   6	   5	   6	   7	   7	   5	   7	   6	   6	   6	   7	   6	   6	   5	   6	   6	   7	   6	   7	   7	   5	   6	   6	   7	   7	   7	   7	   7	   6	   7	   5	   6	   6	   5	   6	   7	   8	 999	   6	   5	   7	   8	   7	   7	   5	   6	   6	   6	   6	   0	
   6	   6	   6	   5	   6	   7	   5	   6	   6	   5	   6	   5	   6	   5	   7	   7	   6	   7	   5	   6	   6	   7	   5	   6	   5	   5	   5	   8	   7	   7	   8	   6	   7	   5	   7	   6	   6	   6	   6	   5	   6	   5	   6	   5	   5	   7	   5	   6	   6	 999	   6	   5	   6	   6	   6	   6	   6	   5	   5	   6	   0	
   7	   6	   5	   6	   5	   6	   5	   6	   7	   6	   7	   6	   5	   6	   6	   6	   5	   6	   6	   5	   6	   6	   6	   5	   5	   5	   5	   7	   6	   6	   7	   5	   6	   6	   6	   7	   7	   6	   6	   6	   7	   5	   6	   6	   5	   6	   6	   7	   5	   5	 999	   7	   8	   7	   7	   5	   7	   6	   7	   5	   0	
   8	   6	   5	   7	   6	   5	   7	   6	   7	   6	   6	   8	   6	   7	   5	   6	   6	   5	   7	   6	   6	   6	   8	   5	   6	   7	   6	   5	   5	   5	   5	   6	   5	   7	   6	   6	   7	   6	   6	   8	   7	   6	   6	   7	   7	   5	   7	   7	   7	   7	   6	 999	   7	   6	   6	   6	   5	   6	   5	   6	   0	
   7	   8	   6	   6	   7	   6	   6	   5	   5	   5	   5	   6	   7	   6	   6	   6	   7	   6	   6	   6	   7	   6	   6	   6	   7	   6	   6	   7	   6	   6	   7	   7	   6	   6	   6	   5	   5	   5	   5	   6	   5	   6	   8	   6	   7	   6	   5	   5	   7	   6	   6	   6	 999	   5	   5	   8	   7	   7	   6	   7	   0	
   7	   8	   7	   7	   8	   6	   7	   6	   5	   6	   5	   7	   8	   7	   7	   6	   8	   6	   7	   7	   8	   6	   7	   7	   7	   6	   7	   7	   7	   7	   7	   8	   7	   6	   6	   5	   5	   5	   5	   6	   5	   7	   8	   7	   7	   6	   6	   5	   8	   6	   7	   7	   5	 999	   5	   7	   7	   6	   6	   6	   0	
   6	   7	   6	   5	   7	   7	   6	   6	   6	   5	   6	   5	   6	   5	   7	   6	   6	   7	   5	   5	   7	   6	   5	   6	   6	   5	   5	   7	   7	   7	   7	   7	   7	   5	   7	   5	   5	   5	   5	   6	   5	   6	   7	   5	   6	   7	   5	   6	   7	   5	   6	   7	   5	   6	 999	   8	   7	   6	   6	   6	   0	
   8	   7	   5	   7	   6	   5	   7	   5	   6	   6	   6	   7	   6	   7	   5	   5	   6	   5	   7	   5	   6	   5	   7	   5	   6	   7	   6	   6	   5	   6	   6	   6	   5	   7	   5	   6	   6	   5	   5	   7	   6	   6	   7	   7	   7	   5	   6	   6	   6	   7	   6	   5	   6	   6	   6	 999	   6	   6	   7	   6	   0	
   8	   7	   6	   7	   7	   5	   6	   5	   6	   6	   5	   7	   7	   7	   6	   5	   7	   5	   7	   5	   7	   5	   7	   6	   6	   6	   6	   6	   5	   6	   6	   7	   5	   7	   5	   5	   6	   5	   5	   7	   6	   6	   7	   7	   7	   5	   6	   6	   7	   6	   6	   6	   5	   6	   6	   5	 999	   5	   6	   6	   0	
   6	   5	   6	   5	   6	   7	   5	   6	   8	   7	   7	   6	   5	   6	   7	   6	   5	   7	   5	   5	   6	   7	   5	   6	   5	   6	   5	   7	   6	   7	   7	   5	   7	   6	   7	   7	   7	   7	   7	   6	   7	   5	   6	   6	   5	   7	   6	   7	   5	   6	   5	   7	   7	   8	   6	   6	   6	 999	   5	   5	   0	
   6	   7	   6	   5	   7	   7	   6	   6	   6	   5	   6	   5	   6	   5	   7	   7	   7	   7	   5	   6	   7	   7	   6	   6	   6	   5	   5	   8	   7	   7	   8	   7	   7	   5	   7	   6	   5	   6	   6	   5	   5	   6	   7	   5	   6	   7	   5	   6	   7	   5	   6	   7	   6	   6	   5	   7	   6	   6	 999	   6	   0	
   6	   8	   6	   6	   8	   7	   7	   6	   5	   5	   6	   6	   7	   6	   7	   6	   7	   7	   6	   6	   8	   6	   6	   6	   7	   6	   6	   7	   6	   7	   7	   8	   6	   6	   6	   5	   5	   5	   5	   6	   5	   7	   8	   6	   7	   6	   5	   5	   7	   6	   7	   7	   5	   5	   5	   6	   6	   7	   5	 999	   0	
   6	   7	   6	   5	   7	   7	   6	   6	   6	   5	   6	   5	   6	   5	   7	   6	   6	   7	   5	   5	   7	   6	   5	   6	   6	   5	   5	   7	   6	   7	   7	   7	   7	   5	   7	   5	   6	   5	   5	   6	   6	   5	   7	   5	   6	   7	   5	   6	   6	   5	   6	   7	   5	   6	   5	   6	   6	   6	   5	   6	 999	



