Results of MIP model: 
MIP objective    = 726
MIP upper bound  = 726
MIP solving time = 5.96433

------------------------------------------------------------
Results of Logic-based Benders decomposition method: 
(Initial solutions added) 
LBBD best objective   = 726
LBBD solving time     = 8448.49

------------------------------------------------------------
Results of Logic-based Benders decomposition method: 
(MP gap = 1%) 
LBBD best objective   = 723.5
LBBD solving time     = 6.656

------------------------------------------------------------
Results of Logic-based Benders decomposition method: 
(MP gap = 0.5%) 
LBBD best objective   = 726
LBBD solving time     = 13.286

------------------------------------------------------------
Results of Logic-based Benders decomposition method: 
(MP gap = 0.1%) 
LBBD best objective   = 726
LBBD solving time     = 53.4

------------------------------------------------------------
------------------------------------------------------------
Parameters :
M = 3

N = 60

T = 266

Initial SOP of job i in N: delta_i = 
   3	   5	   5	   0	   1	   2	   8	   9	   8	   7	   1	   7	   1	   3	   9	   5	   3	   6	   9	   6	   3	   4	   8	   1	   6	   8	   5	   6	   5	   9	   8	   2	   5	   5	   2	   5	   7	   0	   3	   9	   1	   2	   7	   4	   6	   3	   6	   0	   5	   1	   0	   6	   0	   1	   5	   8	   8	   4	   6	   2	

Minimum required SOP of job i : pl_i = 
  12	  14	  11	  11	  13	  10	  10	  14	  15	  12	  11	  10	  12	  11	  12	  10	  12	  12	  11	  10	  11	  11	  12	  13	  14	  12	  12	  15	  15	  10	  10	  13	  13	  10	  12	  10	  15	  11	  13	  15	  13	  11	  13	  15	  12	  15	  12	  14	  15	  12	  13	  10	  10	  10	  13	  14	  13	  11	  14	  10	

Maximum required SOP of job i : pu_i = 
  24	  21	  24	  25	  23	  22	  20	  20	  24	  20	  23	  25	  21	  22	  22	  21	  21	  21	  23	  25	  24	  22	  24	  23	  23	  23	  22	  24	  20	  25	  24	  22	  20	  22	  24	  24	  20	  20	  24	  25	  20	  22	  23	  23	  23	  21	  20	  22	  20	  23	  21	  21	  25	  20	  22	  20	  20	  24	  23	  22	

Processing rate of job i on machine k : tau_ki = 
 0.5	 0.5	   1	   2	   2	   1	   1	   1	   2	 0.5	   1	 0.5	   1	   2	   1	 0.5	   2	   1	 0.5	   1	 0.5	   2	 0.5	 0.5	 0.5	 0.5	   2	   1	 0.5	   1	   2	   2	   1	   2	 0.5	   1	   2	   2	   2	 0.5	   2	   1	   1	   2	   1	   2	   1	   1	   1	   1	 0.5	 0.5	   1	   1	   2	   1	 0.5	 0.5	   1	 0.5	
   2	   1	   1	   1	 0.5	   2	 0.5	   1	   1	   1	   2	   1	 0.5	 0.5	   1	 0.5	   2	 0.5	   1	 0.5	   1	   1	   1	 0.5	   1	 0.5	   2	   1	 0.5	   1	   1	 0.5	   1	   2	 0.5	 0.5	   1	   1	 0.5	 0.5	   1	   2	   2	   1	   2	   2	 0.5	 0.5	 0.5	   2	   1	 0.5	 0.5	 0.5	 0.5	   1	   1	 0.5	   1	   1	
 0.5	   1	 0.5	 0.5	 0.5	   1	   1	   1	   1	   2	   1	 0.5	   1	   1	 0.5	 0.5	 0.5	 0.5	   1	   1	   1	   2	   1	 0.5	   2	 0.5	   1	   2	   2	   1	   1	   2	   1	   1	 0.5	 0.5	 0.5	   2	   1	   1	   2	   2	 0.5	   2	   1	 0.5	 0.5	 0.5	 0.5	   1	 0.5	   1	   1	   2	   1	 0.5	   2	 0.5	 0.5	 0.5	


Minimum processing time of job i on machine k : tl_ki = 
  18	  18	   6	 5.5	   6	   8	   2	   5	 3.5	  10	  10	   6	  11	   4	   3	  10	 4.5	   6	   4	   4	  16	 3.5	   8	  24	  16	   8	 3.5	   9	  20	   1	   1	 5.5	   8	 2.5	  20	   5	   4	 5.5	   5	  12	   6	   9	   6	 5.5	   6	   6	   6	  14	  10	  11	  26	   8	  10	   9	   4	   6	  10	  14	   8	  16	
 4.5	   9	   6	  11	  24	   4	   4	   5	   7	   5	   5	   3	  22	  16	   3	  10	 4.5	  12	   2	   8	   8	   7	   4	  24	   8	   8	 3.5	   9	  20	   1	   2	  22	   8	 2.5	  20	  10	   8	  11	  20	  12	  12	 4.5	   3	  11	   3	   6	  12	  28	  20	 5.5	  13	   8	  20	  18	  16	   6	   5	  14	   8	   8	
  18	   9	  12	  22	  24	   8	   2	   5	   7	 2.5	  10	   6	  11	   8	   6	  10	  18	  12	   2	   4	   8	 3.5	   4	  24	   4	   8	   7	 4.5	   5	   1	   2	 5.5	   8	   5	  20	  10	  16	 5.5	  10	   6	   6	 4.5	  12	 5.5	   6	  24	  12	  28	  20	  11	  26	   4	  10	 4.5	   8	  12	 2.5	  14	  16	  16	


Maximum processing time of job i on machine k : tu_ki = 
  42	  32	  19	12.5	  11	  20	  12	  11	   8	  26	  22	  36	  20	 9.5	  13	  32	   9	  15	  28	  19	  42	   9	  32	  44	  34	  30	 8.5	  18	  30	  16	   8	  10	  15	 8.5	  44	  19	 6.5	  10	10.5	  32	 9.5	  20	  16	 9.5	  17	   9	  14	  22	  15	  22	  42	  30	  25	  19	 8.5	  12	  24	  40	  17	  40	
10.5	  16	  19	  25	  44	  10	  24	  11	  16	  13	  11	  18	  40	  38	  13	  32	   9	  30	  14	  38	  21	  18	  16	  44	  17	  30	 8.5	  18	  30	  16	  16	  40	  15	 8.5	  44	  38	  13	  20	  42	  32	  19	  10	   8	  19	 8.5	   9	  28	  44	  30	  11	  21	  30	  50	  38	  34	  12	  12	  40	  17	  20	
  42	  16	  38	  50	  44	  20	  12	  11	  16	 6.5	  22	  36	  20	  19	  26	  32	  36	  30	  14	  19	  21	   9	  16	  44	 8.5	  30	  17	   9	 7.5	  16	  16	  10	  15	  17	  44	  38	  26	  10	  21	  16	 9.5	  10	  32	 9.5	  17	  36	  28	  44	  30	  22	  42	  15	  25	 9.5	  17	  24	   6	  40	  34	  40	


Setup time: s_kij = 
 999	   6	   6	   6	   7	   7	   7	   6	   5	   6	   7	   5	   8	   7	   6	   7	   8	   7	   6	   7	   6	   7	   8	   6	   6	   8	   7	   7	   6	   8	   7	   7	   6	   5	   6	   6	   7	   5	   5	   6	   7	   7	   7	   7	   8	   8	   7	   6	   7	   8	   7	   5	   7	   7	   7	   6	   8	   6	   5	   8	   0	
   5	 999	   6	   5	   5	   6	   6	   6	   6	   6	   5	   6	   6	   5	   5	   6	   6	   7	   6	   6	   6	   5	   6	   6	   6	   6	   7	   5	   6	   6	   5	   7	   6	   7	   7	   6	   5	   6	   7	   7	   5	   6	   7	   5	   6	   6	   6	   6	   5	   6	   5	   6	   7	   5	   6	   5	   6	   5	   6	   6	   0	
   6	   7	 999	   5	   6	   7	   6	   8	   7	   6	   5	   6	   7	   6	   6	   7	   6	   5	   8	   7	   5	   6	   6	   5	   6	   6	   6	   6	   5	   7	   6	   6	   7	   6	   8	   5	   6	   6	   7	   8	   6	   5	   5	   6	   7	   7	   7	   6	   5	   7	   6	   7	   5	   7	   7	   5	   6	   6	   6	   6	   0	
   6	   7	   6	 999	   5	   6	   6	   7	   6	   6	   5	   6	   6	   6	   5	   6	   6	   6	   7	   6	   5	   5	   6	   6	   6	   6	   7	   5	   5	   6	   6	   7	   6	   7	   7	   5	   5	   6	   7	   7	   6	   6	   6	   6	   7	   7	   6	   6	   5	   6	   5	   6	   6	   6	   6	   5	   6	   5	   6	   6	   0	
   5	   5	   6	   6	 999	   5	   7	   6	   6	   7	   6	   6	   6	   5	   5	   5	   6	   7	   6	   5	   6	   5	   6	   6	   6	   6	   8	   5	   6	   6	   5	   8	   5	   7	   6	   6	   5	   7	   7	   6	   5	   7	   7	   5	   6	   6	   5	   6	   6	   6	   5	   6	   7	   5	   5	   6	   6	   5	   6	   6	   0	
   7	   8	   6	   6	   8	 999	   7	   6	   7	   7	   6	   7	   5	   6	   6	   5	   6	   8	   6	   5	   7	   6	   6	   7	   7	   6	   8	   6	   6	   6	   6	   8	   6	   8	   6	   7	   6	   7	   8	   6	   5	   7	   8	   5	   6	   6	   5	   7	   6	   5	   5	   7	   8	   5	   5	   6	   5	   6	   7	   5	   0	
   5	   6	   6	   6	   5	   7	 999	   8	   7	   7	   5	   7	   7	   6	   6	   7	   5	   5	   8	   7	   7	   6	   6	   5	   7	   5	   5	   6	   7	   6	   6	   6	   7	   8	   8	   6	   6	   7	   8	   8	   6	   5	   6	   7	   6	   5	   7	   7	   6	   7	   7	   7	   6	   7	   7	   6	   6	   6	   7	   6	   0	
   7	   6	   7	   5	   7	   6	   6	 999	   6	   7	   7	   6	   6	   7	   6	   6	   7	   8	   5	   5	   7	   6	   6	   8	   8	   7	   9	   6	   7	   7	   6	   9	   5	   7	   5	   7	   6	   7	   7	   5	   6	   8	   8	   6	   7	   7	   5	   7	   7	   6	   6	   6	   9	   5	   5	   7	   6	   6	   6	   6	   0	
   6	   5	   7	   7	   5	   8	   6	   7	 999	   6	   6	   5	   7	   7	   6	   7	   7	   7	   5	   6	   6	   6	   7	   7	   7	   8	   8	   7	   6	   8	   7	   8	   6	   5	   6	   6	   7	   6	   6	   6	   7	   7	   7	   7	   8	   8	   7	   6	   7	   7	   6	   5	   8	   6	   7	   6	   7	   6	   5	   7	   0	
   7	   7	   7	   5	   7	   6	   6	   6	   8	 999	   7	   5	   8	   7	   6	   7	   8	   7	   7	   7	   5	   7	   8	   6	   5	   8	   7	   7	   5	   8	   7	   6	   6	   5	   7	   6	   7	   5	   5	   7	   7	   7	   6	   7	   8	   8	   7	   5	   7	   8	   7	   6	   6	   7	   7	   6	   8	   6	   5	   8	   0	
   5	   6	   5	   6	   6	   7	   5	   6	   6	   6	 999	   6	   6	   5	   6	   6	   6	   6	   7	   6	   6	   5	   6	   5	   6	   6	   6	   5	   6	   6	   5	   6	   6	   7	   7	   5	   5	   7	   7	   7	   6	   5	   6	   6	   6	   6	   6	   6	   5	   6	   6	   6	   6	   6	   6	   5	   6	   5	   6	   6	   0	
   6	   6	   5	   6	   6	   6	   5	   7	   7	   7	   5	 999	   7	   7	   5	   7	   7	   7	   6	   6	   6	   6	   7	   6	   6	   7	   7	   7	   5	   8	   7	   7	   5	   5	   6	   6	   6	   5	   6	   6	   7	   7	   7	   7	   8	   8	   7	   6	   6	   7	   6	   5	   7	   6	   6	   6	   7	   6	   5	   7	   0	
   6	   6	   6	   7	   6	   7	   6	   8	   6	   8	   6	   6	 999	   5	   6	   5	   6	   7	   6	   5	   7	   6	   5	   7	   7	   6	   8	   5	   7	   5	   5	   8	   6	   8	   6	   6	   5	   8	   8	   6	   5	   7	   7	   5	   5	   6	   5	   7	   6	   5	   6	   7	   7	   6	   5	   6	   5	   6	   7	   5	   0	
   5	   5	   7	   7	   5	   8	   6	   6	   5	   7	   6	   6	   6	 999	   6	   6	   5	   6	   7	   6	   7	   5	   5	   6	   7	   5	   7	   5	   6	   5	   5	   7	   6	   8	   7	   6	   5	   7	   8	   7	   5	   6	   6	   5	   6	   5	   6	   7	   5	   6	   5	   7	   7	   6	   6	   6	   5	   5	   7	   5	   0	
   6	   5	   6	   6	   6	   7	   5	   6	   6	   6	   5	   6	   7	   5	 999	   6	   6	   7	   6	   5	   6	   5	   6	   6	   6	   6	   7	   6	   6	   7	   6	   7	   5	   6	   6	   6	   5	   6	   7	   6	   6	   7	   7	   6	   7	   7	   6	   6	   6	   6	   5	   5	   7	   5	   6	   6	   6	   5	   5	   6	   0	
   6	   7	   6	   5	   7	   6	   6	   5	   7	   5	   6	   6	   7	   7	   6	 999	   6	   8	   6	   5	   7	   6	   6	   7	   7	   6	   8	   6	   6	   6	   6	   8	   6	   8	   6	   7	   6	   7	   8	   6	   5	   7	   8	   5	   6	   6	   5	   7	   6	   5	   5	   7	   8	   5	   5	   6	   5	   6	   7	   5	   0	
   6	   7	   5	   7	   6	   6	   5	   7	   7	   7	   5	   5	   5	   7	   6	   7	 999	   6	   7	   6	   7	   6	   5	   6	   7	   5	   6	   5	   7	   5	   5	   6	   6	   8	   7	   7	   5	   8	   8	   7	   5	   6	   6	   6	   5	   5	   6	   8	   5	   6	   6	   7	   6	   6	   6	   6	   5	   6	   7	   6	   0	
   5	   5	   6	   6	   5	   7	   5	   6	   6	   6	   5	   5	   6	   5	   5	   6	   6	 999	   8	   8	   6	   7	   7	   5	   6	   6	   5	   6	   6	   6	   7	   5	   8	   7	   9	   6	   7	   7	   7	   9	   7	   5	   5	   7	   6	   6	   8	   6	   6	   7	   7	   8	   5	   8	   8	   6	   7	   6	   7	   7	   0	
   6	   5	   7	   8	   6	   9	   6	   7	   5	   8	   7	   7	   6	   5	   6	   8	   7	   6	 999	   6	   7	   6	   6	   8	   8	   7	   9	   6	   7	   7	   6	   9	   5	   6	   5	   7	   6	   6	   6	   5	   6	   8	   8	   6	   7	   7	   6	   7	   7	   7	   6	   5	   9	   5	   6	   7	   6	   6	   6	   7	   0	
   7	   8	   6	   6	   8	   5	   7	   6	   8	   6	   6	   6	   7	   8	   7	   6	   6	   7	   9	 999	   6	   6	   6	   7	   7	   6	   8	   6	   6	   6	   6	   8	   5	   7	   6	   7	   6	   7	   7	   6	   5	   7	   8	   5	   6	   6	   5	   7	   6	   5	   5	   6	   8	   5	   5	   6	   5	   6	   6	   5	   0	
   5	   6	   5	   6	   6	   7	   5	   6	   6	   6	   5	   5	   6	   6	   5	   6	   5	   5	   7	   6	 999	   6	   7	   6	   5	   7	   6	   6	   5	   7	   7	   6	   7	   6	   7	   5	   6	   5	   6	   7	   6	   6	   6	   7	   8	   7	   6	   5	   6	   7	   6	   6	   6	   6	   7	   5	   7	   6	   5	   7	   0	
   6	   6	   6	   7	   6	   7	   6	   8	   6	   8	   6	   6	   5	   6	   7	   7	   5	   6	   7	   7	   6	 999	   6	   6	   6	   6	   7	   5	   6	   6	   5	   7	   6	   7	   7	   6	   5	   7	   7	   7	   5	   6	   6	   5	   6	   6	   6	   6	   5	   6	   5	   6	   7	   6	   6	   5	   6	   5	   6	   6	   0	
   6	   6	   5	   6	   6	   6	   5	   7	   7	   7	   5	   5	   6	   6	   6	   6	   5	   5	   7	   6	   5	   5	 999	   6	   7	   5	   7	   5	   7	   5	   5	   7	   6	   8	   7	   7	   5	   8	   8	   7	   5	   6	   7	   5	   5	   5	   6	   8	   5	   5	   6	   7	   7	   6	   6	   6	   5	   6	   7	   5	   0	
   6	   7	   6	   8	   6	   7	   6	   8	   7	   8	   6	   6	   5	   7	   7	   8	   6	   6	   7	   7	   7	   5	   6	 999	   6	   6	   6	   6	   6	   6	   6	   6	   7	   7	   8	   5	   6	   7	   7	   8	   6	   5	   5	   6	   6	   6	   7	   6	   5	   7	   6	   7	   5	   7	   7	   5	   6	   6	   6	   6	   0	
   5	   5	   7	   7	   5	   8	   6	   6	   5	   7	   6	   6	   7	   5	   6	   7	   7	   5	   5	   8	   6	   6	   6	   7	 999	   7	   6	   7	   5	   8	   7	   6	   7	   6	   8	   5	   6	   6	   6	   8	   7	   6	   5	   7	   8	   8	   7	   5	   7	   7	   6	   7	   5	   7	   7	   6	   7	   6	   6	   7	   0	
   5	   6	   6	   6	   5	   7	   5	   7	   6	   7	   5	   5	   6	   6	   6	   6	   6	   5	   6	   7	   5	   5	   5	   6	   6	 999	   6	   5	   7	   5	   5	   6	   6	   8	   7	   7	   6	   8	   9	   7	   6	   6	   7	   6	   5	   5	   6	   8	   5	   6	   6	   7	   7	   6	   6	   6	   5	   6	   7	   6	   0	
   7	   7	   7	   6	   7	   7	   7	   5	   7	   6	   7	   7	   8	   7	   6	   6	   8	   7	   7	   7	   7	   8	   7	   9	   6	   7	 999	   7	   6	   7	   7	   5	   8	   7	   9	   6	   7	   7	   7	   9	   7	   5	   5	   7	   7	   6	   8	   6	   6	   8	   7	   8	   5	   8	   8	   6	   7	   7	   7	   7	   0	
   5	   6	   5	   6	   6	   7	   5	   6	   6	   6	   5	   5	   6	   6	   5	   6	   5	   5	   7	   6	   5	   6	   5	   7	   6	   5	   7	 999	   6	   6	   5	   7	   6	   7	   7	   6	   5	   7	   8	   7	   5	   6	   6	   5	   6	   6	   6	   7	   5	   5	   5	   7	   7	   6	   6	   5	   5	   5	   6	   5	   0	
   5	   5	   7	   7	   5	   8	   6	   7	   5	   7	   6	   6	   6	   5	   6	   7	   7	   5	   5	   8	   6	   6	   6	   6	   5	   6	   7	   6	 999	   7	   6	   6	   6	   6	   7	   5	   6	   5	   6	   7	   6	   6	   6	   6	   7	   7	   6	   5	   6	   7	   6	   6	   6	   6	   6	   5	   7	   5	   5	   7	   0	
   6	   6	   7	   5	   7	   7	   6	   5	   6	   6	   6	   7	   8	   6	   5	   5	   7	   6	   7	   6	   6	   8	   7	   8	   6	   7	   5	   6	   6	 999	   5	   7	   7	   8	   7	   7	   6	   8	   9	   7	   5	   6	   7	   5	   5	   5	   6	   8	   6	   6	   6	   8	   7	   6	   6	   6	   5	   6	   7	   5	   0	
   6	   5	   7	   7	   5	   9	   6	   7	   5	   8	   7	   7	   7	   5	   6	   7	   7	   6	   5	   9	   7	   6	   7	   7	   5	   6	   6	   7	   5	   7	 999	   7	   6	   8	   7	   6	   5	   7	   8	   7	   5	   6	   7	   5	   5	   5	   6	   7	   5	   5	   5	   7	   7	   5	   6	   6	   5	   6	   7	   5	   0	
   6	   6	   6	   6	   6	   7	   6	   5	   6	   6	   6	   6	   7	   6	   5	   6	   7	   6	   6	   7	   6	   7	   6	   8	   6	   6	   6	   6	   6	   5	   6	 999	   8	   7	   9	   6	   7	   7	   7	   9	   7	   5	   5	   8	   7	   6	   8	   6	   7	   8	   7	   8	   5	   8	   8	   6	   7	   7	   7	   7	   0	
   7	   7	   7	   5	   7	   6	   7	   5	   7	   5	   7	   7	   8	   6	   6	   5	   8	   7	   7	   6	   7	   8	   7	   9	   6	   7	   5	   7	   7	   5	   7	   6	 999	   6	   5	   7	   6	   6	   7	   5	   6	   7	   8	   6	   7	   7	   6	   7	   6	   6	   5	   5	   8	   5	   6	   6	   6	   6	   6	   6	   0	
   5	   5	   6	   6	   5	   7	   5	   7	   6	   7	   5	   5	   6	   5	   6	   6	   6	   5	   6	   7	   5	   5	   5	   6	   6	   5	   7	   5	   6	   7	   6	   6	   7	 999	   7	   6	   7	   5	   5	   7	   8	   7	   6	   8	   9	   9	   7	   5	   7	   8	   7	   6	   7	   7	   7	   7	   8	   7	   6	   8	   0	
   5	   5	   7	   7	   5	   8	   5	   7	   5	   7	   6	   6	   6	   5	   6	   7	   6	   5	   5	   8	   6	   6	   6	   6	   5	   5	   7	   6	   5	   7	   5	   6	   7	   5	 999	   8	   7	   7	   7	   5	   6	   8	   9	   6	   7	   7	   5	   8	   7	   6	   6	   6	   9	   6	   5	   7	   6	   7	   7	   6	   0	
   6	   7	   6	   7	   7	   6	   6	   8	   7	   8	   6	   6	   6	   7	   7	   7	   5	   6	   8	   6	   6	   6	   5	   5	   7	   6	   8	   6	   7	   8	   8	   7	   8	   6	   7	 999	   6	   6	   6	   8	   6	   6	   5	   6	   7	   7	   7	   6	   6	   7	   6	   7	   6	   7	   7	   5	   7	   5	   6	   7	   0	
   6	   5	   7	   7	   6	   9	   6	   7	   5	   8	   7	   7	   7	   5	   6	   7	   7	   6	   5	   8	   7	   7	   7	   7	   5	   6	   6	   7	   5	   7	   5	   6	   7	   6	   6	   7	 999	   7	   8	   7	   5	   6	   7	   5	   6	   6	   6	   7	   5	   5	   5	   6	   7	   5	   6	   5	   5	   5	   6	   5	   0	
   7	   7	   5	   6	   7	   5	   6	   6	   8	   6	   6	   6	   6	   7	   6	   6	   5	   6	   8	   5	   6	   6	   6	   6	   7	   6	   7	   6	   7	   6	   8	   6	   7	   6	   7	   6	   8	 999	   5	   7	   7	   7	   6	   7	   8	   8	   7	   5	   7	   8	   7	   6	   7	   7	   7	   6	   8	   6	   5	   8	   0	
   5	   6	   5	   6	   5	   7	   5	   6	   6	   6	   5	   5	   6	   6	   5	   6	   5	   5	   7	   7	   5	   6	   5	   7	   6	   5	   7	   5	   6	   6	   6	   6	   7	   5	   6	   6	   6	   6	 999	   7	   8	   7	   6	   8	   9	   9	   8	   5	   8	   8	   7	   6	   7	   7	   8	   7	   8	   7	   6	   8	   0	
   5	   5	   6	   6	   5	   8	   5	   7	   5	   7	   6	   6	   5	   5	   6	   6	   6	   5	   6	   8	   6	   5	   6	   6	   6	   5	   8	   6	   5	   7	   6	   6	   7	   5	   5	   7	   6	   7	   5	 999	   6	   8	   9	   6	   7	   7	   5	   8	   7	   6	   6	   6	   9	   6	   5	   7	   6	   7	   7	   6	   0	
   6	   6	   6	   7	   6	   6	   6	   8	   7	   8	   6	   6	   5	   7	   7	   7	   5	   6	   7	   6	   6	   5	   6	   5	   7	   6	   9	   6	   6	   8	   7	   7	   8	   6	   6	   5	   7	   6	   6	   6	 999	   7	   7	   5	   6	   6	   5	   7	   5	   5	   5	   7	   7	   5	   5	   6	   5	   5	   7	   5	   0	
   6	   5	   7	   7	   5	   8	   6	   7	   5	   8	   6	   7	   6	   5	   6	   7	   7	   6	   5	   8	   6	   6	   7	   7	   5	   6	   7	   6	   5	   6	   5	   6	   7	   6	   5	   7	   5	   8	   6	   5	   7	 999	   5	   7	   6	   6	   7	   7	   6	   7	   7	   7	   5	   7	   7	   5	   7	   6	   6	   7	   0	
   6	   7	   5	   6	   6	   6	   6	   7	   7	   7	   5	   5	   6	   7	   6	   6	   5	   6	   7	   6	   5	   5	   5	   6	   7	   6	   8	   5	   7	   7	   7	   6	   7	   6	   6	   5	   7	   5	   5	   6	   6	   7	 999	   7	   7	   7	   8	   6	   6	   7	   7	   8	   5	   7	   8	   6	   7	   6	   7	   7	   0	
   6	   7	   6	   5	   6	   6	   6	   5	   7	   5	   6	   6	   8	   7	   6	   5	   7	   6	   7	   6	   6	   7	   7	   8	   7	   7	   5	   6	   7	   5	   7	   6	   5	   6	   7	   7	   7	   6	   6	   7	   8	   7	   7	 999	   5	   6	   5	   7	   6	   5	   5	   7	   7	   5	   5	   6	   5	   6	   7	   5	   0	
   7	   8	   6	   6	   8	   5	   7	   6	   8	   6	   6	   6	   7	   8	   7	   6	   6	   7	   9	   5	   6	   7	   6	   7	   8	   7	   7	   6	   8	   6	   9	   7	   6	   7	   8	   6	   8	   5	   7	   8	   6	   8	   6	   6	 999	   5	   6	   8	   6	   6	   6	   8	   7	   6	   6	   7	   5	   7	   8	   5	   0	
   6	   7	   5	   7	   7	   6	   6	   7	   7	   7	   6	   5	   6	   7	   6	   7	   5	   6	   8	   6	   6	   6	   5	   6	   7	   6	   8	   6	   7	   7	   8	   7	   8	   6	   7	   5	   8	   5	   6	   7	   5	   7	   5	   7	   6	 999	   6	   8	   6	   6	   6	   8	   7	   6	   6	   7	   6	   6	   8	   6	   0	
   6	   6	   6	   6	   6	   8	   6	   6	   6	   7	   6	   6	   7	   5	   5	   6	   6	   6	   6	   8	   6	   7	   6	   8	   5	   6	   6	   6	   6	   6	   6	   5	   6	   6	   6	   7	   5	   7	   6	   6	   7	   5	   6	   6	   8	   7	 999	   7	   6	   5	   5	   7	   8	   5	   5	   6	   5	   6	   6	   5	   0	
   7	   7	   7	   5	   7	   6	   6	   5	   7	   5	   7	   7	   8	   7	   6	   5	   7	   7	   8	   6	   6	   8	   7	   8	   7	   7	   5	   6	   7	   5	   7	   6	   5	   7	   7	   8	   7	   6	   6	   7	   8	   7	   7	   5	   6	   7	   6	 999	   7	   8	   6	   6	   6	   6	   7	   6	   8	   6	   6	   8	   0	
   7	   7	   6	   5	   7	   6	   6	   6	   8	   5	   6	   6	   7	   7	   6	   5	   7	   7	   8	   6	   6	   7	   6	   8	   7	   6	   6	   6	   7	   6	   8	   6	   6	   6	   7	   7	   8	   6	   6	   7	   8	   8	   7	   5	   6	   7	   7	   5	 999	   6	   5	   6	   6	   6	   6	   5	   5	   5	   6	   5	   0	
   6	   6	   6	   5	   6	   6	   5	   6	   7	   6	   5	   6	   7	   6	   5	   5	   6	   6	   7	   6	   5	   7	   6	   7	   6	   6	   6	   5	   6	   5	   7	   5	   6	   6	   6	   7	   7	   5	   5	   6	   7	   7	   6	   5	   6	   6	   6	   6	   5	 999	   6	   7	   8	   6	   5	   6	   5	   6	   7	   5	   0	
   7	   7	   5	   6	   7	   5	   6	   7	   8	   7	   6	   5	   6	   7	   6	   6	   5	   6	   8	   5	   6	   6	   6	   6	   7	   6	   8	   6	   7	   7	   8	   6	   7	   6	   7	   5	   8	   5	   6	   7	   6	   8	   5	   7	   5	   5	   7	   7	   7	   6	 999	   6	   7	   5	   5	   6	   6	   5	   6	   6	   0	
   5	   5	   6	   7	   5	   7	   5	   7	   6	   7	   5	   5	   5	   6	   6	   7	   6	   5	   6	   7	   5	   5	   5	   6	   6	   5	   8	   5	   5	   7	   6	   6	   7	   5	   5	   6	   6	   6	   5	   5	   6	   6	   6	   7	   7	   6	   6	   7	   7	   6	   6	 999	   8	   6	   6	   6	   7	   6	   5	   7	   0	
   5	   5	   7	   7	   5	   8	   5	   7	   5	   7	   6	   6	   5	   6	   6	   7	   6	   5	   5	   8	   6	   6	   6	   6	   6	   5	   8	   6	   5	   7	   6	   6	   7	   5	   5	   7	   6	   7	   6	   5	   6	   5	   6	   7	   8	   7	   6	   7	   7	   6	   7	   5	 999	   8	   8	   6	   7	   7	   7	   7	   0	
   6	   6	   6	   6	   6	   8	   6	   6	   6	   7	   6	   6	   7	   5	   5	   7	   7	   6	   6	   8	   6	   7	   6	   8	   5	   6	   6	   6	   6	   6	   5	   5	   6	   6	   6	   7	   5	   7	   6	   6	   7	   6	   6	   6	   8	   7	   5	   6	   7	   6	   7	   7	   6	 999	   5	   6	   6	   6	   6	   6	   0	
   6	   6	   5	   6	   6	   6	   5	   7	   7	   7	   5	   5	   5	   6	   6	   6	   5	   5	   7	   6	   5	   5	   5	   6	   6	   5	   7	   5	   6	   7	   7	   6	   7	   5	   6	   5	   7	   6	   5	   6	   6	   7	   5	   7	   6	   5	   6	   7	   7	   6	   5	   5	   6	   6	 999	   6	   5	   6	   6	   5	   0	
   6	   6	   6	   6	   6	   7	   5	   5	   6	   6	   6	   6	   7	   6	   5	   6	   6	   6	   6	   7	   5	   7	   6	   7	   6	   6	   6	   5	   6	   5	   6	   5	   6	   6	   6	   7	   6	   6	   5	   6	   7	   6	   6	   6	   7	   6	   5	   6	   6	   5	   6	   6	   6	   5	   6	 999	   6	   5	   6	   6	   0	
   6	   6	   7	   7	   6	   8	   6	   6	   6	   7	   6	   6	   7	   5	   5	   7	   6	   6	   5	   8	   6	   7	   6	   8	   5	   6	   6	   6	   6	   6	   5	   6	   6	   6	   6	   7	   5	   7	   6	   6	   7	   5	   7	   7	   8	   7	   5	   7	   7	   6	   7	   6	   6	   5	   6	   6	 999	   6	   7	   5	   0	
   6	   6	   6	   7	   6	   7	   6	   8	   6	   8	   6	   6	   5	   6	   7	   7	   5	   6	   7	   7	   6	   5	   6	   5	   7	   6	   9	   6	   6	   8	   7	   7	   8	   6	   6	   6	   7	   6	   6	   6	   5	   6	   6	   8	   7	   6	   7	   8	   8	   7	   6	   5	   6	   7	   6	   7	   7	 999	   6	   6	   0	
   7	   7	   7	   6	   7	   7	   7	   5	   7	   5	   7	   7	   8	   6	   6	   6	   8	   7	   7	   7	   7	   8	   7	   9	   6	   7	   5	   7	   7	   5	   7	   6	   5	   7	   7	   8	   7	   7	   7	   7	   9	   7	   7	   5	   7	   8	   6	   5	   5	   6	   7	   8	   7	   6	   7	   6	   6	   8	 999	   7	   0	
   6	   6	   5	   6	   6	   6	   5	   7	   7	   7	   5	   5	   6	   6	   6	   6	   5	   6	   7	   6	   5	   5	   5	   6	   6	   5	   7	   5	   6	   7	   7	   6	   7	   5	   6	   5	   7	   5	   5	   6	   6	   7	   5	   7	   6	   5	   6	   7	   6	   6	   5	   6	   6	   6	   5	   6	   6	   6	   7	 999	   0	
   6	   6	   6	   6	   6	   8	   6	   6	   6	   7	   6	   6	   7	   5	   5	   7	   7	   6	   6	   8	   6	   7	   6	   8	   5	   6	   6	   6	   6	   6	   5	   5	   6	   6	   6	   7	   5	   7	   6	   6	   7	   6	   6	   6	   8	   7	   5	   7	   7	   6	   7	   7	   6	   5	   6	   5	   5	   7	   6	   6	 999	

 999	   5	   6	   7	   7	   7	   6	   5	   7	   5	   7	   7	   6	   5	   7	   5	   5	   6	   6	   6	   8	   5	   6	   6	   6	   6	   7	   5	   7	   6	   5	   5	   5	   7	   5	   6	   5	   6	   7	   7	   5	   6	   5	   7	   6	   7	   5	   6	   6	   6	   5	   6	   7	   5	   6	   6	   5	   7	   6	   7	   0	
   6	 999	   7	   7	   7	   7	   6	   5	   7	   5	   7	   7	   6	   6	   7	   6	   6	   6	   6	   7	   8	   5	   7	   5	   6	   7	   7	   5	   8	   6	   5	   5	   5	   7	   5	   5	   6	   6	   7	   7	   5	   6	   6	   8	   6	   7	   6	   7	   6	   6	   5	   6	   6	   5	   6	   7	   6	   7	   7	   7	   0	
   8	   7	 999	   6	   7	   8	   6	   6	   6	   7	   7	   6	   7	   6	   5	   6	   6	   6	   8	   6	   7	   6	   6	   8	   5	   6	   6	   6	   6	   8	   7	   7	   7	   5	   7	   7	   6	   8	   7	   6	   6	   5	   6	   7	   7	   6	   7	   6	   8	   8	   7	   8	   8	   7	   5	   5	   7	   6	   5	   6	   0	
   6	   6	   6	 999	   6	   6	   5	   6	   5	   7	   5	   5	   5	   7	   5	   6	   7	   5	   7	   6	   6	   7	   5	   6	   6	   5	   5	   7	   5	   6	   6	   6	   7	   6	   7	   8	   6	   6	   5	   5	   7	   5	   6	   5	   6	   5	   6	   5	   7	   7	   7	   6	   7	   7	   6	   6	   6	   5	   6	   5	   0	
   6	   5	   6	   5	 999	   5	   6	   7	   6	   7	   5	   6	   6	   7	   7	   6	   7	   6	   6	   7	   5	   7	   6	   6	   7	   6	   6	   8	   6	   6	   7	   7	   7	   8	   8	   8	   6	   5	   5	   6	   7	   6	   6	   5	   6	   6	   6	   6	   6	   6	   7	   5	   6	   7	   7	   7	   6	   6	   7	   6	   0	
   6	   6	   7	   5	   5	 999	   6	   7	   6	   7	   5	   6	   6	   7	   7	   6	   7	   6	   6	   7	   5	   7	   6	   6	   7	   6	   6	   7	   6	   6	   7	   7	   7	   8	   8	   8	   6	   5	   5	   6	   7	   7	   6	   5	   5	   6	   6	   6	   6	   6	   7	   5	   6	   7	   7	   8	   6	   6	   7	   7	   0	
   6	   5	   6	   5	   5	   5	 999	   6	   5	   6	   6	   6	   5	   6	   5	   5	   6	   5	   7	   6	   6	   6	   5	   6	   5	   5	   6	   7	   6	   6	   6	   6	   6	   6	   7	   7	   5	   7	   6	   5	   6	   5	   5	   6	   6	   5	   6	   5	   7	   7	   6	   6	   7	   6	   5	   6	   6	   6	   5	   5	   0	
   6	   6	   7	   7	   7	   7	   7	 999	   7	   5	   7	   7	   6	   5	   7	   5	   5	   6	   6	   6	   8	   5	   6	   6	   6	   6	   7	   5	   7	   6	   5	   5	   5	   7	   5	   6	   5	   6	   6	   7	   5	   6	   5	   7	   6	   7	   5	   6	   6	   7	   5	   6	   7	   5	   5	   6	   5	   7	   6	   7	   0	
   7	   5	   6	   5	   5	   5	   5	   7	 999	   7	   5	   5	   6	   7	   5	   6	   7	   5	   7	   7	   6	   7	   5	   6	   6	   5	   5	   7	   5	   6	   6	   6	   7	   6	   7	   8	   6	   6	   5	   5	   7	   5	   6	   5	   6	   5	   6	   5	   7	   7	   7	   6	   7	   7	   6	   6	   6	   5	   6	   5	   0	
   7	   6	   6	   7	   6	   7	   6	   6	   7	 999	   8	   7	   6	   5	   7	   5	   6	   6	   6	   6	   8	   5	   7	   6	   6	   7	   7	   5	   8	   6	   5	   5	   5	   7	   5	   5	   5	   6	   7	   7	   5	   6	   6	   8	   6	   7	   6	   7	   6	   6	   5	   7	   6	   5	   6	   7	   6	   7	   6	   7	   0	
   5	   5	   8	   6	   6	   6	   6	   6	   6	   7	 999	   6	   6	   7	   6	   7	   7	   6	   6	   7	   5	   7	   6	   7	   6	   5	   5	   8	   5	   6	   7	   7	   7	   7	   8	   8	   7	   6	   5	   5	   8	   6	   6	   5	   6	   5	   6	   6	   6	   6	   8	   6	   6	   7	   7	   7	   6	   5	   6	   6	   0	
   6	   5	   7	   7	   6	   7	   6	   5	   6	   6	   6	 999	   6	   7	   5	   6	   7	   5	   7	   7	   6	   7	   5	   7	   6	   5	   5	   8	   5	   7	   7	   7	   7	   6	   8	   8	   7	   7	   6	   5	   7	   5	   6	   6	   6	   5	   6	   5	   7	   7	   8	   7	   7	   7	   7	   6	   6	   5	   5	   5	   0	
   6	   6	   8	   7	   6	   7	   6	   6	   7	   7	   6	   6	 999	   6	   6	   6	   6	   6	   6	   6	   7	   6	   6	   6	   6	   5	   6	   6	   6	   5	   5	   5	   6	   7	   6	   7	   5	   6	   5	   6	   6	   6	   5	   6	   5	   6	   5	   6	   6	   6	   6	   5	   6	   6	   6	   7	   5	   6	   6	   6	   0	
   6	   5	   7	   7	   6	   7	   6	   5	   6	   6	   5	   5	   6	 999	   7	   5	   5	   6	   7	   6	   8	   5	   7	   6	   6	   7	   7	   5	   8	   6	   5	   5	   5	   6	   5	   5	   5	   7	   7	   7	   5	   6	   6	   8	   6	   7	   6	   7	   7	   7	   6	   6	   7	   6	   5	   6	   6	   7	   6	   7	   0	
   6	   6	   6	   7	   6	   7	   6	   5	   6	   5	   6	   5	   6	   5	 999	   6	   7	   5	   7	   7	   6	   7	   5	   7	   5	   5	   5	   7	   6	   7	   6	   6	   7	   6	   7	   8	   6	   7	   6	   5	   7	   5	   6	   6	   6	   5	   6	   5	   7	   8	   7	   7	   8	   7	   6	   5	   6	   6	   5	   5	   0	
   8	   6	   5	   7	   6	   7	   6	   6	   6	   5	   7	   6	   7	   6	   6	 999	   5	   6	   7	   5	   7	   5	   6	   7	   5	   6	   6	   6	   7	   6	   6	   6	   5	   6	   6	   6	   5	   7	   6	   6	   6	   6	   5	   7	   6	   6	   6	   6	   7	   7	   6	   6	   7	   6	   5	   6	   6	   6	   6	   6	   0	
   7	   6	   6	   8	   7	   8	   7	   5	   7	   5	   7	   5	   6	   6	   5	   5	 999	   6	   7	   5	   8	   5	   7	   7	   6	   7	   7	   5	   7	   7	   6	   6	   6	   6	   5	   6	   5	   7	   7	   7	   5	   6	   5	   7	   6	   7	   6	   7	   7	   7	   6	   7	   7	   6	   5	   6	   6	   7	   6	   7	   0	
   7	   6	   6	   5	   5	   5	   5	   7	   5	   7	   6	   7	   7	   6	   7	   7	   8	 999	   7	   6	   6	   6	   5	   7	   5	   5	   5	   7	   6	   6	   6	   6	   6	   6	   7	   7	   6	   7	   6	   5	   7	   5	   5	   6	   6	   5	   6	   5	   7	   7	   7	   6	   7	   6	   6	   6	   6	   5	   5	   5	   0	
   8	   6	   6	   6	   6	   6	   6	   7	   5	   7	   7	   6	   7	   6	   6	   6	   7	   5	 999	   8	   7	   7	   7	   5	   8	   7	   7	   6	   6	   5	   6	   6	   6	   8	   6	   6	   7	   5	   6	   7	   7	   7	   7	   6	   6	   7	   6	   7	   5	   5	   6	   5	   5	   6	   7	   8	   6	   6	   8	   7	   0	
   6	   5	   7	   6	   5	   6	   5	   6	   6	   6	   5	   6	   6	   5	   6	   6	   6	   6	   6	 999	   8	   6	   6	   7	   6	   6	   7	   6	   7	   7	   6	   6	   6	   6	   6	   6	   6	   8	   6	   7	   6	   6	   5	   7	   7	   7	   7	   6	   8	   8	   7	   7	   8	   7	   5	   6	   7	   7	   6	   7	   0	
   8	   6	   5	   7	   6	   7	   6	   7	   6	   5	   7	   7	   8	   6	   6	   5	   6	   7	   7	   7	 999	   8	   6	   7	   6	   6	   5	   8	   5	   7	   7	   7	   8	   7	   8	   9	   7	   6	   6	   6	   8	   6	   7	   5	   6	   5	   7	   6	   7	   7	   8	   6	   6	   8	   7	   7	   7	   5	   6	   6	   0	
   6	   5	   7	   5	   5	   5	   5	   7	   6	   6	   5	   6	   6	   6	   6	   6	   7	   6	   6	   5	   7	 999	   7	   6	   6	   7	   7	   5	   8	   6	   5	   5	   5	   6	   5	   5	   5	   6	   7	   7	   5	   6	   6	   8	   6	   7	   6	   7	   7	   7	   5	   6	   7	   6	   5	   6	   6	   7	   6	   7	   0	
   6	   5	   7	   5	   5	   5	   5	   7	   6	   6	   5	   6	   6	   6	   6	   6	   7	   5	   6	   5	   6	   5	 999	   7	   5	   5	   5	   7	   5	   7	   6	   6	   7	   6	   7	   7	   6	   7	   6	   5	   7	   5	   6	   6	   6	   5	   6	   5	   7	   7	   7	   7	   7	   6	   6	   6	   6	   5	   5	   5	   0	
   9	   7	   5	   7	   7	   7	   7	   7	   6	   6	   8	   7	   8	   7	   7	   6	   6	   6	   6	   7	   6	   7	   7	 999	   7	   6	   7	   6	   7	   5	   5	   5	   6	   8	   6	   6	   6	   6	   6	   6	   6	   7	   6	   7	   5	   6	   5	   7	   5	   5	   6	   6	   5	   5	   7	   8	   5	   7	   7	   7	   0	
   7	   6	   6	   5	   5	   5	   5	   7	   5	   7	   6	   7	   7	   6	   7	   7	   8	   5	   5	   6	   7	   6	   5	   6	 999	   5	   6	   6	   6	   7	   6	   6	   6	   5	   7	   7	   5	   7	   6	   5	   6	   5	   5	   6	   7	   6	   6	   5	   8	   8	   6	   7	   8	   7	   5	   5	   6	   6	   5	   5	   0	
   5	   6	   8	   6	   6	   6	   6	   6	   7	   7	   5	   6	   5	   6	   6	   7	   7	   7	   8	   6	   8	   6	   6	   9	   7	 999	   5	   7	   5	   6	   6	   6	   6	   6	   7	   7	   6	   7	   5	   5	   7	   5	   6	   5	   6	   5	   6	   5	   7	   7	   7	   6	   7	   6	   6	   6	   6	   5	   6	   5	   0	
   9	   7	   5	   7	   7	   7	   7	   7	   6	   6	   8	   7	   8	   7	   7	   6	   6	   6	   5	   7	   6	   7	   7	   5	   6	   9	 999	   8	   5	   6	   7	   7	   7	   6	   8	   8	   7	   7	   5	   5	   7	   5	   6	   5	   6	   5	   6	   5	   7	   7	   8	   6	   7	   7	   7	   6	   6	   5	   6	   5	   0	
   5	   6	   8	   6	   6	   6	   6	   6	   7	   7	   5	   6	   5	   6	   6	   7	   6	   6	   7	   5	   8	   6	   6	   8	   7	   5	   8	 999	   8	   6	   5	   5	   5	   7	   5	   5	   6	   7	   7	   7	   5	   7	   6	   8	   7	   7	   6	   7	   6	   7	   5	   7	   7	   5	   6	   7	   6	   8	   7	   7	   0	
   8	   6	   5	   7	   6	   7	   6	   6	   6	   5	   7	   6	   7	   6	   6	   5	   6	   6	   6	   6	   5	   6	   6	   5	   6	   8	   5	   7	 999	   6	   7	   7	   7	   7	   8	   8	   7	   6	   5	   5	   8	   6	   6	   5	   6	   5	   6	   5	   6	   7	   8	   6	   7	   7	   7	   6	   6	   5	   6	   5	   0	
   6	   5	   6	   6	   6	   6	   6	   6	   6	   5	   6	   5	   6	   5	   5	   6	   6	   6	   6	   5	   6	   6	   6	   7	   6	   6	   7	   6	   6	 999	   5	   5	   6	   8	   6	   7	   6	   5	   6	   6	   6	   7	   6	   6	   5	   6	   5	   7	   5	   5	   6	   5	   5	   5	   7	   8	   5	   6	   7	   7	   0	
   5	   6	   8	   7	   6	   7	   6	   5	   7	   7	   5	   6	   5	   6	   6	   7	   6	   7	   7	   5	   8	   6	   6	   8	   7	   5	   8	   5	   7	   6	 999	   5	   5	   7	   6	   6	   5	   6	   6	   6	   5	   6	   6	   7	   6	   7	   5	   6	   6	   6	   5	   6	   6	   5	   6	   7	   5	   7	   6	   6	   0	
   7	   6	   6	   7	   6	   7	   6	   6	   6	   5	   6	   6	   7	   5	   5	   5	   5	   7	   6	   6	   6	   6	   6	   6	   7	   7	   6	   7	   5	   5	   7	 999	   5	   7	   5	   6	   5	   6	   6	   6	   5	   6	   6	   7	   6	   7	   5	   6	   6	   6	   5	   6	   6	   5	   6	   7	   5	   7	   6	   7	   0	
   7	   6	   6	   7	   6	   7	   6	   6	   7	   5	   6	   6	   7	   6	   5	   5	   5	   7	   7	   6	   5	   6	   6	   6	   7	   7	   6	   7	   5	   5	   7	   5	 999	   7	   5	   5	   5	   6	   7	   7	   5	   6	   5	   7	   6	   7	   6	   6	   6	   6	   5	   6	   6	   5	   6	   7	   5	   7	   6	   7	   0	
   7	   6	   7	   5	   6	   5	   6	   8	   6	   8	   6	   7	   7	   7	   7	   7	   8	   5	   6	   6	   8	   6	   6	   7	   5	   7	   7	   7	   7	   7	   7	   7	   8	 999	   7	   7	   6	   8	   7	   6	   6	   6	   6	   7	   7	   6	   7	   6	   8	   9	   7	   8	   9	   7	   6	   5	   7	   7	   5	   6	   0	
   6	   6	   7	   5	   6	   5	   6	   8	   6	   8	   6	   7	   7	   7	   7	   7	   8	   6	   6	   6	   7	   6	   6	   7	   6	   6	   7	   7	   7	   7	   7	   7	   7	   5	 999	   5	   6	   7	   7	   7	   5	   7	   6	   8	   7	   8	   6	   7	   6	   7	   5	   7	   7	   5	   6	   7	   6	   8	   7	   7	   0	
   5	   6	   8	   6	   6	   6	   6	   6	   7	   7	   5	   6	   5	   6	   6	   7	   7	   7	   8	   6	   8	   6	   6	   9	   7	   5	   8	   5	   8	   6	   5	   7	   7	   7	   6	 999	   6	   7	   8	   8	   5	   7	   6	   8	   7	   8	   6	   7	   7	   7	   5	   7	   7	   6	   6	   7	   6	   8	   7	   8	   0	
   6	   6	   7	   7	   6	   7	   6	   5	   7	   6	   6	   5	   6	   5	   5	   6	   5	   7	   7	   6	   7	   6	   6	   7	   7	   6	   7	   6	   6	   5	   6	   6	   6	   8	   7	   6	 999	   7	   6	   6	   5	   6	   5	   7	   6	   6	   6	   6	   7	   7	   6	   6	   7	   6	   5	   6	   6	   7	   6	   6	   0	
   8	   7	   5	   7	   7	   7	   7	   7	   6	   6	   8	   7	   8	   7	   7	   6	   7	   6	   5	   7	   6	   7	   7	   5	   6	   8	   5	   8	   6	   7	   8	   6	   6	   6	   7	   8	   7	 999	   6	   7	   7	   7	   7	   6	   5	   7	   6	   7	   5	   5	   7	   5	   5	   6	   7	   8	   6	   6	   8	   7	   0	
   7	   6	   6	   7	   6	   7	   6	   6	   6	   5	   6	   6	   7	   6	   5	   5	   5	   7	   6	   6	   5	   6	   6	   6	   7	   7	   6	   7	   5	   5	   7	   5	   5	   7	   7	   7	   6	   6	 999	   5	   7	   6	   6	   5	   5	   5	   6	   6	   6	   6	   7	   5	   6	   7	   6	   7	   6	   5	   6	   6	   0	
   7	   6	   6	   8	   7	   8	   7	   5	   7	   5	   6	   5	   6	   6	   5	   5	   5	   7	   7	   6	   6	   7	   7	   7	   7	   7	   6	   6	   6	   6	   6	   5	   5	   8	   8	   7	   5	   7	   5	 999	   7	   5	   6	   5	   6	   5	   6	   5	   7	   7	   7	   6	   7	   7	   6	   6	   6	   5	   6	   5	   0	
   7	   5	   6	   6	   5	   6	   5	   6	   6	   5	   6	   5	   6	   5	   5	   6	   6	   6	   6	   5	   6	   6	   5	   7	   6	   6	   7	   6	   6	   5	   6	   5	   5	   7	   7	   6	   5	   6	   5	   6	 999	   7	   6	   8	   6	   7	   6	   7	   7	   7	   5	   7	   7	   6	   5	   6	   6	   7	   7	   7	   0	
   5	   6	   8	   6	   6	   5	   6	   7	   6	   7	   5	   6	   6	   6	   6	   7	   7	   6	   7	   5	   7	   5	   5	   8	   6	   5	   8	   6	   7	   6	   6	   6	   6	   6	   6	   5	   6	   8	   7	   7	   6	 999	   5	   6	   6	   5	   6	   5	   7	   7	   7	   7	   7	   6	   6	   5	   6	   5	   5	   5	   0	
   7	   6	   6	   5	   5	   6	   5	   7	   5	   7	   6	   7	   7	   7	   7	   7	   8	   5	   5	   6	   7	   6	   6	   6	   5	   7	   6	   7	   7	   6	   7	   7	   7	   5	   6	   7	   7	   6	   7	   8	   6	   7	 999	   6	   6	   6	   6	   6	   7	   7	   6	   6	   7	   6	   5	   6	   6	   6	   5	   6	   0	
   6	   6	   6	   7	   6	   7	   6	   5	   6	   5	   6	   5	   6	   5	   5	   6	   5	   7	   6	   6	   6	   6	   6	   7	   7	   6	   7	   6	   6	   5	   6	   5	   5	   7	   7	   6	   5	   7	   5	   5	   5	   6	   7	 999	   6	   5	   6	   6	   6	   6	   8	   6	   6	   7	   7	   7	   6	   5	   6	   6	   0	
   8	   6	   5	   6	   6	   6	   6	   7	   6	   6	   7	   7	   8	   6	   6	   5	   6	   6	   6	   7	   5	   7	   6	   5	   6	   8	   5	   8	   5	   6	   8	   6	   5	   7	   7	   8	   7	   5	   5	   6	   6	   7	   6	   6	 999	   6	   5	   6	   5	   6	   6	   5	   6	   6	   6	   7	   5	   6	   7	   6	   0	
   6	   5	   7	   6	   5	   5	   5	   6	   6	   6	   5	   6	   6	   6	   6	   6	   7	   6	   6	   5	   7	   5	   5	   7	   6	   6	   7	   5	   6	   5	   6	   6	   6	   6	   6	   6	   6	   7	   6	   7	   5	   5	   6	   6	   7	 999	   6	   5	   7	   7	   7	   6	   7	   7	   6	   6	   6	   5	   6	   5	   0	
   7	   5	   6	   5	   5	   5	   5	   7	   5	   7	   6	   6	   7	   6	   6	   6	   7	   5	   5	   6	   7	   6	   5	   6	   5	   7	   6	   6	   6	   6	   7	   6	   7	   6	   6	   7	   7	   6	   6	   7	   6	   6	   5	   6	   6	   6	 999	   6	   6	   6	   6	   5	   6	   5	   6	   7	   5	   6	   7	   6	   0	
   7	   6	   7	   5	   6	   5	   6	   8	   6	   8	   6	   7	   7	   7	   8	   7	   8	   5	   6	   6	   8	   6	   6	   7	   5	   7	   6	   7	   7	   7	   7	   7	   8	   5	   6	   7	   8	   6	   7	   8	   7	   6	   5	   7	   7	   6	   6	 999	   7	   7	   7	   7	   7	   6	   6	   6	   6	   5	   5	   5	   0	
   7	   5	   6	   6	   5	   6	   5	   6	   6	   6	   6	   5	   6	   5	   5	   5	   6	   6	   6	   5	   6	   5	   5	   7	   6	   7	   6	   6	   6	   5	   6	   5	   5	   7	   6	   6	   6	   6	   5	   6	   5	   6	   6	   5	   6	   5	   6	   7	 999	   5	   6	   5	   5	   6	   7	   8	   6	   6	   8	   7	   0	
   5	   6	   8	   6	   6	   6	   6	   6	   7	   7	   5	   6	   6	   6	   6	   7	   7	   6	   7	   5	   7	   5	   6	   8	   6	   5	   8	   5	   7	   6	   6	   6	   7	   6	   6	   5	   6	   8	   7	   7	   6	   5	   7	   6	   7	   5	   6	   6	   6	 999	   6	   5	   5	   6	   8	   8	   6	   7	   8	   7	   0	
   8	   6	   5	   6	   6	   6	   6	   6	   6	   5	   7	   6	   7	   6	   6	   5	   6	   6	   6	   6	   5	   6	   6	   6	   6	   8	   6	   7	   5	   6	   7	   5	   5	   7	   7	   7	   6	   5	   5	   6	   6	   7	   6	   6	   5	   6	   6	   7	   5	   7	 999	   7	   6	   5	   6	   7	   6	   8	   7	   7	   0	
   6	   5	   7	   6	   5	   6	   5	   6	   6	   6	   5	   5	   6	   5	   5	   6	   6	   6	   6	   5	   6	   5	   5	   7	   6	   6	   7	   6	   6	   5	   6	   5	   6	   7	   6	   6	   6	   7	   6	   6	   5	   5	   6	   5	   7	   5	   6	   7	   5	   5	   6	 999	   5	   6	   7	   8	   5	   6	   7	   7	   0	
   6	   5	   7	   7	   6	   7	   6	   5	   6	   6	   6	   5	   6	   5	   5	   6	   6	   6	   6	   5	   6	   6	   6	   7	   7	   6	   7	   6	   6	   5	   6	   5	   6	   7	   7	   6	   5	   7	   6	   5	   5	   6	   7	   5	   6	   6	   6	   7	   5	   6	   6	   5	 999	   6	   8	   8	   6	   7	   8	   7	   0	
   6	   6	   7	   5	   6	   5	   6	   8	   6	   7	   6	   7	   7	   7	   7	   7	   8	   6	   6	   6	   7	   5	   5	   7	   6	   6	   7	   7	   7	   7	   7	   7	   7	   5	   5	   6	   7	   7	   7	   8	   6	   5	   6	   7	   7	   6	   6	   6	   6	   6	   6	   6	   7	 999	   6	   7	   5	   7	   7	   7	   0	
   7	   7	   6	   8	   7	   8	   7	   5	   8	   5	   7	   6	   6	   6	   6	   6	   5	   8	   8	   7	   6	   7	   7	   7	   8	   7	   7	   6	   6	   6	   6	   6	   6	   9	   8	   7	   6	   7	   6	   5	   6	   7	   8	   6	   6	   7	   8	   9	   7	   7	   6	   7	   6	   8	 999	   5	   6	   7	   6	   6	   0	
   8	   7	   5	   7	   6	   7	   6	   7	   6	   6	   8	   7	   8	   7	   6	   5	   6	   6	   6	   7	   5	   7	   7	   5	   6	   8	   5	   8	   5	   6	   8	   6	   6	   7	   7	   8	   7	   5	   6	   6	   6	   8	   6	   6	   5	   7	   6	   7	   6	   8	   5	   7	   7	   7	   6	 999	   7	   6	   5	   6	   0	
   9	   7	   5	   7	   7	   7	   7	   7	   6	   6	   8	   7	   8	   7	   7	   6	   6	   6	   6	   7	   6	   7	   7	   5	   6	   8	   5	   8	   5	   7	   8	   6	   6	   7	   7	   8	   7	   5	   6	   6	   7	   8	   6	   7	   5	   7	   6	   7	   6	   8	   5	   7	   7	   7	   7	   5	 999	   6	   7	   6	   0	
   7	   6	   7	   5	   6	   5	   6	   8	   6	   8	   6	   7	   7	   7	   7	   7	   8	   5	   6	   6	   8	   6	   6	   7	   5	   7	   7	   7	   7	   7	   7	   7	   8	   5	   5	   7	   8	   6	   7	   8	   7	   6	   5	   7	   7	   6	   6	   5	   7	   6	   7	   7	   7	   5	   9	   7	   7	 999	   6	   5	   0	
   7	   6	   6	   5	   6	   5	   6	   8	   5	   7	   6	   7	   7	   7	   7	   7	   8	   5	   5	   6	   7	   6	   5	   6	   5	   7	   6	   7	   7	   7	   7	   7	   7	   5	   6	   7	   7	   6	   7	   8	   6	   6	   5	   7	   6	   6	   5	   5	   6	   6	   6	   6	   7	   6	   8	   7	   6	   5	 999	   5	   0	
   7	   5	   6	   6	   5	   5	   5	   6	   5	   6	   6	   6	   6	   6	   6	   6	   7	   5	   5	   5	   6	   5	   5	   6	   5	   7	   6	   6	   6	   5	   6	   6	   6	   6	   6	   7	   6	   6	   6	   7	   5	   6	   5	   6	   6	   5	   5	   6	   5	   6	   5	   5	   6	   6	   7	   6	   6	   6	   6	 999	   0	
   5	   5	   8	   6	   6	   6	   6	   6	   6	   7	   5	   6	   6	   6	   6	   7	   7	   6	   7	   5	   7	   5	   5	   8	   6	   5	   8	   5	   7	   6	   6	   6	   6	   6	   6	   5	   6	   8	   6	   7	   6	   5	   6	   6	   7	   5	   6	   6	   6	   5	   7	   5	   6	   6	   7	   8	   8	   6	   6	   6	 999	

 999	   6	   6	   6	   6	   6	   6	   6	   6	   6	   6	   6	   6	   5	   6	   6	   6	   6	   6	   7	   7	   6	   5	   6	   6	   6	   6	   6	   6	   6	   5	   6	   7	   6	   7	   5	   6	   6	   5	   7	   6	   5	   6	   7	   5	   6	   5	   5	   6	   6	   6	   6	   6	   5	   6	   5	   6	   6	   5	   5	   0	
   6	 999	   5	   6	   5	   5	   5	   5	   6	   7	   6	   6	   7	   6	   8	   5	   7	   6	   7	   7	   8	   7	   6	   5	   7	   7	   5	   7	   7	   7	   6	   7	   5	   7	   5	   6	   5	   7	   6	   6	   5	   6	   7	   8	   7	   7	   6	   7	   7	   7	   8	   8	   8	   6	   7	   6	   7	   5	   6	   6	   0	
   5	   6	 999	   5	   5	   5	   5	   5	   6	   7	   6	   6	   7	   6	   7	   5	   7	   6	   7	   7	   8	   7	   6	   5	   7	   7	   5	   7	   7	   7	   5	   7	   6	   7	   5	   6	   5	   7	   6	   6	   5	   5	   7	   8	   6	   7	   6	   6	   7	   7	   7	   8	   7	   6	   7	   5	   7	   5	   6	   6	   0	
   5	   6	   5	 999	   5	   6	   6	   6	   5	   6	   5	   6	   6	   6	   6	   5	   6	   5	   6	   6	   7	   6	   5	   6	   6	   6	   6	   6	   7	   6	   6	   6	   6	   6	   6	   5	   6	   8	   6	   6	   6	   6	   7	   7	   6	   8	   7	   6	   7	   6	   6	   7	   7	   7	   6	   5	   6	   5	   6	   6	   0	
   7	   6	   7	   7	 999	   5	   5	   6	   6	   7	   6	   6	   7	   6	   7	   5	   7	   6	   7	   7	   8	   7	   6	   5	   7	   7	   5	   7	   7	   7	   5	   7	   6	   7	   6	   6	   6	   7	   6	   6	   5	   5	   7	   8	   6	   7	   6	   6	   7	   7	   7	   8	   7	   6	   7	   5	   7	   5	   6	   6	   0	
   6	   5	   5	   5	   6	 999	   5	   5	   6	   7	   6	   5	   7	   6	   7	   5	   7	   6	   7	   7	   8	   7	   6	   5	   7	   7	   5	   7	   6	   7	   6	   7	   5	   7	   5	   6	   5	   7	   6	   7	   5	   5	   7	   8	   6	   7	   6	   7	   7	   7	   7	   8	   8	   6	   7	   6	   7	   5	   6	   6	   0	
   6	   5	   6	   6	   6	   5	 999	   5	   6	   7	   6	   6	   7	   7	   8	   6	   7	   7	   8	   7	   8	   8	   6	   5	   8	   8	   5	   8	   7	   8	   6	   7	   5	   7	   5	   6	   5	   7	   6	   6	   5	   6	   7	   9	   7	   7	   7	   7	   7	   7	   8	   8	   8	   6	   7	   6	   7	   5	   7	   7	   0	
   5	   6	   5	   5	   7	   5	   6	 999	   6	   7	   6	   5	   7	   6	   7	   6	   7	   6	   7	   7	   8	   7	   6	   5	   7	   7	   5	   7	   6	   7	   5	   7	   6	   7	   5	   6	   5	   6	   5	   7	   5	   5	   7	   8	   6	   6	   6	   6	   7	   7	   7	   8	   7	   6	   7	   5	   7	   5	   6	   6	   0	
   5	   7	   5	   5	   7	   6	   7	   5	 999	   6	   5	   6	   6	   6	   6	   5	   6	   5	   6	   6	   7	   6	   5	   6	   6	   6	   6	   6	   7	   6	   6	   6	   7	   6	   6	   5	   6	   8	   7	   6	   6	   6	   7	   7	   6	   8	   7	   6	   7	   6	   6	   6	   6	   7	   6	   6	   6	   5	   6	   6	   0	
   6	   6	   5	   5	   6	   5	   6	   5	   6	 999	   6	   7	   5	   5	   5	   6	   5	   6	   5	   7	   6	   5	   5	   7	   6	   5	   7	   5	   6	   5	   6	   5	   8	   5	   8	   6	   7	   6	   6	   7	   7	   6	   5	   6	   5	   6	   5	   5	   5	   5	   5	   5	   6	   6	   5	   6	   6	   7	   5	   5	   0	
   7	   6	   7	   7	   5	   6	   6	   7	   7	   6	 999	   6	   6	   5	   6	   5	   6	   5	   6	   6	   7	   6	   5	   6	   6	   6	   6	   6	   7	   6	   6	   6	   7	   6	   6	   5	   6	   8	   6	   6	   6	   6	   7	   7	   6	   7	   6	   6	   6	   6	   6	   6	   6	   6	   6	   5	   6	   5	   6	   6	   0	
   5	   6	   5	   5	   7	   6	   6	   5	   5	   6	   7	 999	   7	   6	   8	   6	   7	   6	   7	   7	   8	   7	   6	   6	   7	   7	   5	   7	   6	   7	   6	   7	   5	   7	   5	   6	   5	   6	   6	   7	   5	   6	   7	   8	   7	   6	   6	   7	   7	   7	   8	   8	   8	   6	   7	   6	   7	   5	   6	   6	   0	
   7	   5	   7	   7	   7	   6	   5	   7	   8	   7	   7	   7	 999	   5	   5	   6	   5	   6	   5	   7	   6	   6	   5	   7	   6	   5	   7	   5	   6	   5	   6	   5	   8	   6	   8	   6	   7	   6	   6	   7	   7	   6	   5	   6	   5	   6	   5	   5	   5	   6	   5	   5	   6	   6	   5	   6	   6	   7	   5	   5	   0	
   6	   7	   6	   6	   6	   6	   7	   5	   5	   6	   6	   6	   8	 999	   6	   6	   5	   6	   5	   6	   6	   5	   5	   7	   6	   5	   7	   6	   6	   5	   5	   5	   7	   5	   7	   5	   7	   7	   5	   7	   6	   5	   6	   6	   5	   6	   5	   5	   6	   5	   6	   6	   6	   5	   5	   5	   6	   6	   5	   5	   0	
   7	   5	   7	   7	   7	   6	   6	   7	   7	   6	   7	   7	   5	   8	 999	   7	   5	   6	   5	   7	   6	   6	   6	   8	   6	   5	   8	   5	   7	   5	   6	   5	   8	   5	   8	   6	   8	   6	   7	   7	   8	   7	   5	   5	   5	   6	   6	   5	   5	   5	   5	   5	   6	   6	   5	   6	   6	   7	   6	   6	   0	
   7	   6	   6	   6	   6	   6	   5	   7	   7	   6	   6	   7	   6	   8	   6	 999	   6	   6	   6	   6	   7	   7	   5	   6	   7	   7	   5	   7	   7	   7	   6	   6	   6	   6	   6	   5	   6	   7	   6	   6	   5	   6	   6	   8	   6	   7	   6	   6	   6	   6	   7	   7	   7	   6	   6	   5	   6	   5	   6	   6	   0	
   6	   6	   6	   6	   7	   6	   6	   6	   7	   6	   7	   6	   6	   7	   5	   7	 999	   6	   5	   7	   6	   6	   6	   8	   6	   5	   7	   5	   6	   5	   6	   5	   8	   6	   8	   6	   7	   6	   6	   7	   7	   6	   5	   6	   5	   6	   5	   5	   5	   6	   5	   5	   6	   6	   5	   6	   6	   7	   5	   5	   0	
   7	   5	   6	   6	   6	   5	   5	   6	   7	   6	   6	   7	   6	   7	   6	   5	   6	 999	   6	   5	   6	   5	   5	   7	   5	   6	   7	   6	   7	   6	   6	   6	   7	   5	   7	   5	   7	   8	   7	   5	   6	   6	   7	   6	   7	   8	   7	   6	   7	   5	   6	   6	   6	   7	   6	   6	   5	   6	   6	   6	   0	
   6	   6	   6	   6	   7	   6	   6	   6	   7	   6	   7	   6	   6	   7	   5	   7	   5	   7	 999	   7	   5	   6	   6	   8	   6	   5	   7	   5	   6	   5	   6	   5	   8	   5	   8	   6	   7	   6	   6	   7	   7	   6	   5	   6	   5	   6	   6	   5	   5	   5	   5	   5	   6	   6	   5	   6	   6	   7	   6	   6	   0	
   6	   5	   5	   5	   6	   5	   5	   6	   6	   5	   6	   6	   6	   7	   6	   6	   6	   5	   6	 999	   6	   6	   6	   7	   5	   6	   7	   7	   8	   7	   6	   6	   8	   6	   8	   6	   7	   8	   7	   6	   7	   6	   7	   6	   7	   8	   7	   6	   7	   6	   6	   7	   5	   7	   7	   6	   5	   7	   7	   6	   0	
   5	   7	   6	   6	   8	   7	   7	   6	   6	   7	   8	   5	   7	   7	   6	   8	   6	   7	   6	   7	 999	   5	   7	   8	   5	   5	   8	   5	   7	   6	   7	   5	   9	   5	   9	   7	   8	   7	   7	   7	   8	   7	   6	   5	   6	   7	   6	   6	   6	   5	   5	   6	   5	   7	   6	   7	   6	   8	   6	   6	   0	
   8	   6	   7	   7	   5	   6	   6	   7	   7	   6	   5	   8	   7	   6	   7	   7	   7	   6	   8	   6	   8	 999	   6	   8	   5	   5	   7	   6	   7	   6	   6	   5	   8	   5	   8	   6	   8	   7	   6	   6	   7	   6	   6	   6	   6	   7	   6	   5	   6	   5	   5	   6	   5	   6	   5	   6	   5	   7	   6	   6	   0	
   6	   5	   6	   6	   6	   6	   5	   6	   7	   6	   6	   7	   5	   7	   6	   5	   6	   5	   7	   5	   7	   6	 999	   6	   6	   6	   6	   6	   7	   6	   5	   6	   7	   6	   7	   5	   6	   7	   6	   6	   6	   5	   6	   7	   6	   7	   6	   5	   6	   6	   6	   6	   6	   6	   5	   5	   5	   6	   5	   5	   0	
   7	   5	   6	   6	   6	   6	   5	   7	   7	   6	   6	   7	   5	   8	   5	   6	   6	   5	   6	   6	   7	   7	   5	 999	   8	   8	   5	   8	   7	   8	   6	   8	   5	   8	   5	   6	   5	   7	   6	   6	   5	   6	   8	   9	   7	   7	   7	   7	   8	   8	   8	   8	   8	   6	   7	   6	   7	   5	   7	   7	   0	
   6	   6	   6	   6	   8	   6	   7	   6	   6	   7	   8	   6	   6	   7	   6	   7	   5	   7	   5	   7	   5	   8	   7	   6	 999	   5	   7	   6	   7	   6	   6	   5	   8	   5	   8	   6	   7	   8	   7	   6	   7	   6	   7	   6	   6	   8	   7	   6	   7	   5	   5	   6	   5	   7	   6	   6	   5	   7	   6	   6	   0	
   6	   6	   6	   6	   5	   5	   6	   6	   6	   5	   5	   6	   7	   6	   6	   6	   6	   6	   6	   5	   7	   6	   6	   6	   7	 999	   7	   5	   6	   5	   6	   5	   8	   5	   8	   6	   8	   7	   6	   6	   7	   6	   6	   6	   6	   7	   6	   5	   6	   5	   5	   5	   5	   6	   5	   6	   6	   7	   6	   6	   0	
   7	   6	   6	   6	   5	   6	   5	   6	   7	   6	   6	   7	   6	   7	   7	   5	   7	   5	   7	   6	   8	   6	   5	   6	   8	   5	 999	   8	   6	   7	   6	   7	   5	   7	   5	   6	   5	   7	   6	   6	   5	   6	   7	   8	   7	   7	   6	   7	   7	   7	   8	   8	   8	   6	   7	   6	   7	   5	   6	   6	   0	
   5	   6	   5	   5	   7	   5	   6	   5	   5	   6	   7	   5	   7	   6	   7	   7	   6	   6	   6	   6	   6	   7	   6	   7	   6	   6	   7	 999	   6	   5	   6	   5	   8	   5	   8	   6	   8	   6	   6	   7	   7	   6	   5	   5	   5	   6	   6	   5	   5	   5	   5	   5	   6	   6	   5	   6	   6	   7	   6	   6	   0	
   5	   7	   5	   5	   6	   6	   7	   5	   5	   6	   7	   5	   8	   5	   7	   7	   7	   7	   7	   6	   6	   7	   7	   7	   7	   6	   6	   5	 999	   6	   6	   6	   6	   7	   6	   7	   6	   5	   5	   8	   6	   6	   6	   7	   6	   5	   5	   6	   6	   7	   7	   7	   7	   5	   6	   6	   7	   6	   6	   6	   0	
   7	   5	   7	   7	   7	   6	   5	   7	   7	   7	   7	   7	   5	   8	   6	   5	   6	   5	   6	   6	   7	   7	   5	   5	   7	   6	   6	   7	   8	 999	   6	   5	   8	   6	   8	   6	   8	   6	   6	   7	   7	   6	   5	   6	   5	   6	   6	   5	   5	   6	   5	   5	   6	   6	   5	   6	   6	   7	   6	   6	   0	
   5	   7	   5	   5	   7	   6	   7	   5	   5	   6	   7	   5	   8	   5	   7	   7	   7	   7	   7	   6	   6	   7	   7	   7	   7	   6	   7	   5	   5	   8	 999	   6	   6	   6	   6	   5	   6	   6	   5	   7	   6	   5	   6	   7	   5	   6	   5	   5	   6	   6	   6	   7	   6	   5	   6	   5	   6	   5	   5	   5	   0	
   6	   6	   6	   6	   8	   7	   7	   6	   6	   7	   8	   5	   7	   7	   6	   8	   5	   7	   5	   7	   5	   8	   7	   7	   5	   7	   8	   6	   6	   7	   6	 999	   8	   5	   8	   6	   7	   7	   6	   6	   7	   6	   6	   6	   6	   7	   6	   5	   6	   5	   5	   5	   5	   6	   5	   6	   6	   7	   5	   5	   0	
   5	   6	   5	   5	   7	   5	   6	   5	   5	   6	   7	   5	   7	   6	   6	   6	   6	   6	   6	   6	   6	   7	   6	   6	   6	   6	   7	   5	   6	   7	   6	   6	 999	   8	   5	   7	   5	   7	   6	   7	   5	   6	   8	   9	   7	   7	   7	   7	   8	   8	   8	   9	   8	   7	   8	   6	   8	   6	   7	   7	   0	
   8	   7	   7	   7	   5	   7	   6	   7	   8	   7	   5	   8	   7	   7	   8	   6	   8	   6	   8	   7	   9	   6	   6	   7	   9	   6	   6	   8	   7	   7	   8	   9	   8	 999	   8	   6	   7	   7	   6	   6	   7	   6	   6	   6	   6	   7	   6	   5	   6	   5	   5	   6	   5	   6	   5	   6	   5	   7	   5	   5	   0	
   6	   5	   5	   5	   6	   5	   5	   6	   6	   5	   6	   6	   6	   6	   6	   6	   6	   5	   6	   5	   7	   6	   5	   6	   6	   5	   6	   5	   6	   6	   6	   7	   5	   7	 999	   7	   5	   7	   6	   7	   5	   6	   8	   9	   7	   6	   7	   7	   8	   8	   8	   8	   8	   6	   8	   6	   8	   6	   7	   7	   0	
   7	   6	   7	   7	   7	   6	   6	   7	   8	   7	   7	   7	   5	   8	   5	   6	   6	   6	   6	   6	   7	   7	   6	   5	   6	   7	   6	   7	   8	   5	   8	   6	   7	   7	   6	 999	   6	   7	   6	   6	   6	   5	   6	   7	   6	   7	   6	   5	   6	   6	   6	   6	   6	   6	   6	   5	   6	   6	   5	   5	   0	
   7	   6	   7	   7	   7	   7	   6	   7	   8	   7	   7	   7	   5	   8	   5	   5	   6	   6	   6	   6	   7	   7	   5	   5	   6	   7	   6	   7	   8	   5	   8	   7	   7	   7	   6	   5	 999	   7	   6	   7	   5	   6	   7	   9	   7	   6	   6	   7	   7	   7	   8	   8	   8	   6	   7	   6	   7	   5	   6	   6	   0	
   5	   7	   5	   5	   7	   6	   7	   5	   5	   6	   7	   5	   8	   5	   7	   7	   7	   7	   7	   6	   6	   7	   7	   7	   7	   6	   7	   5	   5	   8	   5	   6	   6	   8	   6	   8	   8	 999	   6	   9	   7	   6	   6	   7	   6	   5	   6	   6	   6	   7	   7	   6	   7	   6	   6	   7	   8	   7	   6	   6	   0	
   5	   6	   5	   5	   6	   5	   6	   5	   5	   5	   6	   5	   7	   6	   6	   6	   6	   6	   6	   5	   6	   7	   6	   6	   6	   6	   6	   5	   5	   7	   5	   6	   5	   7	   5	   7	   7	   5	 999	   8	   6	   5	   6	   7	   6	   6	   5	   6	   6	   6	   7	   7	   7	   5	   6	   6	   7	   6	   5	   5	   0	
   6	   5	   6	   6	   6	   6	   5	   6	   7	   6	   6	   6	   5	   7	   6	   5	   6	   5	   6	   5	   7	   6	   5	   5	   7	   6	   6	   6	   7	   5	   7	   7	   6	   7	   5	   5	   6	   7	   6	 999	   7	   7	   8	   7	   7	   9	   8	   7	   8	   6	   6	   7	   6	   8	   7	   7	   6	   7	   7	   7	   0	
   7	   5	   7	   7	   7	   6	   6	   7	   8	   7	   7	   7	   5	   8	   5	   6	   5	   6	   5	   6	   6	   7	   6	   5	   6	   7	   6	   7	   8	   5	   8	   6	   7	   7	   6	   5	   5	   8	   7	   5	 999	   6	   7	   8	   7	   7	   6	   7	   7	   7	   8	   8	   8	   6	   7	   6	   7	   5	   6	   6	   0	
   6	   5	   6	   6	   6	   5	   5	   6	   7	   6	   6	   7	   5	   7	   6	   5	   6	   5	   7	   5	   7	   6	   5	   5	   7	   6	   5	   6	   7	   5	   7	   7	   6	   6	   5	   6	   6	   7	   6	   5	   6	 999	   6	   7	   6	   6	   5	   6	   6	   6	   7	   7	   7	   5	   6	   5	   6	   5	   5	   5	   0	
   7	   5	   6	   6	   6	   6	   5	   7	   7	   6	   6	   6	   5	   8	   5	   6	   6	   5	   6	   6	   7	   7	   5	   5	   6	   6	   6	   7	   7	   5	   7	   7	   6	   7	   6	   5	   5	   7	   6	   5	   5	   5	 999	   6	   5	   6	   5	   5	   5	   6	   6	   5	   6	   6	   5	   6	   7	   7	   5	   5	   0	
   7	   6	   6	   6	   5	   6	   5	   6	   7	   5	   5	   7	   6	   6	   7	   6	   7	   5	   7	   6	   8	   5	   6	   6	   8	   5	   5	   7	   6	   6	   6	   8	   7	   6	   6	   6	   7	   7	   6	   6	   6	   5	   6	 999	   6	   7	   7	   6	   6	   6	   5	   5	   5	   7	   6	   7	   6	   8	   7	   7	   0	
   6	   5	   6	   6	   7	   5	   6	   6	   7	   6	   7	   6	   5	   7	   5	   6	   5	   6	   5	   5	   6	   7	   6	   5	   6	   6	   6	   6	   7	   5	   7	   6	   6	   7	   5	   6	   6	   7	   6	   5	   5	   6	   5	   6	 999	   6	   5	   5	   5	   6	   6	   6	   6	   5	   5	   5	   7	   6	   5	   5	   0	
   6	   7	   6	   6	   8	   7	   7	   6	   6	   7	   8	   5	   7	   7	   6	   8	   6	   8	   6	   7	   5	   9	   7	   7	   5	   7	   8	   6	   6	   7	   6	   5	   6	   9	   7	   7	   7	   6	   6	   7	   6	   7	   7	   8	   6	 999	   6	   6	   6	   7	   7	   6	   7	   6	   6	   7	   8	   7	   6	   6	   0	
   7	   6	   6	   6	   5	   5	   6	   6	   6	   5	   5	   7	   7	   6	   7	   6	   6	   6	   7	   5	   8	   5	   6	   7	   7	   5	   6	   6	   6	   7	   6	   7	   6	   6	   5	   7	   7	   6	   6	   6	   7	   6	   6	   5	   6	   8	 999	   5	   5	   6	   6	   6	   6	   5	   5	   6	   7	   6	   5	   5	   0	
   7	   6	   7	   7	   5	   6	   6	   7	   7	   6	   5	   8	   6	   6	   7	   6	   7	   5	   8	   6	   8	   5	   6	   6	   8	   6	   5	   7	   7	   6	   7	   8	   7	   5	   6	   7	   7	   7	   7	   6	   7	   6	   6	   5	   7	   8	   5	 999	   5	   5	   5	   6	   6	   5	   5	   5	   6	   6	   5	   5	   0	
   5	   6	   5	   5	   7	   6	   6	   5	   5	   6	   7	   5	   7	   6	   7	   7	   6	   7	   6	   6	   5	   8	   7	   7	   6	   6	   7	   5	   5	   7	   5	   6	   5	   8	   6	   7	   7	   5	   5	   6	   7	   6	   7	   7	   6	   5	   7	   8	 999	   6	   6	   5	   6	   6	   5	   6	   7	   7	   5	   5	   0	
   8	   6	   7	   7	   7	   7	   6	   8	   8	   7	   7	   7	   5	   8	   6	   5	   6	   6	   6	   6	   7	   7	   6	   5	   7	   7	   6	   7	   8	   5	   8	   7	   7	   6	   7	   5	   5	   8	   7	   6	   6	   6	   5	   7	   6	   7	   7	   7	   7	 999	   5	   6	   5	   6	   5	   6	   5	   7	   5	   5	   0	
   7	   6	   6	   6	   6	   6	   5	   7	   7	   6	   6	   7	   6	   8	   6	   5	   7	   5	   7	   6	   8	   7	   5	   6	   7	   6	   5	   7	   7	   5	   7	   8	   6	   6	   6	   6	   5	   7	   6	   5	   6	   5	   6	   6	   6	   8	   6	   6	   7	   5	 999	   5	   5	   6	   5	   6	   6	   7	   6	   6	   0	
   7	   6	   7	   7	   5	   6	   6	   7	   7	   6	   5	   7	   7	   6	   7	   6	   7	   6	   7	   6	   8	   5	   6	   6	   8	   5	   5	   7	   6	   6	   7	   8	   7	   5	   6	   7	   7	   7	   6	   6	   7	   6	   6	   5	   7	   8	   5	   5	   7	   7	   6	 999	   6	   7	   5	   7	   6	   7	   6	   6	   0	
   5	   5	   5	   5	   6	   5	   5	   5	   6	   5	   6	   6	   6	   6	   6	   6	   5	   6	   6	   5	   6	   7	   6	   6	   6	   5	   6	   5	   6	   6	   6	   6	   5	   7	   5	   7	   7	   6	   5	   6	   6	   6	   6	   6	   6	   6	   6	   7	   5	   7	   6	   6	 999	   6	   6	   6	   5	   7	   6	   6	   0	
   5	   5	   5	   5	   7	   5	   6	   5	   6	   5	   7	   5	   6	   6	   6	   6	   6	   6	   6	   5	   6	   7	   6	   6	   6	   6	   6	   5	   6	   6	   6	   6	   5	   7	   5	   7	   7	   6	   5	   6	   6	   6	   6	   6	   6	   6	   6	   7	   5	   7	   6	   7	   5	 999	   6	   6	   7	   6	   5	   5	   0	
   7	   7	   6	   6	   6	   6	   7	   6	   6	   6	   5	   7	   8	   5	   7	   7	   7	   7	   7	   6	   8	   5	   7	   7	   7	   6	   6	   6	   6	   8	   6	   7	   6	   6	   6	   8	   8	   6	   6	   7	   8	   7	   7	   6	   7	   8	   5	   6	   7	   8	   7	   6	   6	   6	 999	   6	   6	   7	   5	   5	   0	
   6	   5	   6	   6	   6	   5	   5	   6	   7	   6	   6	   6	   5	   7	   5	   6	   6	   5	   6	   5	   7	   6	   5	   5	   6	   6	   6	   6	   7	   5	   7	   7	   6	   7	   5	   6	   6	   7	   6	   5	   5	   5	   5	   6	   5	   7	   6	   6	   6	   6	   6	   6	   6	   6	   7	 999	   6	   5	   5	   5	   0	
   6	   6	   6	   6	   7	   6	   6	   6	   7	   6	   7	   6	   6	   7	   5	   7	   5	   6	   5	   6	   6	   7	   6	   6	   5	   6	   7	   6	   7	   6	   7	   5	   6	   8	   6	   6	   6	   7	   6	   6	   5	   6	   6	   7	   5	   6	   7	   7	   6	   6	   7	   7	   6	   6	   7	   6	 999	   7	   6	   6	   0	
   7	   7	   6	   6	   5	   6	   7	   6	   7	   6	   5	   7	   7	   6	   7	   7	   7	   6	   7	   6	   8	   5	   7	   7	   8	   5	   6	   7	   6	   7	   7	   8	   7	   6	   6	   8	   8	   7	   6	   7	   7	   7	   7	   6	   7	   8	   5	   6	   7	   8	   7	   5	   6	   6	   5	   7	   7	 999	   6	   6	   0	
   7	   5	   7	   7	   6	   6	   5	   7	   7	   6	   7	   7	   5	   8	   6	   5	   6	   5	   6	   6	   7	   7	   5	   5	   7	   6	   6	   7	   7	   5	   7	   7	   6	   6	   6	   5	   5	   7	   6	   5	   6	   5	   5	   6	   6	   7	   7	   6	   7	   5	   5	   6	   6	   6	   7	   5	   6	   7	 999	   5	   0	
   7	   7	   6	   6	   5	   6	   7	   6	   7	   5	   5	   7	   8	   6	   7	   7	   7	   7	   7	   6	   8	   5	   7	   7	   7	   6	   6	   6	   6	   7	   6	   8	   6	   6	   6	   8	   8	   6	   6	   7	   8	   7	   7	   6	   7	   8	   5	   6	   7	   8	   7	   6	   6	   6	   5	   7	   7	   5	   7	 999	   0	
   7	   6	   6	   6	   5	   6	   7	   6	   6	   5	   5	   7	   7	   5	   7	   7	   7	   6	   7	   6	   7	   6	   7	   7	   7	   5	   6	   6	   6	   7	   6	   7	   6	   6	   6	   8	   8	   6	   6	   7	   7	   7	   7	   6	   7	   8	   5	   6	   7	   8	   7	   5	   6	   6	   5	   7	   7	   5	   7	   5	 999	



