Results of MIP model: 
MIP objective    = 966.5
MIP upper bound  = 966.5
MIP solving time = 928.865

------------------------------------------------------------
Results of Logic-based Benders decomposition method: 
(Initial solutions added) 
LBBD best objective   = 966.5
LBBD solving time     = 137.594

------------------------------------------------------------
Results of Logic-based Benders decomposition method: 
(MP gap = 1%) 
LBBD best objective   = 965.5
LBBD solving time     = 6.303

------------------------------------------------------------
Results of Logic-based Benders decomposition method: 
(MP gap = 0.5%) 
LBBD best objective   = 966
LBBD solving time     = 13.168

------------------------------------------------------------
Results of Logic-based Benders decomposition method: 
(MP gap = 0.1%) 
LBBD best objective   = 966
LBBD solving time     = 31.6

------------------------------------------------------------
------------------------------------------------------------
Parameters :
M = 5

N = 50

T = 147

Initial SOP of job i in N: delta_i = 
   6	   6	   3	   0	   9	   4	   3	   2	   3	   2	   2	   3	   2	   0	   6	   4	   7	   5	   1	   0	   9	   6	   1	   9	   1	   2	   7	   7	   5	   1	   9	   1	   6	   4	   6	   7	   4	   4	   3	   8	   9	   6	   3	   3	   9	   8	   8	   2	   2	   6	

Minimum required SOP of job i : pl_i = 
  15	  11	  11	  11	  15	  14	  11	  12	  12	  10	  15	  13	  15	  15	  14	  11	  10	  12	  13	  12	  14	  12	  10	  15	  10	  10	  14	  13	  12	  10	  12	  12	  13	  13	  11	  13	  15	  13	  12	  11	  10	  15	  12	  12	  10	  12	  15	  15	  15	  12	

Maximum required SOP of job i : pu_i = 
  20	  20	  21	  22	  25	  21	  24	  22	  25	  24	  25	  23	  22	  21	  24	  23	  21	  23	  24	  24	  23	  23	  24	  25	  25	  20	  25	  25	  25	  23	  22	  22	  25	  23	  25	  22	  20	  25	  24	  24	  22	  22	  22	  23	  22	  23	  24	  22	  23	  21	

Processing rate of job i on machine k : tau_ki = 
 0.5	   2	   1	   2	   1	 0.5	 0.5	   1	 0.5	 0.5	 0.5	 0.5	 0.5	   1	   1	   1	   1	   2	 0.5	 0.5	   1	   1	 0.5	   1	 0.5	   2	 0.5	   1	 0.5	   2	   2	   1	   2	 0.5	 0.5	   1	   2	   1	   2	 0.5	   1	   2	   2	   2	   1	   1	   1	 0.5	   1	   1	
   1	 0.5	   1	   2	 0.5	   2	   1	   1	   2	   1	 0.5	 0.5	   2	   2	   2	   2	   2	   1	 0.5	 0.5	 0.5	   1	 0.5	   2	   2	 0.5	   2	   2	   2	 0.5	 0.5	   1	   2	 0.5	 0.5	   2	 0.5	 0.5	 0.5	   1	   2	   1	   1	   2	   2	 0.5	   1	   1	   2	   2	
 0.5	 0.5	   1	   2	   2	   1	 0.5	   1	 0.5	   1	   2	   2	   1	 0.5	   2	   1	   2	   1	   1	   2	 0.5	 0.5	   2	 0.5	   2	 0.5	 0.5	   2	 0.5	   2	   2	 0.5	   1	   1	   1	   1	   2	   1	 0.5	   2	   1	   2	 0.5	   2	   1	 0.5	   2	 0.5	 0.5	   2	
   1	   1	   2	   1	   2	   2	   1	   2	   1	   1	   1	   2	   1	   1	   2	   1	   1	   2	 0.5	   1	   1	 0.5	 0.5	   2	   2	   1	   1	   1	 0.5	   1	   1	   2	 0.5	 0.5	   1	 0.5	 0.5	   2	   1	   1	 0.5	   1	 0.5	   2	 0.5	   1	 0.5	   1	 0.5	   2	
 0.5	   2	   2	 0.5	 0.5	 0.5	   2	   1	 0.5	 0.5	   1	 0.5	   1	 0.5	   2	   1	 0.5	   2	 0.5	 0.5	   2	   1	 0.5	   1	 0.5	   1	 0.5	   1	   1	 0.5	   2	   1	   1	   2	   2	 0.5	   2	   1	   1	   2	 0.5	   1	 0.5	   1	 0.5	   2	 0.5	 0.5	 0.5	   1	


Minimum processing time of job i on machine k : tl_ki = 
  18	 2.5	   8	 5.5	   6	  20	  16	  10	  18	  16	  26	  20	  26	  15	   8	   7	   3	 3.5	  24	  24	   5	   6	  18	   6	  18	   4	  14	   6	  14	 4.5	 1.5	  11	 3.5	  18	  10	   6	 5.5	   9	 4.5	   6	   1	 4.5	 4.5	 4.5	   1	   4	   7	  26	  13	   6	
   9	  10	   8	 5.5	  12	   5	   8	  10	 4.5	   8	  26	  20	 6.5	 7.5	   4	 3.5	 1.5	   7	  24	  24	  10	   6	  18	   3	 4.5	  16	 3.5	   3	 3.5	  18	   6	  11	 3.5	  18	  10	   3	  22	  18	  18	   3	 0.5	   9	   9	 4.5	 0.5	   8	   7	  13	 6.5	   3	
  18	  10	   8	 5.5	   3	  10	  16	  10	  18	   8	 6.5	   5	  13	  30	   4	   7	 1.5	   7	  12	   6	  10	  12	 4.5	  12	 4.5	  16	  14	   3	  14	 4.5	 1.5	  22	   7	   9	   5	   6	 5.5	   9	  18	 1.5	   1	 4.5	  18	 4.5	   1	   8	 3.5	  26	  26	   3	
   9	   5	   4	  11	   3	   5	   8	   5	   9	   8	  13	   5	  13	  15	   4	   7	   3	 3.5	  24	  12	   5	  12	  18	   3	 4.5	   8	   7	   6	  14	   9	   3	 5.5	  14	  18	   5	  12	  22	 4.5	   9	   3	   2	   9	  18	 4.5	   2	   4	  14	  13	  26	   3	
  18	 2.5	   4	  22	  12	  20	   4	  10	  18	  16	  13	  20	  13	  30	   4	   7	   6	 3.5	  24	  24	 2.5	   6	  18	   6	  18	   8	  14	   6	   7	  18	 1.5	  11	   7	 4.5	 2.5	  12	 5.5	   9	   9	 1.5	   2	   9	  18	   9	   2	   2	  14	  26	  26	   6	


Maximum processing time of job i on machine k : tu_ki = 
  28	   7	  18	  11	  16	  34	  42	  20	  44	  44	  46	  40	  40	  21	  18	  19	  14	   9	  46	  48	  14	  17	  46	  16	  48	   9	  36	  18	  40	  11	 6.5	  21	 9.5	  38	  38	  15	   8	  21	10.5	  32	  13	   8	 9.5	  10	  13	  15	  16	  40	  21	  15	
  14	  28	  18	  11	  32	 8.5	  21	  20	  11	  22	  46	  40	  10	10.5	   9	 9.5	   7	  18	  46	  48	  28	  17	  46	   8	  12	  36	   9	   9	  10	  44	  26	  21	 9.5	  38	  38	 7.5	  32	  42	  42	  16	 6.5	  16	  19	  10	 6.5	  30	  16	  20	10.5	 7.5	
  28	  28	  18	  11	   8	  17	  42	  20	  44	  22	11.5	  10	  20	  42	   9	  19	   7	  18	  23	  12	  28	  34	11.5	  32	  12	  36	  36	   9	  40	  11	 6.5	  42	  19	  19	  19	  15	   8	  21	  42	   8	  13	   8	  38	  10	  13	  30	   8	  40	  42	 7.5	
  14	  14	   9	  22	   8	 8.5	  21	  10	  22	  22	  23	  10	  20	  21	   9	  19	  14	   9	  46	  24	  14	  34	  46	   8	  12	  18	  18	  18	  40	  22	  13	10.5	  38	  38	  19	  30	  32	10.5	  21	  16	  26	  16	  38	  10	  26	  15	  32	  20	  42	 7.5	
  28	   7	   9	  44	  32	  34	10.5	  20	  44	  44	  23	  40	  20	  42	   9	  19	  28	   9	  46	  48	   7	  17	  46	  16	  48	  18	  36	  18	  20	  44	 6.5	  21	  19	 9.5	 9.5	  30	   8	  21	  21	   8	  26	  16	  38	  20	  26	 7.5	  32	  40	  42	  15	


Setup time: s_kij = 
 999	   7	   5	   5	   6	   8	   5	   6	   6	   6	   5	   5	   6	   5	   5	   5	   7	   7	   7	   5	   6	   6	   5	   6	   6	   6	   6	   6	   6	   6	   5	   5	   5	   5	   6	   7	   5	   6	   5	   7	   5	   6	   7	   5	   5	   6	   7	   5	   6	   6	   0	
   7	 999	   7	   6	   7	   6	   7	   6	   5	   6	   6	   6	   5	   7	   6	   6	   5	   6	   5	   7	   7	   6	   8	   7	   6	   5	   6	   5	   7	   7	   6	   7	   8	   7	   5	   5	   7	   5	   7	   5	   7	   8	   5	   6	   7	   8	   6	   7	   5	   5	   0	
   7	   8	 999	   6	   6	   8	   5	   6	   7	   6	   6	   6	   6	   5	   6	   5	   8	   7	   8	   5	   6	   7	   5	   6	   6	   7	   6	   6	   6	   5	   6	   5	   5	   5	   6	   8	   5	   7	   5	   7	   5	   5	   8	   5	   5	   5	   7	   6	   7	   7	   0	
   7	   6	   7	 999	   7	   7	   6	   5	   6	   5	   5	   5	   6	   6	   5	   6	   7	   6	   7	   6	   5	   6	   6	   7	   5	   6	   5	   5	   7	   6	   5	   6	   6	   5	   5	   7	   6	   6	   5	   6	   6	   6	   7	   5	   5	   6	   6	   5	   6	   6	   0	
   7	   8	   5	   7	 999	   6	   6	   7	   6	   7	   6	   6	   7	   6	   7	   6	   7	   8	   6	   6	   7	   8	   7	   5	   7	   7	   7	   7	   5	   6	   6	   7	   7	   7	   6	   7	   6	   6	   6	   7	   6	   7	   6	   7	   6	   7	   8	   7	   6	   7	   0	
   6	   5	   8	   5	   7	 999	   8	   6	   6	   7	   7	   7	   6	   7	   7	   7	   6	   7	   5	   7	   8	   7	   8	   7	   7	   6	   6	   6	   7	   7	   7	   8	   8	   8	   6	   6	   8	   6	   8	   6	   7	   9	   6	   7	   7	   9	   7	   7	   6	   6	   0	
   7	   6	   7	   5	   7	   5	 999	   6	   6	   6	   5	   5	   6	   5	   6	   5	   7	   7	   7	   5	   6	   7	   5	   6	   6	   6	   6	   6	   6	   5	   5	   5	   5	   5	   6	   7	   5	   7	   5	   7	   5	   6	   7	   5	   5	   5	   7	   6	   6	   6	   0	
   7	   8	   6	   7	   5	   7	   6	 999	   6	   5	   5	   6	   5	   6	   5	   6	   6	   5	   6	   7	   6	   5	   6	   8	   5	   5	   5	   5	   8	   7	   6	   6	   7	   6	   5	   6	   7	   6	   6	   6	   6	   7	   6	   5	   5	   7	   5	   5	   6	   5	   0	
   6	   5	   9	   6	   8	   6	   6	   8	 999	   6	   6	   6	   6	   6	   6	   6	   6	   7	   6	   6	   6	   6	   7	   6	   6	   6	   6	   6	   6	   6	   6	   7	   7	   7	   5	   6	   6	   5	   7	   6	   6	   8	   5	   6	   6	   7	   6	   6	   5	   6	   0	
   6	   7	   6	   6	   6	   6	   6	   6	   7	 999	   5	   6	   5	   6	   5	   6	   7	   5	   7	   7	   5	   6	   6	   7	   5	   6	   5	   5	   8	   7	   6	   6	   6	   5	   5	   7	   6	   6	   5	   6	   6	   6	   7	   5	   5	   6	   6	   5	   6	   6	   0	
   6	   6	   7	   6	   6	   5	   6	   6	   6	   6	 999	   5	   5	   5	   5	   5	   7	   6	   7	   6	   5	   6	   6	   7	   5	   6	   5	   5	   7	   6	   5	   6	   6	   6	   5	   6	   6	   6	   6	   6	   5	   7	   7	   5	   5	   6	   6	   5	   5	   5	   0	
   7	   8	   6	   6	   5	   7	   6	   5	   8	   6	   6	 999	   5	   5	   5	   5	   7	   6	   7	   6	   5	   6	   6	   6	   5	   6	   6	   5	   7	   6	   5	   6	   6	   5	   5	   7	   5	   6	   5	   6	   5	   6	   7	   5	   5	   6	   6	   5	   6	   6	   0	
   7	   5	   8	   5	   7	   5	   5	   7	   6	   7	   6	   7	 999	   6	   5	   6	   6	   6	   6	   6	   6	   5	   7	   7	   5	   5	   5	   5	   7	   7	   6	   7	   7	   6	   5	   6	   6	   6	   6	   5	   6	   7	   6	   6	   6	   7	   5	   6	   5	   5	   0	
   8	   6	   8	   5	   7	   6	   5	   7	   6	   7	   6	   7	   5	 999	   6	   5	   7	   7	   7	   5	   6	   7	   5	   6	   6	   6	   6	   6	   6	   5	   5	   5	   6	   5	   6	   7	   5	   6	   5	   7	   5	   6	   7	   5	   5	   6	   7	   6	   6	   6	   0	
   7	   6	   7	   5	   7	   6	   5	   7	   6	   6	   6	   6	   5	   5	 999	   5	   7	   6	   7	   6	   5	   6	   6	   7	   5	   6	   5	   5	   7	   6	   5	   6	   6	   6	   5	   6	   6	   6	   6	   6	   6	   6	   7	   5	   5	   6	   6	   5	   6	   6	   0	
   6	   5	   8	   5	   7	   5	   5	   7	   5	   7	   5	   7	   5	   6	   5	 999	   7	   7	   7	   5	   6	   6	   6	   6	   6	   6	   6	   6	   6	   5	   5	   5	   6	   5	   6	   7	   5	   6	   5	   7	   5	   6	   7	   5	   5	   6	   6	   5	   6	   6	   0	
   5	   7	   7	   7	   7	   7	   7	   7	   6	   6	   6	   8	   7	   8	   8	   7	 999	   7	   5	   7	   8	   6	   8	   7	   6	   6	   6	   6	   7	   7	   7	   8	   8	   8	   6	   5	   8	   6	   8	   5	   7	   9	   5	   7	   7	   8	   5	   7	   6	   6	   0	
   7	   8	   5	   7	   5	   7	   7	   5	   8	   6	   6	   5	   7	   7	   7	   7	   7	 999	   7	   8	   6	   6	   6	   8	   6	   6	   5	   6	   8	   8	   7	   6	   6	   6	   6	   7	   7	   7	   6	   6	   7	   6	   7	   6	   6	   7	   6	   6	   6	   6	   0	
   6	   5	   9	   6	   8	   6	   6	   8	   5	   7	   6	   8	   5	   6	   6	   5	   7	   8	 999	   7	   7	   6	   8	   7	   6	   6	   6	   6	   7	   7	   7	   8	   8	   8	   6	   5	   7	   5	   8	   5	   7	   9	   5	   7	   7	   8	   6	   7	   6	   6	   0	
   7	   8	   6	   7	   5	   7	   7	   5	   8	   6	   6	   5	   7	   7	   7	   7	   7	   5	   8	 999	   7	   7	   6	   5	   6	   6	   7	   6	   5	   5	   5	   6	   6	   6	   6	   7	   5	   6	   6	   7	   5	   6	   7	   6	   6	   6	   7	   6	   6	   6	   0	
   7	   8	   5	   7	   5	   7	   7	   5	   8	   6	   7	   5	   8	   7	   7	   7	   7	   5	   8	   5	 999	   7	   5	   7	   6	   6	   6	   6	   7	   7	   6	   5	   5	   5	   6	   7	   6	   7	   5	   7	   6	   6	   7	   5	   5	   6	   7	   5	   6	   6	   0	
   8	   6	   7	   5	   7	   6	   6	   7	   7	   7	   7	   7	   6	   5	   5	   6	   8	   7	   6	   7	   7	 999	   7	   8	   5	   5	   5	   5	   8	   7	   6	   7	   7	   7	   6	   5	   7	   6	   7	   5	   6	   8	   6	   6	   6	   7	   5	   6	   6	   5	   0	
   6	   7	   6	   6	   6	   6	   6	   5	   7	   5	   5	   6	   6	   6	   6	   6	   7	   6	   7	   6	   6	   6	 999	   7	   6	   7	   6	   7	   7	   6	   6	   5	   5	   5	   7	   8	   6	   7	   5	   8	   6	   5	   8	   6	   6	   5	   7	   5	   7	   7	   0	
   7	   7	   6	   6	   5	   6	   6	   5	   7	   6	   6	   5	   7	   6	   6	   6	   7	   5	   7	   5	   6	   6	   5	 999	   7	   7	   8	   7	   5	   5	   6	   7	   7	   7	   7	   7	   6	   6	   7	   7	   6	   7	   7	   7	   7	   7	   8	   7	   7	   7	   0	
   7	   5	   8	   5	   7	   6	   5	   7	   6	   7	   6	   7	   5	   5	   5	   5	   8	   7	   5	   7	   7	   5	   6	   6	 999	   5	   5	   5	   7	   7	   6	   6	   6	   6	   5	   6	   6	   6	   6	   6	   6	   7	   6	   5	   5	   7	   6	   5	   5	   5	   0	
   6	   8	   5	   6	   6	   7	   6	   6	   8	   5	   6	   6	   7	   7	   6	   7	   6	   6	   8	   6	   6	   7	   5	   6	   7	 999	   5	   5	   7	   6	   6	   7	   7	   7	   5	   5	   6	   6	   7	   5	   6	   8	   5	   6	   6	   7	   5	   6	   5	   5	   0	
   6	   6	   8	   6	   8	   5	   6	   8	   5	   7	   6	   7	   6	   7	   6	   5	   6	   8	   5	   8	   8	   7	   7	   7	   6	   7	 999	   5	   8	   7	   6	   6	   7	   6	   6	   6	   7	   6	   6	   6	   6	   7	   6	   5	   5	   7	   5	   5	   6	   5	   0	
   6	   7	   6	   6	   5	   6	   6	   6	   7	   5	   6	   6	   7	   6	   6	   7	   6	   5	   7	   6	   5	   7	   5	   5	   7	   5	   7	 999	   7	   6	   5	   6	   7	   6	   5	   6	   6	   6	   6	   6	   6	   7	   6	   5	   6	   7	   5	   6	   5	   5	   0	
   7	   6	   7	   5	   7	   6	   5	   7	   6	   7	   6	   6	   5	   5	   5	   5	   8	   7	   6	   7	   7	   5	   6	   6	   5	   6	   6	   6	 999	   5	   6	   7	   7	   7	   7	   7	   6	   6	   7	   8	   6	   7	   7	   7	   7	   6	   8	   7	   7	   7	   0	
   7	   7	   6	   5	   6	   6	   5	   6	   7	   6	   5	   6	   6	   6	   5	   6	   7	   6	   7	   6	   6	   6	   5	   5	   6	   6	   6	   5	   5	 999	   6	   6	   6	   6	   6	   7	   5	   6	   6	   7	   5	   6	   7	   6	   6	   6	   7	   6	   6	   6	   0	
   5	   6	   7	   6	   6	   6	   6	   6	   6	   6	   5	   7	   6	   7	   7	   6	   6	   6	   6	   6	   7	   7	   5	   6	   7	   6	   6	   6	   7	   6	 999	   6	   6	   5	   5	   7	   5	   6	   6	   6	   5	   6	   7	   5	   5	   6	   6	   5	   6	   6	   0	
   7	   9	   5	   7	   5	   8	   7	   5	   9	   6	   7	   5	   8	   8	   7	   8	   7	   5	   9	   5	   5	   7	   6	   6	   8	   5	   8	   6	   7	   6	   7	 999	   5	   5	   6	   8	   6	   7	   5	   8	   5	   5	   8	   6	   5	   5	   7	   5	   7	   7	   0	
   7	   8	   5	   7	   5	   7	   7	   5	   9	   6	   7	   5	   8	   8	   7	   8	   7	   5	   9	   5	   5	   7	   6	   6	   8	   5	   8	   6	   7	   6	   7	   5	 999	   5	   7	   8	   6	   7	   5	   8	   6	   5	   8	   6	   6	   5	   7	   6	   7	   7	   0	
   6	   6	   7	   5	   7	   5	   5	   7	   6	   6	   5	   7	   5	   6	   5	   5	   7	   7	   6	   7	   7	   6	   6	   6	   5	   7	   5	   6	   6	   6	   6	   7	   7	 999	   6	   7	   6	   7	   5	   7	   5	   5	   8	   5	   5	   5	   7	   5	   7	   7	   0	
   8	   7	   7	   6	   6	   6	   6	   6	   7	   7	   7	   6	   6	   6	   5	   6	   9	   6	   7	   6	   6	   6	   6	   6	   6	   7	   7	   7	   5	   6	   7	   6	   6	   6	 999	   6	   6	   5	   6	   6	   6	   7	   6	   5	   6	   7	   6	   6	   5	   5	   0	
   8	   7	   7	   6	   6	   6	   6	   5	   7	   7	   7	   5	   6	   6	   6	   6	   8	   6	   7	   6	   6	   6	   6	   6	   6	   7	   7	   7	   6	   6	   7	   6	   6	   6	   5	 999	   7	   6	   8	   5	   7	   8	   5	   7	   7	   8	   5	   7	   5	   5	   0	
   7	   6	   7	   5	   6	   5	   5	   6	   6	   6	   6	   6	   6	   5	   5	   5	   8	   6	   6	   6	   7	   5	   6	   5	   5	   6	   6	   6	   5	   5	   7	   7	   7	   5	   5	   5	 999	   7	   6	   7	   5	   6	   7	   6	   6	   5	   7	   6	   6	   6	   0	
   8	   6	   7	   6	   7	   6	   6	   7	   7	   7	   7	   6	   6	   5	   5	   6	   9	   7	   6	   7	   7	   5	   7	   6	   5	   7	   7	   7	   5	   6	   8	   7	   7	   6	   5	   6	   6	 999	   7	   6	   6	   8	   5	   6	   6	   8	   6	   6	   5	   6	   0	
   7	   8	   5	   7	   5	   7	   7	   5	   8	   6	   7	   5	   8	   7	   7	   7	   7	   5	   8	   5	   5	   7	   6	   6	   7	   6	   8	   5	   7	   6	   7	   5	   5	   7	   6	   6	   7	   7	 999	   7	   5	   5	   8	   5	   5	   5	   7	   5	   7	   7	   0	
   8	   5	   8	   5	   7	   6	   5	   7	   6	   7	   6	   7	   5	   5	   5	   6	   8	   7	   6	   7	   7	   5	   6	   6	   5	   7	   7	   7	   5	   6	   7	   8	   8	   6	   6	   6	   5	   5	   7	 999	   7	   8	   5	   6	   7	   8	   5	   7	   5	   5	   0	
   6	   7	   6	   6	   6	   6	   5	   6	   7	   5	   5	   6	   6	   6	   6	   6	   6	   6	   7	   6	   6	   6	   5	   5	   6	   5	   7	   5	   6	   5	   5	   6	   6	   6	   7	   6	   6	   7	   6	   6	 999	   6	   7	   5	   5	   6	   6	   5	   6	   6	   0	
   7	   6	   7	   5	   6	   5	   5	   6	   6	   6	   6	   6	   6	   5	   5	   5	   7	   6	   6	   6	   7	   5	   5	   5	   5	   6	   6	   6	   5	   5	   6	   7	   7	   5	   6	   5	   5	   6	   7	   5	   6	 999	   9	   6	   6	   5	   8	   6	   7	   8	   0	
   6	   7	   6	   6	   6	   6	   6	   6	   7	   5	   5	   6	   6	   7	   6	   6	   6	   6	   7	   6	   6	   7	   5	   6	   6	   5	   7	   5	   7	   6	   5	   6	   6	   6	   7	   7	   6	   7	   6	   7	   5	   6	 999	   7	   7	   8	   6	   7	   6	   6	   0	
   7	   5	   8	   5	   7	   5	   5	   7	   6	   7	   6	   7	   5	   5	   5	   5	   8	   7	   5	   7	   7	   5	   6	   6	   5	   7	   6	   7	   5	   6	   6	   8	   8	   5	   6	   6	   5	   6	   7	   5	   6	   5	   6	 999	   5	   6	   6	   5	   6	   6	   0	
   7	   8	   5	   7	   5	   7	   7	   5	   8	   5	   7	   6	   8	   7	   7	   7	   6	   5	   8	   5	   5	   7	   6	   5	   7	   5	   8	   5	   7	   6	   6	   5	   5	   7	   7	   6	   6	   7	   5	   7	   6	   6	   6	   7	 999	   6	   6	   5	   6	   6	   0	
   6	   5	   8	   6	   8	   5	   6	   8	   5	   7	   6	   8	   5	   6	   6	   5	   7	   8	   5	   8	   8	   6	   7	   7	   6	   8	   5	   7	   6	   7	   6	   9	   8	   6	   7	   7	   6	   7	   8	   6	   7	   6	   7	   5	   8	 999	   8	   6	   7	   7	   0	
   6	   7	   6	   7	   7	   6	   7	   7	   7	   5	   6	   7	   7	   7	   7	   6	   5	   6	   7	   7	   6	   8	   6	   6	   7	   5	   7	   6	   7	   6	   5	   6	   6	   6	   8	   8	   7	   8	   6	   7	   6	   7	   5	   7	   6	   7	 999	   6	   6	   5	   0	
   7	   6	   7	   5	   6	   5	   5	   6	   7	   6	   6	   6	   6	   6	   5	   6	   7	   6	   7	   6	   6	   6	   5	   5	   6	   6	   6	   6	   5	   5	   6	   7	   7	   5	   6	   5	   5	   6	   6	   6	   5	   5	   6	   6	   6	   6	   7	 999	   6	   6	   0	
   8	   7	   6	   6	   5	   6	   6	   5	   7	   7	   6	   5	   6	   6	   6	   6	   8	   6	   7	   6	   6	   6	   6	   6	   6	   7	   7	   6	   6	   6	   7	   6	   6	   6	   5	   5	   5	   6	   6	   6	   6	   5	   7	   6	   6	   7	   7	   5	 999	   5	   0	
   6	   5	   8	   5	   8	   5	   5	   7	   5	   7	   6	   7	   5	   6	   5	   5	   7	   8	   5	   8	   8	   6	   7	   7	   6	   7	   5	   7	   6	   6	   6	   8	   8	   5	   6	   6	   6	   6	   8	   6	   6	   6	   6	   5	   8	   5	   7	   6	   7	 999	   0	
   6	   5	   8	   5	   7	   5	   5	   7	   5	   7	   6	   7	   5	   6	   5	   5	   7	   7	   5	   7	   8	   6	   6	   7	   6	   7	   5	   7	   6	   6	   6	   8	   8	   5	   6	   6	   6	   6	   8	   6	   6	   6	   6	   5	   8	   5	   6	   6	   6	   5	 999	

 999	   5	   6	   7	   8	   6	   6	   6	   8	   7	   9	   6	   7	   5	   7	   8	   6	   7	   7	   7	   7	   6	   9	   7	   7	   7	   6	   7	   6	   7	   7	   7	   6	   6	   7	   7	   7	   8	   8	   9	   8	   8	   5	   6	   8	   6	   5	   6	   7	   9	   0	
   8	 999	   5	   7	   8	   5	   6	   6	   8	   7	   8	   7	   7	   5	   7	   8	   6	   7	   7	   7	   7	   6	   8	   7	   7	   7	   5	   7	   6	   7	   7	   7	   6	   6	   7	   6	   7	   8	   8	   8	   8	   8	   5	   6	   7	   6	   5	   6	   7	   8	   0	
   7	   6	 999	   6	   8	   5	   5	   6	   7	   7	   8	   8	   6	   6	   7	   7	   6	   7	   6	   6	   6	   5	   8	   7	   7	   6	   5	   7	   6	   6	   6	   7	   6	   6	   7	   6	   6	   7	   7	   8	   7	   7	   6	   7	   7	   7	   5	   7	   7	   8	   0	
   7	   6	   7	 999	   6	   6	   6	   6	   6	   5	   6	   8	   5	   6	   5	   6	   5	   7	   6	   5	   6	   6	   6	   5	   5	   6	   6	   5	   5	   5	   5	   6	   6	   5	   5	   6	   6	   6	   6	   6	   6	   6	   7	   7	   6	   7	   7	   7	   5	   6	   0	
   6	   7	   6	   5	 999	   8	   7	   7	   5	   5	   5	   7	   6	   8	   6	   5	   6	   7	   6	   6	   7	   8	   5	   5	   6	   6	   7	   6	   7	   6	   6	   5	   7	   7	   6	   6	   6	   5	   5	   5	   5	   6	   9	   7	   6	   7	   8	   7	   6	   5	   0	
   7	   8	   6	   8	   8	 999	   5	   6	   7	   7	   8	   7	   6	   6	   7	   7	   6	   7	   7	   7	   6	   5	   8	   7	   7	   6	   5	   7	   6	   6	   7	   7	   6	   6	   7	   6	   6	   7	   8	   8	   8	   8	   5	   7	   7	   7	   5	   7	   7	   8	   0	
   6	   7	   6	   7	   7	   6	 999	   6	   7	   6	   7	   8	   6	   6	   6	   7	   6	   7	   6	   6	   5	   5	   7	   6	   6	   6	   5	   6	   5	   6	   6	   6	   6	   6	   6	   6	   6	   7	   7	   7	   7	   7	   6	   7	   6	   7	   6	   7	   6	   7	   0	
   6	   6	   5	   6	   6	   7	   6	 999	   6	   6	   7	   6	   7	   6	   7	   6	   5	   6	   5	   6	   7	   6	   7	   6	   6	   5	   6	   6	   5	   5	   5	   6	   5	   5	   6	   5	   5	   6	   6	   7	   6	   6	   6	   5	   6	   5	   6	   6	   6	   7	   0	
   6	   6	   7	   5	   5	   8	   7	   6	 999	   5	   5	   6	   7	   7	   6	   5	   6	   6	   5	   6	   7	   7	   5	   6	   6	   6	   7	   5	   6	   5	   5	   5	   6	   6	   6	   6	   6	   6	   5	   5	   6	   5	   8	   7	   5	   6	   8	   7	   5	   5	   0	
   6	   7	   7	   6	   5	   8	   7	   6	   5	 999	   6	   7	   6	   7	   5	   5	   6	   7	   5	   5	   6	   7	   6	   5	   5	   5	   6	   5	   6	   5	   5	   6	   6	   6	   5	   6	   6	   5	   5	   6	   5	   6	   8	   7	   6	   7	   7	   7	   5	   6	   0	
   7	   5	   6	   5	   6	   7	   6	   5	   6	   6	 999	   7	   6	   8	   6	   5	   7	   7	   6	   6	   7	   8	   5	   6	   6	   6	   8	   6	   7	   6	   6	   6	   7	   7	   6	   6	   6	   5	   5	   5	   5	   5	   9	   7	   6	   7	   9	   7	   6	   5	   0	
   5	   8	   7	   6	   5	   7	   6	   6	   6	   6	   7	 999	   8	   6	   8	   7	   7	   5	   7	   8	   9	   8	   7	   8	   8	   6	   7	   7	   7	   7	   7	   6	   7	   7	   8	   6	   6	   8	   7	   7	   8	   6	   7	   5	   6	   5	   7	   5	   7	   7	   0	
   5	   8	   7	   6	   6	   7	   6	   6	   6	   6	   7	   5	 999	   7	   5	   6	   6	   8	   6	   5	   5	   6	   6	   5	   5	   7	   6	   6	   6	   6	   6	   7	   6	   6	   5	   7	   7	   6	   6	   6	   6	   7	   7	   8	   7	   8	   7	   8	   6	   6	   0	
   7	   6	   5	   6	   6	   6	   5	   5	   6	   7	   5	   6	   6	 999	   7	   7	   6	   6	   6	   6	   7	   6	   8	   7	   7	   6	   6	   7	   5	   6	   6	   7	   5	   6	   6	   6	   6	   7	   7	   8	   7	   7	   5	   5	   7	   5	   5	   6	   7	   8	   0	
   6	   7	   7	   6	   5	   8	   7	   6	   5	   5	   6	   6	   5	   6	 999	   6	   6	   8	   6	   5	   6	   7	   6	   5	   5	   6	   6	   5	   6	   6	   6	   6	   6	   6	   5	   7	   7	   5	   6	   6	   5	   7	   7	   7	   7	   7	   7	   8	   5	   6	   0	
   5	   8	   7	   7	   6	   7	   6	   7	   6	   6	   7	   5	   5	   7	   6	 999	   6	   7	   5	   5	   6	   7	   5	   5	   5	   6	   7	   5	   6	   6	   5	   5	   6	   6	   5	   6	   6	   5	   5	   5	   5	   6	   8	   7	   6	   6	   8	   7	   5	   5	   0	
   7	   7	   5	   7	   7	   5	   5	   6	   7	   7	   6	   6	   7	   5	   7	   7	 999	   6	   5	   5	   6	   6	   7	   6	   5	   5	   5	   5	   5	   5	   5	   5	   5	   5	   6	   5	   5	   6	   6	   7	   6	   6	   7	   6	   6	   6	   6	   6	   5	   7	   0	
   5	   7	   7	   6	   5	   7	   6	   6	   6	   6	   6	   5	   5	   6	   6	   5	   6	 999	   6	   7	   8	   8	   7	   8	   7	   6	   7	   7	   7	   7	   7	   6	   6	   6	   8	   6	   6	   7	   6	   6	   7	   6	   7	   5	   6	   5	   7	   5	   7	   6	   0	
   7	   6	   8	   6	   6	   9	   8	   7	   6	   5	   7	   7	   7	   8	   6	   7	   8	   7	 999	   6	   7	   6	   6	   6	   6	   5	   6	   5	   5	   5	   5	   5	   5	   5	   6	   5	   5	   6	   6	   6	   6	   5	   7	   6	   5	   6	   7	   6	   5	   6	   0	
   8	   6	   5	   6	   6	   6	   6	   6	   6	   7	   5	   7	   7	   5	   7	   8	   5	   7	   8	 999	   6	   7	   6	   5	   5	   6	   6	   5	   5	   5	   5	   6	   6	   5	   5	   6	   6	   5	   6	   6	   5	   6	   7	   7	   6	   7	   7	   7	   5	   6	   0	
   6	   6	   5	   6	   6	   6	   5	   5	   6	   7	   5	   6	   6	   5	   7	   7	   5	   6	   8	   6	 999	   5	   7	   6	   6	   7	   6	   6	   6	   6	   6	   7	   7	   6	   6	   7	   7	   6	   7	   7	   7	   7	   7	   8	   7	   8	   6	   8	   6	   7	   0	
   6	   7	   6	   6	   6	   6	   5	   5	   6	   6	   6	   6	   6	   5	   6	   6	   6	   5	   7	   6	   5	 999	   8	   7	   7	   6	   5	   7	   6	   6	   7	   7	   6	   6	   7	   7	   6	   7	   8	   8	   8	   7	   6	   7	   7	   7	   6	   7	   7	   8	   0	
   6	   7	   6	   7	   6	   6	   5	   5	   7	   7	   6	   6	   6	   5	   7	   6	   6	   6	   8	   6	   5	   5	 999	   6	   6	   6	   8	   6	   7	   6	   6	   6	   7	   7	   6	   6	   6	   5	   5	   5	   5	   5	   9	   7	   6	   7	   9	   7	   6	   5	   0	
   8	   5	   6	   6	   7	   8	   7	   6	   6	   7	   6	   8	   8	   6	   7	   8	   7	   7	   6	   6	   6	   7	   7	 999	   5	   6	   6	   5	   6	   5	   5	   6	   6	   6	   5	   7	   6	   5	   6	   6	   5	   6	   8	   7	   7	   7	   7	   7	   5	   6	   0	
   9	   5	   6	   7	   8	   7	   7	   7	   7	   8	   6	   9	   9	   7	   8	   9	   7	   8	   7	   6	   7	   7	   8	   5	 999	   6	   6	   5	   6	   5	   5	   6	   6	   6	   5	   6	   6	   5	   5	   6	   5	   6	   8	   7	   6	   7	   7	   7	   5	   6	   0	
   5	   8	   7	   7	   6	   7	   6	   6	   6	   6	   7	   5	   5	   7	   6	   5	   7	   5	   7	   8	   6	   6	   6	   8	   9	 999	   6	   5	   5	   5	   5	   5	   5	   5	   6	   5	   5	   6	   6	   6	   6	   6	   7	   6	   5	   6	   7	   6	   5	   6	   0	
   8	   5	   6	   6	   7	   7	   6	   6	   6	   7	   6	   8	   8	   6	   7	   8	   6	   8	   7	   6	   6	   7	   7	   5	   5	   8	 999	   6	   5	   6	   6	   6	   5	   5	   6	   6	   6	   7	   7	   7	   7	   7	   6	   7	   6	   7	   6	   7	   6	   8	   0	
   7	   7	   5	   7	   7	   5	   5	   6	   7	   7	   6	   6	   6	   5	   7	   7	   5	   6	   8	   5	   5	   6	   5	   7	   7	   7	   6	 999	   6	   5	   5	   5	   6	   5	   5	   6	   6	   5	   5	   6	   5	   6	   7	   6	   6	   6	   7	   7	   5	   6	   0	
   5	   7	   7	   6	   5	   7	   6	   6	   6	   6	   6	   5	   5	   6	   6	   5	   6	   5	   7	   7	   6	   5	   6	   7	   8	   5	   8	   6	 999	   5	   5	   6	   5	   5	   6	   6	   5	   6	   6	   7	   6	   6	   6	   6	   6	   6	   6	   6	   6	   7	   0	
   7	   6	   8	   6	   6	   9	   8	   7	   6	   6	   7	   7	   7	   8	   6	   7	   8	   7	   5	   8	   8	   7	   8	   6	   7	   7	   7	   8	   7	 999	   5	   5	   5	   5	   5	   6	   5	   5	   6	   6	   6	   6	   7	   6	   6	   6	   7	   7	   5	   6	   0	
   6	   7	   6	   6	   6	   6	   5	   5	   6	   7	   6	   6	   6	   5	   7	   6	   5	   5	   8	   6	   5	   5	   5	   7	   8	   6	   7	   5	   6	   8	 999	   5	   5	   5	   5	   6	   5	   5	   6	   6	   6	   5	   7	   6	   6	   6	   7	   6	   5	   6	   0	
   6	   8	   7	   6	   5	   8	   7	   6	   6	   5	   7	   5	   5	   6	   5	   5	   7	   5	   6	   7	   6	   6	   6	   8	   9	   5	   8	   7	   5	   6	   6	 999	   6	   6	   6	   5	   5	   6	   5	   6	   6	   5	   8	   6	   5	   6	   7	   6	   6	   6	   0	
   7	   7	   5	   7	   7	   6	   5	   6	   7	   7	   6	   6	   7	   5	   7	   7	   5	   6	   8	   5	   5	   5	   6	   7	   7	   7	   6	   5	   6	   8	   5	   7	 999	   5	   6	   5	   5	   6	   7	   7	   6	   6	   6	   6	   6	   6	   6	   6	   6	   7	   0	
   8	   5	   6	   6	   7	   7	   6	   6	   6	   7	   5	   8	   8	   6	   7	   8	   6	   7	   6	   6	   6	   7	   7	   5	   5	   8	   5	   7	   7	   6	   7	   8	   6	 999	   6	   5	   5	   6	   6	   7	   6	   6	   6	   6	   6	   6	   6	   6	   6	   7	   0	
   7	   6	   6	   5	   6	   7	   6	   5	   5	   6	   5	   7	   7	   5	   6	   7	   6	   6	   7	   6	   6	   5	   6	   6	   7	   7	   6	   6	   6	   7	   6	   6	   6	   6	 999	   7	   6	   5	   6	   6	   5	   6	   7	   7	   7	   7	   7	   7	   5	   6	   0	
   5	   8	   7	   6	   5	   7	   6	   6	   6	   6	   7	   5	   5	   6	   5	   5	   6	   5	   7	   7	   6	   6	   6	   8	   9	   5	   8	   6	   5	   7	   6	   5	   6	   8	   7	 999	   5	   6	   6	   6	   6	   6	   7	   5	   5	   5	   7	   5	   6	   7	   0	
   8	   6	   5	   6	   6	   6	   6	   6	   6	   7	   5	   7	   7	   5	   7	   8	   5	   7	   8	   5	   6	   6	   6	   6	   6	   7	   6	   5	   7	   8	   6	   7	   5	   6	   6	   7	 999	   6	   6	   6	   6	   6	   7	   5	   5	   5	   7	   6	   6	   6	   0	
   8	   5	   6	   6	   7	   8	   7	   6	   6	   7	   6	   8	   8	   6	   7	   8	   7	   7	   6	   6	   6	   7	   7	   5	   5	   8	   5	   7	   7	   6	   7	   8	   7	   5	   6	   8	   6	 999	   5	   5	   5	   6	   8	   7	   6	   7	   8	   7	   5	   5	   0	
   5	   7	   7	   6	   6	   6	   6	   6	   6	   6	   6	   5	   5	   6	   6	   5	   6	   5	   7	   7	   6	   5	   5	   8	   8	   5	   8	   6	   5	   7	   5	   6	   6	   7	   6	   5	   7	   7	 999	   5	   5	   5	   8	   7	   5	   7	   8	   7	   5	   5	   0	
   8	   6	   6	   6	   7	   7	   7	   7	   7	   7	   6	   8	   8	   6	   7	   9	   6	   8	   7	   5	   7	   7	   7	   6	   5	   8	   5	   6	   8	   7	   7	   8	   6	   6	   6	   8	   5	   6	   8	 999	   5	   5	   9	   7	   6	   7	   8	   7	   6	   5	   0	
   9	   5	   6	   6	   7	   7	   7	   7	   7	   8	   6	   8	   8	   6	   7	   9	   6	   8	   7	   5	   7	   7	   7	   5	   5	   8	   5	   6	   8	   7	   7	   8	   6	   5	   6	   8	   6	   5	   8	   5	 999	   6	   8	   7	   6	   7	   8	   7	   5	   5	   0	
   7	   5	   7	   5	   6	   9	   8	   6	   6	   6	   6	   7	   7	   7	   6	   7	   8	   7	   5	   7	   7	   7	   7	   5	   6	   7	   6	   8	   7	   5	   7	   7	   8	   6	   6	   7	   7	   6	   7	   7	   6	 999	   8	   7	   5	   7	   8	   7	   6	   5	   0	
   6	   7	   6	   6	   6	   7	   6	   5	   6	   6	   6	   5	   5	   6	   6	   6	   6	   5	   7	   6	   5	   5	   5	   7	   8	   6	   7	   6	   5	   7	   5	   6	   6	   7	   6	   5	   6	   7	   5	   7	   7	   6	 999	   6	   8	   6	   5	   6	   8	   9	   0	
   7	   6	   5	   6	   6	   6	   5	   5	   6	   6	   5	   6	   6	   5	   6	   7	   5	   6	   7	   6	   5	   5	   5	   6	   7	   6	   6	   6	   6	   7	   5	   6	   5	   6	   5	   6	   6	   6	   6	   6	   7	   7	   5	 999	   6	   5	   6	   5	   7	   7	   0	
   6	   8	   7	   6	   5	   8	   7	   6	   6	   5	   7	   5	   5	   6	   5	   5	   7	   5	   6	   7	   6	   6	   6	   8	   8	   5	   8	   7	   5	   6	   6	   5	   7	   8	   6	   5	   7	   8	   6	   8	   8	   7	   5	   6	 999	   6	   7	   6	   6	   6	   0	
   7	   7	   5	   7	   7	   5	   5	   6	   8	   8	   7	   7	   7	   6	   8	   7	   5	   6	   9	   6	   6	   6	   5	   7	   7	   7	   7	   5	   7	   9	   6	   7	   5	   7	   7	   7	   6	   7	   6	   6	   7	   8	   6	   6	   7	 999	   6	   5	   7	   7	   0	
   7	   6	   8	   6	   6	   9	   8	   7	   6	   5	   7	   7	   6	   7	   5	   7	   8	   7	   5	   7	   7	   7	   8	   6	   7	   6	   7	   8	   6	   5	   8	   6	   8	   6	   6	   6	   8	   6	   7	   7	   7	   6	   7	   7	   6	   9	 999	   6	   7	   9	   0	
   8	   6	   5	   6	   6	   7	   6	   6	   6	   7	   5	   7	   7	   6	   7	   8	   6	   7	   7	   5	   6	   6	   7	   6	   6	   8	   5	   6	   7	   7	   6	   7	   6	   5	   5	   7	   5	   5	   7	   5	   5	   6	   7	   6	   7	   6	   7	 999	   7	   7	   0	
   8	   6	   5	   6	   7	   6	   6	   6	   7	   7	   6	   7	   8	   6	   7	   8	   6	   7	   8	   5	   6	   6	   7	   6	   6	   8	   6	   6	   7	   8	   6	   7	   6	   6	   6	   7	   5	   6	   7	   5	   6	   7	   7	   6	   7	   6	   8	   5	 999	   6	   0	
   5	   8	   7	   6	   5	   7	   6	   6	   6	   6	   7	   5	   5	   6	   5	   5	   6	   5	   7	   7	   6	   6	   6	   8	   8	   5	   8	   6	   5	   7	   6	   5	   6	   8	   6	   5	   7	   8	   5	   8	   8	   7	   5	   6	   5	   7	   6	   7	   7	 999	   0	
   7	   6	   6	   5	   5	   7	   6	   5	   5	   6	   5	   6	   6	   6	   6	   7	   7	   6	   6	   6	   6	   6	   6	   6	   7	   7	   6	   7	   6	   6	   6	   6	   6	   6	   5	   6	   6	   6	   6	   6	   6	   6	   6	   6	   6	   7	   6	   6	   6	   6	 999	

 999	   7	   7	   7	   6	   5	   7	   7	   7	   5	   6	   6	   6	   7	   6	   6	   6	   6	   6	   8	   7	   5	   6	   7	   7	   6	   6	   6	   7	   7	   6	   6	   7	   6	   6	   6	   7	   8	   6	   7	   7	   7	   7	   7	   7	   6	   5	   7	   7	   6	   0	
   6	 999	   6	   8	   6	   7	   5	   6	   6	   7	   5	   6	   6	   7	   6	   6	   6	   6	   6	   6	   5	   7	   6	   6	   7	   6	   6	   7	   6	   6	   6	   6	   7	   6	   6	   6	   5	   5	   6	   7	   7	   8	   7	   6	   5	   6	   7	   6	   6	   5	   0	
   6	   7	 999	   6	   6	   7	   5	   7	   5	   7	   5	   6	   6	   6	   6	   7	   7	   6	   6	   6	   5	   7	   7	   8	   6	   6	   6	   5	   7	   5	   6	   5	   5	   6	   6	   7	   7	   5	   5	   6	   5	   6	   5	   7	   7	   6	   7	   5	   5	   6	   0	
   5	   7	   5	 999	   8	   6	   7	   9	   7	   6	   7	   6	   6	   5	   6	   8	   9	   6	   8	   7	   7	   7	   8	   9	   5	   6	   7	   5	   9	   6	   8	   6	   5	   6	   6	   8	   8	   7	   6	   5	   5	   5	   5	   9	   8	   6	   8	   6	   6	   7	   0	
   5	   6	   6	   5	 999	   6	   6	   6	   6	   6	   6	   7	   7	   7	   6	   5	   5	   7	   5	   7	   6	   5	   5	   6	   8	   7	   6	   7	   6	   6	   5	   6	   7	   6	   6	   5	   5	   6	   6	   7	   7	   8	   7	   6	   6	   7	   6	   7	   7	   5	   0	
   7	   5	   8	   7	   6	 999	   7	   7	   7	   5	   6	   5	   6	   7	   5	   7	   7	   5	   6	   8	   7	   6	   6	   7	   6	   6	   6	   6	   7	   7	   6	   6	   7	   6	   5	   6	   7	   7	   6	   6	   6	   6	   6	   7	   7	   5	   6	   6	   7	   6	   0	
   7	   6	   7	   6	   6	   7	 999	   7	   5	   7	   6	   6	   6	   6	   6	   6	   7	   6	   6	   5	   5	   7	   7	   7	   6	   6	   6	   6	   6	   5	   6	   6	   6	   6	   6	   6	   6	   5	   6	   6	   6	   7	   6	   6	   6	   6	   7	   6	   6	   6	   0	
   7	   5	   8	   8	   7	   5	   7	 999	   7	   7	   7	   8	   8	   8	   7	   6	   5	   8	   5	   7	   7	   6	   6	   5	   9	   8	   7	   8	   5	   7	   6	   7	   8	   7	   7	   5	   5	   7	   7	   8	   8	   9	   8	   5	   5	   7	   7	   8	   8	   6	   0	
   5	   6	   6	   6	   6	   6	   7	   7	 999	   8	   6	   6	   6	   6	   6	   6	   7	   6	   6	   5	   5	   7	   7	   7	   6	   6	   6	   6	   7	   5	   6	   6	   6	   6	   6	   6	   6	   5	   6	   6	   6	   7	   6	   7	   6	   7	   7	   5	   5	   6	   0	
   6	   6	   6	   6	   6	   6	   5	   6	   7	 999	   6	   6	   6	   7	   6	   7	   7	   6	   6	   8	   7	   5	   6	   7	   7	   6	   6	   6	   7	   7	   6	   6	   7	   6	   6	   6	   7	   8	   6	   6	   7	   6	   7	   7	   7	   6	   6	   7	   7	   6	   0	
   7	   5	   8	   8	   7	   5	   7	   5	   7	   7	 999	   5	   6	   6	   5	   6	   7	   5	   6	   7	   6	   6	   6	   7	   6	   6	   5	   6	   6	   6	   6	   5	   6	   5	   5	   6	   6	   6	   5	   6	   6	   7	   6	   6	   6	   5	   6	   6	   6	   5	   0	
   7	   6	   7	   6	   6	   6	   5	   6	   7	   5	   6	 999	   5	   6	   5	   7	   7	   5	   7	   7	   6	   6	   7	   8	   6	   5	   5	   5	   7	   6	   7	   5	   6	   5	   5	   7	   7	   7	   5	   5	   6	   6	   5	   7	   7	   5	   6	   6	   6	   6	   0	
   5	   7	   5	   5	   6	   7	   6	   8	   6	   6	   8	   6	 999	   5	   5	   7	   8	   5	   7	   7	   6	   6	   7	   8	   5	   5	   5	   5	   7	   6	   7	   5	   5	   5	   5	   7	   7	   6	   5	   5	   5	   6	   5	   7	   7	   5	   6	   5	   6	   6	   0	
   6	   5	   7	   6	   6	   5	   6	   6	   6	   5	   6	   5	   7	 999	   6	   8	   8	   6	   8	   6	   6	   7	   8	   9	   5	   5	   6	   5	   8	   6	   8	   6	   5	   6	   6	   8	   8	   6	   6	   5	   5	   5	   5	   8	   8	   6	   7	   5	   5	   7	   0	
   6	   5	   7	   7	   6	   5	   6	   5	   6	   6	   5	   6	   7	   5	 999	   7	   7	   5	   6	   7	   6	   6	   6	   7	   6	   5	   5	   6	   7	   6	   6	   5	   6	   5	   5	   6	   7	   6	   5	   6	   5	   6	   5	   7	   7	   5	   6	   5	   6	   5	   0	
   6	   7	   6	   5	   5	   7	   6	   8	   6	   6	   8	   6	   5	   7	   7	 999	   5	   7	   5	   7	   6	   6	   5	   5	   8	   7	   6	   8	   6	   7	   5	   7	   8	   7	   7	   5	   6	   7	   7	   8	   8	   9	   8	   6	   6	   7	   5	   7	   7	   6	   0	
   6	   5	   7	   7	   6	   5	   6	   5	   6	   6	   6	   6	   7	   5	   5	   7	 999	   8	   5	   7	   7	   6	   5	   5	   8	   8	   7	   8	   5	   7	   5	   7	   8	   7	   7	   5	   5	   6	   7	   8	   8	   9	   8	   5	   5	   7	   6	   8	   8	   6	   0	
   5	   7	   5	   6	   6	   8	   7	   8	   6	   6	   8	   7	   6	   7	   7	   6	   7	 999	   7	   7	   6	   6	   7	   8	   6	   5	   5	   5	   7	   6	   7	   5	   6	   5	   5	   7	   7	   7	   5	   5	   6	   6	   6	   7	   7	   5	   6	   6	   6	   6	   0	
   6	   5	   7	   6	   6	   5	   6	   6	   5	   6	   6	   6	   7	   5	   5	   7	   5	   7	 999	   7	   6	   5	   5	   6	   8	   7	   6	   7	   6	   6	   5	   6	   7	   6	   6	   5	   5	   6	   6	   8	   7	   8	   7	   5	   6	   7	   6	   7	   7	   5	   0	
   6	   8	   5	   5	   6	   8	   7	   9	   7	   7	   9	   7	   5	   7	   8	   6	   8	   5	   7	 999	   6	   8	   7	   7	   6	   7	   7	   6	   6	   5	   7	   6	   6	   7	   7	   7	   6	   5	   6	   6	   6	   7	   6	   7	   6	   7	   8	   6	   5	   7	   0	
   6	   5	   7	   7	   6	   5	   6	   5	   6	   6	   5	   5	   7	   5	   5	   7	   5	   7	   5	   8	 999	   7	   6	   7	   6	   6	   6	   6	   6	   5	   6	   5	   6	   6	   6	   6	   6	   5	   5	   6	   6	   7	   6	   7	   6	   6	   7	   6	   5	   6	   0	
   5	   6	   6	   6	   6	   6	   7	   6	   5	   7	   7	   7	   6	   6	   6	   6	   6	   6	   5	   7	   6	 999	   5	   6	   7	   6	   6	   7	   7	   7	   5	   6	   7	   6	   6	   5	   6	   7	   6	   7	   6	   7	   6	   6	   7	   6	   5	   6	   7	   6	   0	
   6	   6	   7	   7	   6	   6	   7	   6	   6	   7	   6	   7	   7	   6	   6	   7	   6	   7	   5	   8	   6	   6	 999	   6	   8	   7	   6	   8	   6	   7	   5	   7	   7	   6	   7	   5	   6	   7	   6	   8	   7	   8	   7	   6	   6	   7	   5	   7	   7	   6	   0	
   6	   6	   7	   6	   6	   6	   8	   6	   5	   7	   6	   7	   7	   6	   6	   6	   6	   7	   6	   7	   6	   5	   5	 999	   9	   8	   7	   8	   5	   7	   6	   8	   8	   7	   7	   6	   5	   7	   7	   9	   8	   9	   8	   5	   5	   8	   6	   8	   8	   7	   0	
   6	   6	   7	   7	   6	   6	   8	   6	   6	   7	   6	   7	   7	   6	   6	   7	   6	   7	   6	   8	   7	   5	   5	   5	 999	   5	   6	   5	   8	   6	   8	   6	   5	   6	   6	   8	   8	   7	   6	   5	   5	   5	   5	   8	   8	   6	   7	   5	   5	   7	   0	
   5	   7	   5	   5	   5	   7	   7	   8	   6	   6	   8	   7	   5	   6	   7	   6	   7	   5	   6	   5	   7	   6	   7	   6	   7	 999	   5	   5	   7	   6	   7	   5	   5	   5	   5	   7	   7	   6	   5	   5	   5	   6	   5	   7	   7	   5	   6	   5	   6	   6	   0	
   7	   6	   8	   7	   6	   5	   7	   5	   6	   6	   5	   7	   7	   6	   5	   7	   6	   7	   5	   8	   6	   6	   5	   5	   5	   7	 999	   6	   6	   6	   6	   5	   6	   5	   5	   6	   6	   6	   5	   6	   6	   7	   6	   7	   6	   5	   6	   6	   6	   5	   0	
   6	   8	   5	   6	   6	   8	   7	   9	   7	   7	   9	   7	   5	   7	   8	   5	   8	   5	   7	   5	   8	   7	   8	   7	   8	   6	   8	 999	   8	   6	   7	   5	   5	   6	   6	   7	   8	   6	   6	   5	   5	   5	   5	   8	   8	   5	   7	   5	   6	   6	   0	
   6	   6	   8	   7	   6	   6	   7	   6	   6	   7	   6	   7	   7	   6	   6	   7	   6	   7	   6	   8	   6	   6	   5	   5	   5	   7	   5	   8	 999	   7	   6	   7	   8	   7	   7	   6	   5	   6	   7	   8	   8	   9	   8	   5	   5	   7	   7	   7	   7	   6	   0	
   7	   6	   8	   7	   6	   6	   7	   6	   6	   6	   5	   7	   7	   6	   6	   7	   6	   7	   5	   8	   6	   6	   5	   5	   5	   7	   5	   8	   5	 999	   6	   6	   5	   6	   6	   6	   7	   5	   6	   6	   5	   6	   5	   7	   7	   6	   7	   5	   5	   6	   0	
   7	   6	   7	   6	   6	   6	   5	   7	   7	   5	   7	   5	   6	   6	   6	   6	   6	   7	   6	   7	   6	   7	   7	   8	   8	   7	   7	   7	   7	   7	 999	   6	   7	   6	   6	   5	   6	   7	   6	   8	   7	   8	   7	   6	   6	   7	   5	   7	   7	   5	   0	
   6	   5	   7	   7	   6	   5	   6	   5	   6	   6	   6	   5	   7	   5	   5	   7	   5	   7	   5	   8	   5	   6	   6	   6	   7	   7	   6	   8	   6	   6	   6	 999	   5	   5	   5	   6	   7	   6	   5	   6	   5	   6	   5	   7	   7	   5	   6	   5	   6	   5	   0	
   6	   6	   6	   6	   6	   7	   5	   7	   7	   5	   7	   6	   6	   6	   6	   5	   6	   7	   6	   7	   6	   7	   7	   7	   7	   6	   7	   6	   7	   7	   5	   6	 999	   5	   6	   7	   7	   6	   6	   5	   5	   5	   5	   8	   7	   6	   7	   5	   5	   6	   0	
   6	   5	   7	   7	   6	   5	   6	   5	   6	   5	   6	   5	   7	   5	   5	   7	   5	   7	   5	   8	   5	   6	   6	   6	   6	   7	   6	   8	   6	   6	   6	   5	   6	 999	   5	   6	   6	   6	   5	   6	   6	   6	   5	   7	   7	   5	   6	   5	   6	   5	   0	
   5	   6	   6	   6	   6	   6	   8	   6	   5	   7	   6	   7	   6	   7	   6	   7	   6	   6	   6	   7	   7	   5	   5	   5	   5	   6	   6	   7	   6	   6	   8	   7	   7	   7	 999	   6	   7	   6	   5	   6	   5	   6	   5	   7	   7	   5	   6	   5	   6	   5	   0	
   6	   6	   6	   5	   5	   7	   6	   7	   6	   5	   7	   5	   5	   6	   6	   5	   6	   6	   6	   6	   6	   6	   6	   6	   6	   6	   7	   6	   6	   7	   6	   6	   5	   6	   7	 999	   5	   6	   6	   8	   7	   8	   7	   5	   6	   7	   6	   7	   7	   6	   0	
   6	   6	   7	   7	   6	   6	   7	   6	   5	   6	   6	   7	   7	   6	   5	   7	   6	   7	   5	   7	   6	   5	   5	   5	   5	   7	   5	   8	   5	   5	   7	   6	   7	   6	   5	   6	 999	   6	   6	   8	   7	   8	   7	   5	   5	   7	   6	   7	   7	   6	   0	
   6	   5	   7	   7	   6	   5	   6	   5	   6	   6	   5	   5	   7	   5	   5	   7	   5	   7	   6	   8	   5	   7	   7	   7	   7	   7	   6	   8	   7	   6	   6	   5	   6	   5	   7	   6	   6	 999	   6	   6	   6	   7	   6	   6	   6	   7	   8	   6	   6	   6	   0	
   6	   8	   5	   5	   6	   8	   6	   8	   6	   6	   8	   7	   5	   7	   8	   5	   7	   6	   7	   5	   8	   6	   7	   7	   7	   5	   8	   5	   8	   8	   6	   7	   6	   7	   6	   6	   7	   8	 999	   6	   6	   6	   6	   7	   6	   5	   6	   5	   6	   5	   0	
   6	   7	   6	   5	   6	   7	   5	   7	   7	   6	   8	   6	   5	   6	   7	   5	   7	   6	   6	   6	   7	   7	   7	   7	   7	   6	   7	   6	   7	   7	   5	   7	   5	   6	   7	   5	   6	   7	   5	 999	   5	   5	   5	   8	   8	   5	   7	   5	   6	   7	   0	
   7	   5	   8	   8	   7	   5	   7	   5	   7	   6	   5	   6	   8	   6	   5	   8	   5	   8	   6	   9	   5	   6	   6	   6	   6	   8	   5	   9	   6	   6	   7	   5	   7	   6	   6	   7	   6	   5	   8	   7	 999	   5	   5	   8	   8	   6	   7	   5	   5	   6	   0	
   5	   6	   6	   6	   6	   6	   8	   6	   5	   7	   6	   7	   6	   6	   6	   7	   6	   6	   6	   7	   7	   5	   5	   5	   5	   6	   6	   7	   6	   6	   8	   7	   7	   6	   5	   6	   5	   7	   6	   7	   6	 999	   5	   9	   8	   6	   8	   6	   6	   7	   0	
   7	   6	   8	   7	   7	   6	   7	   6	   6	   7	   5	   7	   8	   6	   6	   8	   6	   8	   6	   8	   6	   6	   5	   6	   5	   8	   5	   9	   5	   5	   7	   6	   7	   6	   6	   7	   5	   6	   8	   7	   6	   6	 999	   8	   8	   6	   7	   5	   5	   6	   0	
   7	   6	   8	   7	   6	   6	   7	   6	   6	   6	   5	   7	   7	   6	   5	   7	   6	   7	   5	   8	   6	   6	   5	   5	   5	   7	   5	   8	   5	   5	   7	   6	   7	   6	   6	   7	   5	   6	   8	   7	   5	   6	   5	 999	   5	   7	   7	   8	   7	   6	   0	
   6	   5	   7	   6	   6	   6	   5	   6	   7	   5	   6	   5	   6	   5	   6	   6	   5	   7	   6	   7	   5	   7	   7	   7	   7	   6	   6	   7	   7	   7	   5	   5	   6	   5	   7	   6	   7	   5	   7	   6	   6	   7	   7	   7	 999	   7	   7	   7	   7	   6	   0	
   5	   6	   6	   5	   5	   6	   6	   7	   6	   5	   7	   6	   6	   6	   6	   5	   6	   6	   6	   6	   6	   6	   6	   6	   6	   5	   6	   6	   6	   6	   6	   6	   6	   6	   6	   5	   6	   6	   6	   5	   7	   6	   7	   6	   6	 999	   6	   6	   6	   6	   0	
   5	   7	   5	   6	   6	   7	   7	   8	   6	   7	   8	   7	   6	   6	   7	   6	   7	   5	   6	   6	   7	   6	   7	   6	   7	   5	   7	   6	   7	   7	   7	   7	   7	   7	   6	   6	   6	   7	   6	   7	   8	   6	   7	   7	   7	   6	 999	   7	   7	   6	   0	
   7	   6	   6	   6	   6	   6	   5	   6	   7	   5	   7	   5	   6	   5	   6	   6	   5	   7	   6	   7	   6	   7	   7	   7	   7	   6	   6	   7	   7	   7	   5	   6	   5	   5	   7	   5	   7	   6	   6	   6	   6	   7	   7	   7	   5	   6	   7	 999	   5	   6	   0	
   6	   5	   7	   6	   5	   6	   7	   6	   5	   6	   6	   6	   6	   5	   5	   6	   5	   6	   5	   7	   6	   5	   5	   5	   6	   6	   6	   7	   5	   5	   7	   6	   6	   5	   6	   6	   5	   6	   7	   6	   6	   5	   6	   5	   6	   5	   6	   6	 999	   6	   0	
   6	   6	   7	   7	   6	   6	   7	   6	   6	   6	   5	   7	   7	   6	   6	   7	   6	   7	   5	   8	   6	   6	   5	   5	   5	   7	   5	   8	   5	   5	   7	   6	   7	   6	   6	   6	   5	   6	   8	   7	   6	   6	   5	   5	   7	   6	   7	   7	   5	 999	   0	
   6	   6	   6	   6	   5	   6	   5	   7	   6	   5	   7	   5	   6	   5	   6	   6	   6	   6	   6	   6	   6	   6	   6	   7	   7	   6	   6	   7	   7	   6	   5	   6	   5	   6	   7	   5	   6	   6	   6	   5	   7	   7	   6	   6	   5	   5	   6	   5	   6	   6	 999	

 999	   6	   7	   6	   7	   7	   7	   5	   6	   6	   8	   7	   7	   6	   7	   5	   6	   6	   6	   6	   5	   5	   6	   5	   7	   8	   5	   6	   7	   7	   7	   6	   6	   7	   6	   7	   6	   7	   6	   6	   5	   6	   6	   7	   7	   7	   5	   5	   7	   6	   0	
   5	 999	   5	   6	   5	   5	   7	   6	   5	   6	   6	   5	   6	   6	   5	   5	   6	   6	   6	   6	   7	   5	   5	   7	   5	   6	   6	   6	   5	   5	   7	   5	   6	   6	   5	   6	   7	   6	   6	   5	   7	   6	   6	   7	   5	   5	   7	   5	   6	   5	   0	
   6	   5	 999	   7	   5	   5	   7	   6	   6	   6	   5	   5	   5	   6	   5	   6	   6	   6	   7	   6	   7	   6	   6	   7	   5	   5	   7	   7	   5	   5	   7	   5	   6	   5	   5	   6	   7	   6	   6	   5	   8	   7	   6	   7	   5	   5	   7	   6	   6	   5	   0	
   5	   5	   6	 999	   7	   7	   6	   6	   6	   7	   8	   7	   7	   5	   7	   6	   7	   6	   5	   6	   6	   5	   7	   6	   7	   8	   6	   8	   7	   7	   6	   6	   5	   7	   6	   7	   5	   7	   7	   6	   5	   5	   7	   6	   7	   7	   5	   6	   7	   6	   0	
   6	   6	   7	   6	 999	   5	   7	   7	   6	   6	   5	   5	   6	   6	   5	   6	   6	   6	   7	   6	   7	   6	   5	   7	   5	   5	   7	   6	   5	   5	   7	   5	   6	   5	   5	   6	   7	   6	   6	   5	   8	   7	   6	   7	   5	   5	   7	   6	   6	   5	   0	
   7	   8	   8	   7	   6	 999	   7	   7	   6	   6	   5	   5	   6	   6	   5	   6	   6	   6	   7	   6	   7	   6	   6	   7	   5	   5	   7	   6	   5	   5	   7	   6	   6	   5	   5	   6	   7	   6	   6	   6	   8	   7	   6	   7	   5	   5	   7	   6	   6	   5	   0	
   5	   5	   5	   5	   6	   8	 999	   8	   8	   8	   7	   8	   6	   5	   7	   7	   8	   5	   5	   5	   7	   7	   8	   7	   8	   7	   7	   9	   7	   6	   5	   8	   6	   7	   8	   8	   6	   6	   9	   7	   7	   5	   8	   5	   6	   7	   7	   7	   6	   8	   0	
   6	   6	   7	   6	   6	   6	   6	 999	   5	   5	   7	   6	   7	   7	   7	   5	   5	   7	   7	   7	   5	   6	   6	   5	   6	   7	   5	   6	   7	   6	   8	   6	   6	   7	   6	   6	   7	   7	   5	   6	   6	   7	   5	   7	   6	   6	   6	   5	   7	   6	   0	
   6	   6	   7	   6	   6	   6	   6	   5	 999	   5	   6	   6	   6	   7	   6	   5	   5	   7	   7	   7	   6	   5	   5	   6	   6	   6	   6	   6	   6	   6	   7	   5	   6	   6	   5	   5	   6	   6	   5	   6	   6	   7	   5	   7	   6	   6	   6	   5	   7	   5	   0	
   6	   7	   8	   6	   5	   6	   7	   6	   6	 999	   7	   6	   7	   7	   6	   6	   5	   7	   8	   7	   6	   6	   5	   6	   6	   7	   6	   5	   6	   7	   8	   5	   7	   6	   5	   6	   7	   7	   5	   6	   6	   8	   5	   8	   6	   6	   6	   5	   7	   5	   0	
   7	   7	   7	   6	   6	   7	   7	   7	   7	   6	 999	   5	   6	   7	   5	   7	   6	   6	   7	   6	   8	   7	   6	   8	   5	   5	   8	   7	   5	   5	   7	   6	   7	   5	   6	   6	   8	   6	   6	   6	   8	   7	   7	   7	   5	   5	   8	   7	   6	   6	   0	
   7	   7	   7	   6	   6	   7	   7	   7	   7	   6	   5	 999	   6	   7	   5	   6	   6	   7	   7	   7	   7	   6	   5	   7	   5	   5	   7	   6	   5	   6	   7	   5	   6	   6	   5	   5	   7	   6	   6	   6	   8	   7	   6	   7	   6	   5	   7	   6	   6	   5	   0	
   6	   6	   7	   6	   7	   6	   6	   6	   6	   7	   8	   8	 999	   7	   6	   6	   7	   6	   7	   6	   8	   6	   6	   8	   6	   5	   7	   8	   5	   5	   6	   6	   7	   5	   6	   7	   8	   5	   7	   6	   8	   7	   7	   6	   5	   6	   8	   6	   5	   6	   0	
   5	   5	   5	   5	   6	   8	   5	   6	   6	   7	   7	   7	   6	 999	   6	   6	   7	   5	   5	   5	   6	   6	   7	   7	   7	   7	   6	   8	   6	   6	   5	   7	   5	   7	   7	   7	   6	   6	   8	   6	   6	   5	   7	   5	   6	   6	   6	   7	   6	   7	   0	
   7	   7	   8	   7	   5	   6	   7	   5	   6	   5	   6	   6	   7	   7	 999	   6	   6	   6	   7	   6	   7	   6	   6	   7	   5	   5	   7	   6	   5	   5	   7	   6	   6	   5	   5	   6	   7	   6	   6	   6	   8	   7	   6	   7	   5	   5	   7	   6	   6	   5	   0	
   7	   7	   8	   7	   6	   5	   7	   5	   6	   7	   8	   8	   6	   7	   6	 999	   6	   6	   6	   6	   6	   5	   5	   6	   6	   7	   5	   6	   6	   6	   7	   5	   6	   6	   6	   6	   6	   6	   6	   5	   6	   6	   6	   7	   6	   6	   6	   5	   6	   5	   0	
   6	   7	   8	   6	   6	   7	   7	   7	   7	   6	   6	   5	   8	   7	   6	   8	 999	   7	   7	   7	   6	   6	   5	   6	   6	   6	   6	   5	   6	   6	   8	   5	   7	   6	   5	   5	   7	   7	   5	   6	   6	   7	   5	   8	   6	   6	   6	   5	   7	   5	   0	
   6	   5	   6	   6	   6	   7	   5	   6	   6	   7	   8	   8	   6	   5	   7	   7	   7	 999	   5	   5	   6	   6	   7	   7	   7	   7	   6	   8	   6	   6	   5	   7	   5	   6	   7	   7	   6	   6	   8	   6	   6	   5	   7	   5	   5	   6	   6	   6	   6	   7	   0	
   6	   6	   6	   6	   7	   7	   6	   6	   6	   7	   8	   8	   5	   6	   6	   6	   8	   5	 999	   5	   6	   6	   7	   7	   7	   7	   6	   8	   7	   7	   5	   7	   5	   7	   7	   7	   5	   7	   8	   6	   6	   5	   8	   6	   6	   6	   6	   7	   7	   7	   0	
   6	   5	   5	   6	   7	   8	   5	   7	   7	   7	   7	   7	   6	   5	   8	   8	   7	   5	   6	 999	   6	   6	   7	   7	   7	   7	   6	   8	   6	   6	   5	   7	   5	   6	   7	   7	   6	   6	   8	   6	   6	   5	   7	   5	   6	   6	   6	   6	   6	   7	   0	
   6	   6	   7	   6	   6	   6	   6	   5	   5	   6	   7	   7	   6	   6	   6	   6	   7	   6	   5	   7	 999	   6	   6	   5	   7	   8	   5	   6	   7	   7	   7	   6	   6	   8	   7	   7	   6	   7	   6	   6	   5	   6	   6	   7	   7	   7	   5	   6	   7	   6	   0	
   5	   5	   6	   5	   6	   7	   5	   6	   6	   6	   7	   7	   6	   5	   7	   7	   7	   5	   5	   6	   6	 999	   6	   6	   6	   7	   5	   7	   6	   6	   7	   5	   5	   6	   6	   6	   6	   6	   6	   5	   6	   6	   6	   6	   6	   6	   6	   5	   6	   6	   0	
   6	   6	   6	   6	   6	   7	   6	   6	   6	   6	   5	   6	   7	   6	   7	   7	   6	   7	   7	   6	   6	   6	 999	   6	   5	   6	   6	   6	   6	   6	   8	   5	   7	   6	   5	   5	   7	   7	   5	   6	   7	   7	   5	   8	   6	   5	   6	   5	   7	   5	   0	
   5	   5	   6	   5	   6	   7	   5	   6	   6	   6	   6	   6	   7	   5	   7	   7	   6	   6	   6	   6	   6	   5	   5	 999	   7	   8	   5	   6	   8	   7	   7	   6	   6	   8	   7	   7	   6	   7	   6	   6	   5	   7	   6	   7	   7	   7	   5	   6	   7	   7	   0	
   6	   7	   7	   6	   5	   7	   7	   6	   7	   6	   5	   5	   8	   6	   6	   7	   6	   7	   8	   6	   7	   7	   5	   6	 999	   5	   7	   6	   5	   6	   8	   5	   6	   6	   5	   5	   7	   7	   6	   6	   7	   7	   6	   7	   6	   5	   7	   6	   7	   5	   0	
   7	   7	   8	   7	   6	   5	   7	   5	   5	   6	   7	   7	   6	   7	   5	   5	   7	   7	   6	   8	   6	   7	   6	   7	   7	 999	   8	   7	   5	   5	   7	   6	   7	   5	   6	   6	   8	   6	   7	   6	   8	   7	   7	   6	   6	   5	   8	   7	   6	   6	   0	
   5	   6	   7	   6	   6	   6	   6	   5	   5	   6	   7	   7	   6	   6	   6	   6	   7	   6	   6	   7	   5	   6	   6	   5	   7	   6	 999	   6	   7	   7	   7	   6	   6	   7	   6	   6	   6	   7	   6	   6	   5	   6	   6	   7	   7	   7	   5	   5	   7	   6	   0	
   7	   7	   7	   7	   7	   6	   7	   6	   6	   7	   9	   9	   5	   6	   7	   5	   8	   6	   5	   7	   6	   6	   8	   7	   8	   6	   6	 999	   7	   7	   9	   6	   8	   7	   6	   5	   8	   8	   5	   7	   7	   8	   5	   9	   7	   6	   7	   6	   8	   6	   0	
   5	   5	   5	   5	   6	   8	   5	   6	   6	   7	   7	   7	   6	   5	   7	   7	   7	   5	   6	   5	   6	   5	   6	   5	   7	   7	   6	   6	 999	   5	   7	   6	   6	   5	   5	   6	   8	   6	   6	   6	   8	   7	   7	   7	   5	   5	   7	   6	   6	   6	   0	
   6	   7	   7	   6	   6	   6	   7	   5	   5	   6	   7	   7	   5	   7	   6	   5	   7	   6	   6	   7	   5	   6	   7	   6	   7	   5	   5	   6	   7	 999	   6	   6	   6	   5	   6	   6	   7	   5	   7	   5	   8	   7	   7	   6	   5	   5	   7	   6	   5	   6	   0	
   6	   7	   7	   6	   5	   6	   7	   5	   5	   5	   6	   6	   7	   7	   5	   6	   6	   6	   6	   7	   5	   6	   6	   6	   6	   5	   5	   7	   7	   6	 999	   7	   6	   6	   8	   8	   6	   6	   8	   6	   6	   5	   8	   5	   6	   7	   7	   7	   6	   8	   0	
   8	   8	   9	   8	   6	   5	   8	   7	   7	   6	   7	   7	   7	   8	   6	   6	   6	   8	   7	   9	   7	   8	   8	   8	   7	   6	   7	   7	   8	   6	   6	 999	   6	   6	   5	   5	   6	   6	   6	   6	   7	   7	   5	   7	   6	   5	   6	   5	   6	   5	   0	
   6	   7	   7	   6	   6	   6	   7	   5	   5	   6	   7	   7	   6	   7	   6	   5	   7	   6	   5	   7	   5	   6	   6	   6	   7	   5	   5	   6	   6	   5	   6	   6	 999	   7	   6	   7	   6	   6	   7	   5	   6	   5	   7	   5	   6	   6	   6	   6	   6	   6	   0	
   5	   5	   6	   5	   6	   7	   5	   5	   5	   6	   6	   6	   7	   5	   6	   6	   6	   6	   6	   6	   5	   5	   5	   5	   6	   6	   5	   7	   6	   6	   6	   7	   6	 999	   6	   6	   8	   5	   7	   6	   8	   7	   7	   6	   5	   5	   8	   6	   5	   6	   0	
   6	   7	   8	   6	   5	   6	   7	   6	   6	   5	   6	   6	   7	   7	   5	   7	   5	   6	   7	   7	   6	   6	   6	   6	   5	   6	   6	   8	   7	   6	   5	   6	   6	   6	 999	   5	   7	   7	   5	   6	   7	   7	   6	   7	   6	   5	   7	   6	   7	   5	   0	
   8	   8	   9	   8	   6	   6	   8	   7	   7	   6	   7	   7	   7	   8	   6	   6	   6	   8	   7	   9	   7	   8	   8	   8	   7	   6	   7	   7	   8	   6	   6	   5	   6	   7	   6	 999	   7	   7	   5	   6	   7	   7	   6	   8	   6	   6	   7	   6	   7	   5	   0	
   5	   5	   6	   5	   6	   7	   5	   6	   6	   6	   6	   6	   7	   5	   7	   7	   6	   6	   6	   6	   6	   5	   5	   5	   6	   7	   5	   7	   5	   6	   6	   8	   6	   5	   6	   8	 999	   7	   7	   6	   5	   5	   7	   6	   7	   7	   6	   6	   7	   7	   0	
   6	   7	   8	   6	   6	   7	   7	   7	   7	   5	   6	   5	   8	   7	   6	   7	   5	   7	   8	   7	   7	   7	   6	   6	   5	   7	   7	   8	   7	   7	   6	   6	   7	   6	   5	   6	   6	 999	   7	   5	   8	   7	   7	   5	   5	   6	   7	   6	   5	   7	   0	
   6	   7	   6	   6	   5	   7	   7	   6	   6	   6	   5	   5	   8	   6	   6	   7	   6	   7	   8	   6	   7	   7	   5	   6	   5	   7	   6	   8	   7	   7	   6	   7	   7	   6	   6	   7	   6	   6	 999	   7	   6	   8	   5	   8	   7	   6	   6	   6	   7	   5	   0	
   5	   5	   5	   5	   6	   8	   5	   6	   6	   7	   7	   7	   6	   5	   7	   7	   7	   6	   6	   5	   6	   5	   6	   5	   6	   7	   6	   7	   5	   7	   7	   8	   7	   5	   7	   8	   5	   7	   6	 999	   7	   6	   6	   6	   5	   5	   6	   5	   6	   6	   0	
   5	   5	   5	   5	   7	   8	   5	   6	   6	   7	   7	   7	   6	   5	   7	   7	   7	   5	   6	   5	   6	   5	   6	   5	   6	   7	   6	   7	   5	   7	   7	   9	   7	   6	   7	   9	   5	   7	   6	   5	 999	   6	   6	   7	   7	   8	   5	   6	   8	   7	   0	
   6	   6	   7	   6	   5	   6	   6	   6	   6	   5	   6	   6	   7	   6	   5	   7	   5	   6	   7	   7	   6	   6	   6	   6	   5	   6	   6	   7	   6	   6	   5	   7	   6	   5	   5	   7	   6	   5	   5	   6	   7	 999	   8	   6	   6	   7	   6	   7	   7	   7	   0	
   7	   8	   9	   7	   6	   6	   8	   6	   6	   5	   7	   6	   7	   8	   5	   6	   6	   8	   7	   8	   6	   7	   7	   7	   7	   6	   6	   7	   8	   6	   6	   5	   6	   7	   6	   5	   7	   6	   7	   8	   8	   6	 999	   8	   6	   6	   6	   5	   7	   6	   0	
   5	   5	   5	   5	   6	   8	   5	   6	   6	   7	   7	   7	   6	   5	   7	   7	   7	   5	   6	   5	   6	   5	   6	   5	   6	   7	   6	   7	   5	   7	   7	   8	   6	   5	   7	   8	   5	   7	   6	   5	   5	   6	   8	 999	   6	   7	   6	   7	   6	   7	   0	
   5	   5	   6	   5	   6	   7	   5	   5	   5	   6	   7	   7	   6	   5	   6	   6	   7	   5	   5	   6	   5	   5	   6	   5	   7	   6	   5	   6	   5	   6	   6	   7	   6	   6	   6	   7	   5	   7	   7	   5	   6	   6	   7	   5	 999	   5	   7	   6	   5	   6	   0	
   7	   7	   8	   7	   6	   5	   7	   6	   6	   6	   7	   7	   6	   7	   6	   5	   7	   7	   6	   8	   6	   7	   7	   7	   7	   5	   6	   6	   7	   5	   6	   5	   5	   7	   6	   5	   7	   7	   7	   7	   8	   6	   6	   7	   7	 999	   7	   6	   6	   5	   0	
   6	   7	   7	   6	   6	   6	   7	   5	   5	   6	   7	   7	   6	   7	   5	   5	   7	   6	   6	   7	   5	   6	   6	   6	   7	   5	   5	   6	   7	   5	   5	   6	   5	   6	   6	   6	   6	   7	   7	   7	   7	   6	   6	   7	   6	   5	 999	   6	   7	   6	   0	
   5	   6	   6	   5	   5	   7	   6	   6	   6	   6	   6	   6	   7	   6	   6	   7	   6	   6	   7	   6	   6	   6	   5	   5	   5	   6	   6	   7	   6	   6	   6	   7	   6	   5	   6	   7	   5	   6	   5	   6	   6	   5	   7	   5	   6	   6	   6	 999	   6	   5	   0	
   6	   5	   6	   6	   6	   7	   5	   6	   6	   6	   8	   8	   5	   6	   7	   7	   7	   5	   5	   6	   6	   5	   7	   6	   7	   7	   6	   6	   5	   6	   6	   8	   6	   6	   7	   8	   6	   7	   7	   6	   5	   7	   7	   6	   5	   7	   6	   7	 999	   7	   0	
   7	   7	   8	   7	   6	   6	   7	   6	   6	   5	   6	   6	   7	   7	   5	   6	   6	   7	   6	   8	   6	   7	   7	   7	   6	   5	   6	   7	   7	   6	   5	   5	   5	   7	   5	   5	   7	   6	   6	   7	   8	   6	   5	   7	   7	   5	   5	   6	   7	 999	   0	
   7	   7	   8	   7	   5	   6	   7	   6	   6	   5	   6	   6	   7	   7	   5	   7	   6	   7	   7	   8	   6	   7	   7	   7	   6	   6	   6	   7	   7	   6	   5	   6	   6	   6	   5	   6	   7	   5	   6	   7	   7	   5	   5	   7	   6	   6	   6	   6	   7	   5	 999	

 999	   6	   7	   7	   6	   7	   5	   8	   6	   5	   6	   5	   7	   5	   8	   5	   7	   6	   7	   5	   7	   5	   5	   5	   6	   5	   5	   6	   6	   8	   7	   8	   7	   7	   7	   7	   7	   6	   7	   7	   7	   6	   7	   5	   8	   6	   8	   5	   5	   5	   0	
   7	 999	   6	   6	   5	   6	   5	   6	   5	   6	   6	   5	   6	   6	   6	   7	   6	   5	   5	   6	   6	   6	   6	   5	   6	   5	   5	   6	   5	   7	   7	   7	   5	   6	   6	   6	   5	   6	   6	   6	   6	   6	   6	   6	   7	   5	   7	   6	   5	   6	   0	
   5	   7	 999	   6	   6	   6	   7	   5	   6	   7	   6	   7	   5	   7	   5	   8	   6	   6	   5	   7	   5	   8	   7	   7	   7	   6	   7	   8	   6	   5	   7	   5	   5	   6	   6	   5	   5	   7	   5	   6	   6	   7	   6	   8	   6	   6	   5	   7	   7	   7	   0	
   5	   7	   5	 999	   6	   5	   6	   6	   6	   7	   6	   6	   5	   7	   6	   8	   7	   7	   6	   7	   5	   7	   7	   7	   7	   6	   7	   7	   6	   5	   6	   5	   6	   6	   5	   5	   6	   7	   6	   7	   7	   6	   7	   8	   6	   6	   6	   7	   6	   7	   0	
   6	   7	   5	   6	 999	   6	   6	   6	   5	   6	   6	   6	   6	   6	   6	   6	   6	   6	   6	   6	   6	   6	   5	   6	   6	   5	   6	   6	   5	   7	   7	   7	   6	   6	   6	   6	   6	   5	   6	   6	   6	   5	   7	   6	   7	   6	   7	   6	   5	   6	   0	
   7	   6	   8	   7	   7	 999	   7	   7	   6	   7	   6	   7	   6	   7	   7	   8	   8	   7	   6	   7	   5	   7	   7	   7	   6	   6	   7	   7	   6	   6	   5	   6	   7	   5	   5	   6	   6	   6	   7	   7	   8	   6	   8	   7	   6	   7	   7	   7	   6	   7	   0	
   5	   7	   5	   5	   6	   7	 999	   7	   6	   5	   7	   5	   6	   5	   7	   6	   6	   5	   6	   6	   7	   5	   5	   5	   7	   5	   5	   6	   6	   7	   8	   7	   6	   7	   7	   7	   6	   6	   7	   6	   7	   6	   6	   6	   8	   6	   7	   5	   5	   5	   0	
   6	   5	   6	   6	   7	   7	   6	 999	   6	   8	   7	   7	   6	   7	   5	   8	   5	   6	   5	   7	   6	   8	   7	   7	   7	   7	   7	   8	   6	   6	   8	   6	   5	   7	   7	   6	   5	   7	   5	   5	   5	   7	   5	   8	   6	   6	   5	   8	   7	   7	   0	
   5	   7	   5	   5	   6	   8	   5	   6	 999	   6	   6	   6	   6	   6	   6	   7	   6	   6	   6	   6	   6	   6	   6	   6	   6	   5	   6	   6	   5	   7	   7	   7	   6	   6	   6	   6	   5	   5	   6	   6	   6	   5	   7	   6	   7	   6	   7	   6	   5	   6	   0	
   6	   5	   7	   7	   7	   7	   6	   5	   7	 999	   6	   5	   7	   5	   8	   5	   7	   6	   7	   5	   7	   5	   5	   6	   6	   5	   5	   5	   6	   8	   7	   8	   7	   6	   7	   7	   7	   5	   7	   7	   7	   6	   7	   5	   8	   6	   8	   5	   5	   5	   0	
   7	   7	   6	   6	   5	   7	   7	   8	   6	   7	 999	   7	   6	   6	   7	   6	   7	   7	   6	   6	   6	   6	   6	   7	   5	   6	   7	   6	   6	   7	   5	   7	   7	   5	   6	   6	   6	   5	   6	   7	   7	   5	   8	   6	   7	   7	   7	   6	   6	   7	   0	
   6	   5	   6	   6	   7	   7	   6	   5	   6	   5	   7	 999	   6	   5	   7	   6	   6	   5	   6	   6	   7	   5	   5	   5	   7	   5	   5	   6	   6	   7	   8	   7	   6	   7	   7	   7	   6	   6	   7	   6	   7	   6	   6	   6	   8	   6	   7	   5	   5	   5	   0	
   6	   8	   5	   5	   6	   8	   6	   7	   5	   7	   6	   7	 999	   7	   5	   8	   6	   6	   5	   7	   5	   7	   7	   7	   7	   6	   7	   7	   6	   5	   7	   5	   5	   6	   6	   5	   5	   7	   5	   6	   6	   6	   6	   8	   6	   5	   5	   7	   6	   7	   0	
   5	   6	   6	   5	   6	   7	   5	   6	   5	   6	   6	   6	   6	 999	   8	   5	   7	   6	   7	   5	   7	   5	   5	   5	   6	   5	   5	   6	   6	   8	   7	   8	   7	   7	   7	   7	   7	   6	   7	   7	   7	   6	   7	   5	   8	   6	   8	   5	   5	   5	   0	
   6	   6	   7	   6	   6	   6	   6	   7	   7	   7	   6	   7	   7	   6	 999	   8	   5	   6	   5	   8	   6	   8	   7	   7	   7	   7	   7	   8	   6	   5	   7	   5	   5	   7	   6	   5	   5	   7	   5	   5	   5	   7	   6	   8	   5	   6	   5	   8	   7	   8	   0	
   5	   7	   5	   5	   5	   7	   5	   6	   5	   6	   6	   6	   5	   5	   6	 999	   7	   7	   8	   5	   8	   5	   5	   6	   6	   6	   6	   5	   7	   9	   7	   9	   7	   7	   8	   8	   7	   6	   8	   8	   8	   6	   7	   5	   9	   7	   9	   5	   6	   5	   0	
   5	   7	   5	   5	   6	   7	   5	   6	   5	   6	   6	   6	   6	   5	   6	   5	 999	   5	   6	   7	   7	   7	   6	   6	   8	   6	   6	   7	   6	   6	   8	   6	   5	   8	   7	   6	   6	   7	   6	   5	   5	   7	   5	   7	   6	   5	   6	   7	   6	   7	   0	
   5	   6	   6	   5	   6	   6	   5	   6	   6	   6	   6	   6	   6	   5	   6	   5	   5	 999	   5	   6	   6	   6	   6	   5	   7	   6	   6	   6	   6	   7	   8	   7	   5	   7	   7	   6	   5	   6	   6	   5	   6	   7	   5	   6	   7	   5	   7	   6	   6	   6	   0	
   7	   5	   7	   7	   7	   7	   7	   5	   7	   5	   7	   5	   8	   6	   7	   7	   7	   6	 999	   7	   5	   7	   7	   6	   6	   6	   6	   7	   6	   6	   7	   6	   5	   6	   6	   5	   5	   6	   5	   6	   6	   6	   6	   7	   6	   5	   6	   7	   6	   7	   0	
   6	   6	   7	   6	   7	   7	   6	   5	   6	   5	   8	   5	   7	   6	   7	   7	   6	   6	   5	 999	   7	   5	   5	   6	   6	   5	   6	   5	   6	   8	   7	   8	   7	   6	   7	   7	   7	   5	   7	   7	   7	   5	   7	   5	   8	   6	   8	   5	   5	   6	   0	
   5	   6	   6	   5	   6	   7	   5	   5	   5	   6	   7	   5	   6	   5	   7	   6	   5	   5	   6	   5	 999	   7	   7	   7	   7	   6	   7	   7	   6	   5	   6	   5	   6	   6	   5	   5	   6	   7	   6	   7	   7	   6	   7	   8	   6	   6	   6	   7	   6	   7	   0	
   7	   7	   7	   7	   6	   6	   7	   8	   7	   8	   6	   8	   7	   7	   5	   6	   7	   7	   8	   8	   7	 999	   5	   5	   6	   6	   5	   5	   6	   8	   7	   8	   7	   6	   8	   7	   7	   6	   7	   7	   8	   6	   7	   5	   9	   7	   8	   5	   5	   5	   0	
   5	   7	   6	   5	   6	   7	   5	   6	   5	   7	   7	   6	   5	   5	   6	   6	   5	   6	   7	   6	   5	   7	 999	   5	   6	   5	   5	   5	   6	   8	   7	   8	   6	   6	   7	   7	   7	   6	   7	   7	   7	   6	   6	   5	   8	   6	   8	   5	   5	   5	   0	
   6	   5	   7	   7	   7	   6	   6	   6	   7	   5	   6	   6	   7	   6	   6	   6	   6	   6	   5	   6	   6	   7	   7	 999	   7	   6	   5	   6	   6	   7	   8	   8	   6	   7	   7	   7	   6	   6	   7	   6	   7	   7	   6	   5	   8	   6	   7	   6	   6	   5	   0	
   7	   5	   7	   7	   7	   6	   7	   6	   7	   6	   7	   6	   8	   6	   6	   7	   7	   6	   6	   6	   6	   6	   7	   5	 999	   6	   7	   5	   6	   7	   5	   7	   7	   6	   7	   7	   6	   5	   7	   7	   7	   5	   8	   6	   8	   7	   7	   6	   6	   7	   0	
   6	   6	   6	   6	   6	   6	   6	   7	   6	   6	   5	   7	   6	   6	   5	   5	   5	   5	   6	   7	   6	   6	   6	   6	   6	 999	   5	   6	   5	   7	   7	   7	   6	   6	   6	   6	   6	   5	   6	   6	   6	   6	   6	   6	   8	   5	   7	   5	   5	   5	   0	
   7	   7	   6	   7	   5	   7	   7	   8	   7	   7	   5	   8	   6	   7	   6	   6	   6	   6	   7	   8	   7	   6	   7	   7	   7	   6	 999	   6	   6	   8	   8	   8	   6	   7	   7	   7	   6	   6	   7	   6	   7	   7	   6	   5	   8	   6	   8	   5	   6	   5	   0	
   6	   5	   7	   6	   7	   6	   6	   6	   7	   5	   6	   6	   7	   6	   6	   6	   6	   6	   5	   6	   6	   7	   7	   5	   5	   6	   7	 999	   6	   8	   6	   8	   7	   6	   8	   7	   7	   5	   8	   7	   8	   6	   7	   5	   9	   7	   8	   5	   6	   6	   0	
   5	   7	   5	   5	   5	   7	   5	   6	   5	   6	   6	   6	   5	   5	   6	   5	   5	   5	   7	   6	   5	   6	   5	   6	   7	   5	   6	   6	 999	   7	   7	   7	   6	   6	   6	   6	   5	   5	   6	   6	   6	   5	   7	   6	   7	   6	   7	   6	   5	   6	   0	
   6	   6	   7	   6	   6	   6	   6	   7	   6	   7	   6	   7	   7	   6	   5	   6	   6	   6	   7	   7	   6	   6	   6	   6	   5	   5	   6	   6	   6	 999	   7	   5	   6	   6	   5	   5	   6	   8	   5	   6	   6	   7	   7	   8	   5	   6	   5	   8	   7	   8	   0	
   6	   6	   6	   6	   7	   7	   6	   5	   6	   5	   7	   5	   7	   5	   7	   6	   6	   5	   6	   5	   5	   7	   6	   5	   6	   6	   7	   5	   6	   6	 999	   7	   8	   5	   6	   7	   7	   6	   7	   8	   8	   6	   9	   7	   7	   8	   7	   7	   7	   8	   0	
   7	   6	   7	   7	   7	   5	   7	   6	   7	   6	   7	   6	   8	   6	   5	   7	   7	   6	   6	   7	   6	   6	   7	   5	   5	   6	   7	   5	   7	   5	   6	 999	   6	   6	   5	   5	   6	   8	   5	   6	   6	   7	   7	   8	   5	   6	   5	   8	   7	   8	   0	
   5	   7	   6	   5	   7	   7	   5	   6	   5	   6	   7	   6	   6	   5	   7	   6	   6	   6	   7	   6	   5	   8	   5	   6	   7	   7	   8	   6	   6	   7	   6	   7	 999	   7	   7	   6	   5	   6	   5	   5	   5	   6	   6	   7	   6	   5	   6	   7	   6	   7	   0	
   5	   7	   5	   5	   5	   8	   5	   7	   5	   7	   6	   7	   5	   6	   7	   5	   5	   6	   7	   7	   6	   7	   6	   7	   8	   6	   6	   7	   5	   7	   6	   8	   6	 999	   6	   6	   6	   6	   7	   7	   7	   5	   8	   7	   7	   7	   7	   6	   6	   7	   0	
   5	   8	   5	   5	   6	   8	   5	   7	   5	   7	   6	   7	   5	   6	   7	   5	   5	   6	   7	   7	   6	   7	   5	   7	   8	   6	   6	   7	   5	   7	   6	   8	   6	   5	 999	   6	   6	   7	   6	   7	   7	   7	   8	   8	   6	   7	   6	   7	   7	   7	   0	
   7	   7	   6	   7	   6	   6	   7	   8	   7	   7	   5	   8	   7	   7	   5	   6	   6	   6	   7	   8	   7	   5	   7	   7	   6	   6	   5	   7	   6	   5	   7	   6	   8	   6	   7	 999	   5	   7	   5	   6	   6	   6	   7	   8	   6	   6	   5	   7	   6	   7	   0	
   6	   5	   7	   7	   7	   6	   6	   6	   7	   6	   6	   6	   7	   6	   6	   6	   6	   6	   6	   6	   6	   6	   7	   5	   5	   6	   6	   5	   6	   5	   6	   5	   6	   7	   7	   6	 999	   6	   5	   6	   6	   6	   6	   7	   6	   5	   6	   7	   6	   7	   0	
   6	   5	   7	   7	   7	   7	   6	   5	   7	   5	   7	   5	   7	   6	   7	   7	   6	   6	   5	   5	   6	   8	   7	   5	   6	   7	   8	   5	   7	   7	   5	   6	   6	   7	   7	   8	   6	 999	   7	   7	   7	   5	   7	   6	   8	   6	   8	   5	   5	   6	   0	
   7	   5	   7	   7	   7	   7	   7	   5	   7	   5	   7	   5	   8	   6	   7	   7	   6	   6	   5	   5	   6	   8	   7	   5	   6	   6	   7	   5	   7	   7	   5	   6	   6	   7	   7	   7	   6	   5	 999	   5	   5	   7	   6	   8	   6	   5	   5	   7	   7	   7	   0	
   6	   6	   6	   6	   7	   7	   6	   5	   6	   5	   7	   5	   7	   5	   7	   6	   6	   5	   5	   5	   5	   7	   6	   5	   6	   6	   7	   5	   6	   6	   5	   6	   6	   6	   7	   7	   6	   5	   5	 999	   5	   7	   5	   7	   6	   5	   6	   7	   6	   7	   0	
   7	   7	   6	   7	   5	   7	   7	   8	   7	   7	   5	   8	   6	   7	   6	   6	   6	   6	   7	   8	   7	   6	   7	   7	   7	   5	   5	   6	   6	   6	   7	   7	   7	   6	   6	   5	   6	   7	   7	   7	 999	   7	   5	   8	   6	   6	   5	   7	   7	   7	   0	
   6	   7	   5	   6	   5	   7	   6	   7	   6	   7	   5	   7	   6	   6	   6	   5	   6	   6	   7	   7	   6	   6	   6	   7	   7	   5	   5	   6	   5	   6	   6	   7	   7	   5	   6	   6	   7	   7	   7	   6	   5	 999	   7	   6	   8	   6	   7	   6	   6	   6	   0	
   8	   8	   7	   7	   6	   6	   8	   9	   7	   8	   6	   8	   7	   7	   6	   7	   7	   7	   8	   9	   8	   5	   8	   7	   7	   6	   5	   7	   7	   6	   8	   7	   8	   7	   7	   5	   7	   8	   8	   8	   5	   6	 999	   7	   7	   6	   6	   7	   6	   7	   0	
   7	   6	   7	   7	   7	   5	   7	   7	   7	   7	   7	   7	   8	   6	   5	   7	   7	   6	   7	   7	   6	   6	   7	   6	   5	   6	   6	   6	   7	   5	   6	   5	   7	   8	   8	   6	   5	   7	   6	   6	   6	   7	   6	 999	   9	   7	   8	   5	   6	   5	   0	
   6	   6	   7	   6	   7	   5	   6	   6	   7	   6	   6	   6	   7	   6	   5	   6	   6	   6	   6	   7	   6	   6	   7	   5	   5	   6	   6	   5	   6	   5	   6	   5	   6	   7	   7	   6	   5	   6	   6	   6	   6	   6	   7	   5	 999	   7	   5	   9	   8	   8	   0	
   6	   6	   6	   6	   6	   6	   6	   7	   6	   7	   5	   7	   7	   6	   5	   6	   6	   6	   7	   7	   6	   5	   6	   6	   6	   5	   5	   6	   6	   5	   7	   6	   7	   6	   7	   5	   6	   7	   7	   7	   5	   6	   6	   6	   5	 999	   6	   6	   6	   6	   0	
   6	   6	   7	   7	   7	   5	   6	   7	   7	   6	   6	   7	   7	   6	   5	   6	   6	   6	   6	   7	   6	   6	   7	   6	   5	   6	   6	   6	   6	   5	   6	   5	   7	   7	   7	   6	   5	   7	   6	   6	   6	   7	   6	   5	   5	   5	 999	   8	   7	   8	   0	
   6	   5	   7	   7	   7	   7	   6	   5	   7	   5	   7	   5	   7	   6	   7	   6	   6	   6	   5	   5	   6	   7	   7	   5	   5	   6	   7	   5	   7	   6	   5	   6	   6	   7	   7	   7	   5	   5	   5	   5	   7	   7	   8	   6	   6	   7	   6	 999	   5	   5	   0	
   7	   7	   7	   7	   7	   5	   7	   8	   7	   7	   6	   8	   7	   7	   5	   6	   6	   6	   8	   8	   7	   5	   7	   7	   6	   6	   6	   7	   6	   5	   7	   6	   8	   7	   7	   5	   6	   8	   7	   7	   6	   7	   5	   5	   6	   5	   6	   7	 999	   5	   0	
   8	   5	   8	   8	   8	   5	   8	   6	   8	   6	   7	   6	   9	   7	   6	   8	   8	   7	   6	   7	   7	   6	   8	   6	   5	   7	   7	   6	   8	   6	   7	   5	   8	   8	   8	   6	   6	   6	   6	   6	   7	   8	   7	   5	   6	   6	   6	   6	   6	 999	   0	
   7	   7	   7	   7	   6	   6	   7	   8	   7	   7	   6	   8	   7	   7	   5	   6	   7	   6	   8	   8	   7	   5	   7	   7	   6	   6	   6	   7	   6	   5	   7	   6	   8	   7	   7	   5	   6	   8	   7	   7	   6	   6	   5	   5	   6	   5	   6	   7	   5	   6	 999	



